[
  {
    "link_thumb": "https://live.staticflickr.com/65535/49890476078_14bbe8d662_n.jpg",
    "id_album": "-614014513",
    "description": "2017_rv_Morgan_rv_EV3_rv_V1_rv_2000",
    "title": "2017_rv_Morgan_rv_EV3_rv_V1_rv_2000",
    "link_img": "https://live.staticflickr.com/65535/49890476078_8d2a2fa7eb_o.jpg",
    "id_image": "2017_rv_Morgan_rv_EV3_rv_V1_rv_2000",
    "count_view": 0
  },
  {
    "link_thumb": "https://live.staticflickr.com/65535/49891301262_ed8a12f585_n.jpg",
    "id_album": "-614014513",
    "description": "2017_rv_Morgan_rv_EV3_rv_V2_rv_2000",
    "title": "2017_rv_Morgan_rv_EV3_rv_V2_rv_2000",
    "link_img": "https://live.staticflickr.com/65535/49891301262_981283c877_o.jpg",
    "id_image": "2017_rv_Morgan_rv_EV3_rv_V2_rv_2000",
    "count_view": 0
  },
  {
    "link_thumb": "https://live.staticflickr.com/65535/49891301547_9cf2c7db3b_n.jpg",
    "id_album": "-614014513",
    "description": "2017_rv_Morgan_rv_EV3_rv_V3_rv_2000",
    "title": "2017_rv_Morgan_rv_EV3_rv_V3_rv_2000",
    "link_img": "https://live.staticflickr.com/65535/49891301547_f7cd2cc83e_o.jpg",
    "id_image": "2017_rv_Morgan_rv_EV3_rv_V3_rv_2000",
    "count_view": 0
  },
  {
    "link_thumb": "https://live.staticflickr.com/65535/49891302022_0a4469ace8_n.jpg",
    "id_album": "-614014513",
    "description": "2017_rv_Morgan_rv_EV3_rv_V5_rv_2000",
    "title": "2017_rv_Morgan_rv_EV3_rv_V5_rv_2000",
    "link_img": "https://live.staticflickr.com/65535/49891302022_c00295161e_o.jpg",
    "id_image": "2017_rv_Morgan_rv_EV3_rv_V5_rv_2000",
    "count_view": 0
  },
  {
    "link_thumb": "https://live.staticflickr.com/65535/49890477288_a4f8d44934_n.jpg",
    "id_album": "-614014513",
    "description": "2017_rv_Morgan_rv_EV3_rv_V6_rv_2000",
    "title": "2017_rv_Morgan_rv_EV3_rv_V6_rv_2000",
    "link_img": "https://live.staticflickr.com/65535/49890477288_eb2f226fbf_o.jpg",
    "id_image": "2017_rv_Morgan_rv_EV3_rv_V6_rv_2000",
    "count_view": 0
  }
]