[
  {
    "link_thumb": "https://live.staticflickr.com/65535/49889923843_fd3383ee22_n.jpg",
    "id_album": "284880556",
    "description": "1963_rv_Maserati_rv_Quattroporte_rv_V1_rv_1440",
    "title": "1963_rv_Maserati_rv_Quattroporte_rv_V1_rv_1440",
    "link_img": "https://live.staticflickr.com/65535/49889923843_9b3027ff28_o.jpg",
    "id_image": "1963_rv_Maserati_rv_Quattroporte_rv_V1_rv_1440",
    "count_view": 0
  },
  {
    "link_thumb": "https://live.staticflickr.com/65535/49889924028_7522ef3ac2_n.jpg",
    "id_album": "284880556",
    "description": "1963_rv_Maserati_rv_Quattroporte_rv_V2_rv_1440",
    "title": "1963_rv_Maserati_rv_Quattroporte_rv_V2_rv_1440",
    "link_img": "https://live.staticflickr.com/65535/49889924028_a2c2d7ac13_o.jpg",
    "id_image": "1963_rv_Maserati_rv_Quattroporte_rv_V2_rv_1440",
    "count_view": 0
  },
  {
    "link_thumb": "https://live.staticflickr.com/65535/49890749677_d6eb6043e6_n.jpg",
    "id_album": "284880556",
    "description": "1963_rv_Maserati_rv_Quattroporte_rv_V3_rv_1440",
    "title": "1963_rv_Maserati_rv_Quattroporte_rv_V3_rv_1440",
    "link_img": "https://live.staticflickr.com/65535/49890749677_26449a2caa_o.jpg",
    "id_image": "1963_rv_Maserati_rv_Quattroporte_rv_V3_rv_1440",
    "count_view": 0
  },
  {
    "link_thumb": "https://live.staticflickr.com/65535/49889924478_02c8312310_n.jpg",
    "id_album": "284880556",
    "description": "2008_rv_Maserati_rv_Quattroporte_rv_V1_rv_1440",
    "title": "2008_rv_Maserati_rv_Quattroporte_rv_V1_rv_1440",
    "link_img": "https://live.staticflickr.com/65535/49889924478_270a4f046a_o.jpg",
    "id_image": "2008_rv_Maserati_rv_Quattroporte_rv_V1_rv_1440",
    "count_view": 0
  },
  {
    "link_thumb": "https://live.staticflickr.com/65535/49890749982_1bb2fb28e9_n.jpg",
    "id_album": "284880556",
    "description": "2008_rv_Maserati_rv_Quattroporte_rv_V2_rv_1440",
    "title": "2008_rv_Maserati_rv_Quattroporte_rv_V2_rv_1440",
    "link_img": "https://live.staticflickr.com/65535/49890749982_8c0873e96b_o.jpg",
    "id_image": "2008_rv_Maserati_rv_Quattroporte_rv_V2_rv_1440",
    "count_view": 0
  },
  {
    "link_thumb": "https://live.staticflickr.com/65535/49890442876_2536c4e824_n.jpg",
    "id_album": "284880556",
    "description": "2008_rv_Maserati_rv_Quattroporte_rv_V3_rv_1440",
    "title": "2008_rv_Maserati_rv_Quattroporte_rv_V3_rv_1440",
    "link_img": "https://live.staticflickr.com/65535/49890442876_b9cb6c9a5a_o.jpg",
    "id_image": "2008_rv_Maserati_rv_Quattroporte_rv_V3_rv_1440",
    "count_view": 0
  },
  {
    "link_thumb": "https://live.staticflickr.com/65535/49890750327_36280fe96f_n.jpg",
    "id_album": "284880556",
    "description": "2008_rv_Maserati_rv_Quattroporte_rv_V4_rv_1440",
    "title": "2008_rv_Maserati_rv_Quattroporte_rv_V4_rv_1440",
    "link_img": "https://live.staticflickr.com/65535/49890750327_ffca1dc0fc_o.jpg",
    "id_image": "2008_rv_Maserati_rv_Quattroporte_rv_V4_rv_1440",
    "count_view": 0
  },
  {
    "link_thumb": "https://live.staticflickr.com/65535/49890443171_ddb457b2af_n.jpg",
    "id_album": "284880556",
    "description": "2008_rv_Maserati_rv_Quattroporte_rv_V5_rv_1440",
    "title": "2008_rv_Maserati_rv_Quattroporte_rv_V5_rv_1440",
    "link_img": "https://live.staticflickr.com/65535/49890443171_8269aa2689_o.jpg",
    "id_image": "2008_rv_Maserati_rv_Quattroporte_rv_V5_rv_1440",
    "count_view": 0
  },
  {
    "link_thumb": "https://live.staticflickr.com/65535/49890750662_cbc209ecdf_n.jpg",
    "id_album": "284880556",
    "description": "2008_rv_Maserati_rv_Quattroporte_rv_V6_rv_1440",
    "title": "2008_rv_Maserati_rv_Quattroporte_rv_V6_rv_1440",
    "link_img": "https://live.staticflickr.com/65535/49890750662_07bcbeaf64_o.jpg",
    "id_image": "2008_rv_Maserati_rv_Quattroporte_rv_V6_rv_1440",
    "count_view": 0
  },
  {
    "link_thumb": "https://live.staticflickr.com/65535/49890443531_5f0408774b_n.jpg",
    "id_album": "284880556",
    "description": "2009_rv_Maserati_rv_Quattroporte_rv_Sport_rv_GT_rv_S_rv_V1_rv_1536",
    "title": "2009_rv_Maserati_rv_Quattroporte_rv_Sport_rv_GT_rv_S_rv_V1_rv_1536",
    "link_img": "https://live.staticflickr.com/65535/49890443531_42c4ac4d7e_o.jpg",
    "id_image": "2009_rv_Maserati_rv_Quattroporte_rv_Sport_rv_GT_rv_S_rv_V1_rv_1536",
    "count_view": 0
  },
  {
    "link_thumb": "https://live.staticflickr.com/65535/49890750982_a8049d4477_n.jpg",
    "id_album": "284880556",
    "description": "2009_rv_Maserati_rv_Quattroporte_rv_Sport_rv_GT_rv_S_rv_V2_rv_1536",
    "title": "2009_rv_Maserati_rv_Quattroporte_rv_Sport_rv_GT_rv_S_rv_V2_rv_1536",
    "link_img": "https://live.staticflickr.com/65535/49890750982_5b1ddb6e11_o.jpg",
    "id_image": "2009_rv_Maserati_rv_Quattroporte_rv_Sport_rv_GT_rv_S_rv_V2_rv_1536",
    "count_view": 0
  },
  {
    "link_thumb": "https://live.staticflickr.com/65535/49889925848_f8d7a5e717_n.jpg",
    "id_album": "284880556",
    "description": "2009_rv_Maserati_rv_Quattroporte_rv_Sport_rv_GT_rv_S_rv_V3_rv_1536",
    "title": "2009_rv_Maserati_rv_Quattroporte_rv_Sport_rv_GT_rv_S_rv_V3_rv_1536",
    "link_img": "https://live.staticflickr.com/65535/49889925848_4059019ff4_o.jpg",
    "id_image": "2009_rv_Maserati_rv_Quattroporte_rv_Sport_rv_GT_rv_S_rv_V3_rv_1536",
    "count_view": 0
  },
  {
    "link_thumb": "https://live.staticflickr.com/65535/49890444096_0314103395_n.jpg",
    "id_album": "284880556",
    "description": "2009_rv_Maserati_rv_Quattroporte_rv_Sport_rv_GT_rv_S_rv_V4_rv_1536",
    "title": "2009_rv_Maserati_rv_Quattroporte_rv_Sport_rv_GT_rv_S_rv_V4_rv_1536",
    "link_img": "https://live.staticflickr.com/65535/49890444096_623b90efcd_o.jpg",
    "id_image": "2009_rv_Maserati_rv_Quattroporte_rv_Sport_rv_GT_rv_S_rv_V4_rv_1536",
    "count_view": 0
  },
  {
    "link_thumb": "https://live.staticflickr.com/65535/49890444226_73df0844c6_n.jpg",
    "id_album": "284880556",
    "description": "2009_rv_Maserati_rv_Quattroporte_rv_Sport_rv_GT_rv_S_rv_V5_rv_1536",
    "title": "2009_rv_Maserati_rv_Quattroporte_rv_Sport_rv_GT_rv_S_rv_V5_rv_1536",
    "link_img": "https://live.staticflickr.com/65535/49890444226_0ac09ecea1_o.jpg",
    "id_image": "2009_rv_Maserati_rv_Quattroporte_rv_Sport_rv_GT_rv_S_rv_V5_rv_1536",
    "count_view": 0
  },
  {
    "link_thumb": "https://live.staticflickr.com/65535/49890751682_79bfd58396_n.jpg",
    "id_album": "284880556",
    "description": "2009_rv_Maserati_rv_Quattroporte_rv_Sport_rv_GT_rv_S_rv_V6_rv_1536",
    "title": "2009_rv_Maserati_rv_Quattroporte_rv_Sport_rv_GT_rv_S_rv_V6_rv_1536",
    "link_img": "https://live.staticflickr.com/65535/49890751682_d095b2b46b_o.jpg",
    "id_image": "2009_rv_Maserati_rv_Quattroporte_rv_Sport_rv_GT_rv_S_rv_V6_rv_1536",
    "count_view": 0
  },
  {
    "link_thumb": "https://live.staticflickr.com/65535/49890444531_c7072cc0c8_n.jpg",
    "id_album": "284880556",
    "description": "2009_rv_Maserati_rv_Quattroporte_rv_Sport_rv_GT_rv_S_rv_V7_rv_1536",
    "title": "2009_rv_Maserati_rv_Quattroporte_rv_Sport_rv_GT_rv_S_rv_V7_rv_1536",
    "link_img": "https://live.staticflickr.com/65535/49890444531_4d03a346b0_o.jpg",
    "id_image": "2009_rv_Maserati_rv_Quattroporte_rv_Sport_rv_GT_rv_S_rv_V7_rv_1536",
    "count_view": 0
  },
  {
    "link_thumb": "https://live.staticflickr.com/65535/49890752002_7f746606d5_n.jpg",
    "id_album": "284880556",
    "description": "2009_rv_Maserati_rv_Quattroporte_rv_Sport_rv_GT_rv_S_rv_V8_rv_1536",
    "title": "2009_rv_Maserati_rv_Quattroporte_rv_Sport_rv_GT_rv_S_rv_V8_rv_1536",
    "link_img": "https://live.staticflickr.com/65535/49890752002_0be902b41a_o.jpg",
    "id_image": "2009_rv_Maserati_rv_Quattroporte_rv_Sport_rv_GT_rv_S_rv_V8_rv_1536",
    "count_view": 0
  },
  {
    "link_thumb": "https://live.staticflickr.com/65535/49890444881_8ee1507377_n.jpg",
    "id_album": "284880556",
    "description": "2011_rv_Maserati_rv_Quattroporte_rv_Sport_rv_GT_rv_S_rv_Awards_rv_Edition_rv_V1_rv_1440",
    "title": "2011_rv_Maserati_rv_Quattroporte_rv_Sport_rv_GT_rv_S_rv_Awards_rv_Edition_rv_V1_rv_1440",
    "link_img": "https://live.staticflickr.com/65535/49890444881_5cecc985a9_o.jpg",
    "id_image": "2011_rv_Maserati_rv_Quattroporte_rv_Sport_rv_GT_rv_S_rv_Awards_rv_Edition_rv_V1_rv_1440",
    "count_view": 0
  },
  {
    "link_thumb": "https://live.staticflickr.com/65535/49890752412_3364a15136_n.jpg",
    "id_album": "284880556",
    "description": "2011_rv_Maserati_rv_Quattroporte_rv_Sport_rv_GT_rv_S_rv_Awards_rv_Edition_rv_V2_rv_1440",
    "title": "2011_rv_Maserati_rv_Quattroporte_rv_Sport_rv_GT_rv_S_rv_Awards_rv_Edition_rv_V2_rv_1440",
    "link_img": "https://live.staticflickr.com/65535/49890752412_883569b56d_o.jpg",
    "id_image": "2011_rv_Maserati_rv_Quattroporte_rv_Sport_rv_GT_rv_S_rv_Awards_rv_Edition_rv_V2_rv_1440",
    "count_view": 0
  },
  {
    "link_thumb": "https://live.staticflickr.com/65535/49889927398_d83747cb04_n.jpg",
    "id_album": "284880556",
    "description": "2013_rv_Maserati_rv_Quattroporte_rv_V1_rv_1600",
    "title": "2013_rv_Maserati_rv_Quattroporte_rv_V1_rv_1600",
    "link_img": "https://live.staticflickr.com/65535/49889927398_155b3b39bf_o.jpg",
    "id_image": "2013_rv_Maserati_rv_Quattroporte_rv_V1_rv_1600",
    "count_view": 0
  },
  {
    "link_thumb": "https://live.staticflickr.com/65535/49890752802_654353bf52_n.jpg",
    "id_album": "284880556",
    "description": "2013_rv_Maserati_rv_Quattroporte_rv_V2_rv_1600",
    "title": "2013_rv_Maserati_rv_Quattroporte_rv_V2_rv_1600",
    "link_img": "https://live.staticflickr.com/65535/49890752802_929006d1fb_o.jpg",
    "id_image": "2013_rv_Maserati_rv_Quattroporte_rv_V2_rv_1600",
    "count_view": 0
  },
  {
    "link_thumb": "https://live.staticflickr.com/65535/49890752947_a3e493836c_n.jpg",
    "id_album": "284880556",
    "description": "2013_rv_Maserati_rv_Quattroporte_rv_V3_rv_1600",
    "title": "2013_rv_Maserati_rv_Quattroporte_rv_V3_rv_1600",
    "link_img": "https://live.staticflickr.com/65535/49890752947_92340be1cd_o.jpg",
    "id_image": "2013_rv_Maserati_rv_Quattroporte_rv_V3_rv_1600",
    "count_view": 0
  },
  {
    "link_thumb": "https://live.staticflickr.com/65535/49890753097_4d9bfdf758_n.jpg",
    "id_album": "284880556",
    "description": "2013_rv_Maserati_rv_Quattroporte_rv_V4_rv_1600",
    "title": "2013_rv_Maserati_rv_Quattroporte_rv_V4_rv_1600",
    "link_img": "https://live.staticflickr.com/65535/49890753097_08a46e32bb_o.jpg",
    "id_image": "2013_rv_Maserati_rv_Quattroporte_rv_V4_rv_1600",
    "count_view": 0
  },
  {
    "link_thumb": "https://live.staticflickr.com/65535/49890753277_a051b90c9a_n.jpg",
    "id_album": "284880556",
    "description": "2013_rv_Maserati_rv_Quattroporte_rv_V5_rv_1600",
    "title": "2013_rv_Maserati_rv_Quattroporte_rv_V5_rv_1600",
    "link_img": "https://live.staticflickr.com/65535/49890753277_5c1874a6ec_o.jpg",
    "id_image": "2013_rv_Maserati_rv_Quattroporte_rv_V5_rv_1600",
    "count_view": 0
  },
  {
    "link_thumb": "https://live.staticflickr.com/65535/49889928303_b98cfe34eb_n.jpg",
    "id_album": "284880556",
    "description": "2013_rv_Maserati_rv_Quattroporte_rv_V6_rv_1600",
    "title": "2013_rv_Maserati_rv_Quattroporte_rv_V6_rv_1600",
    "link_img": "https://live.staticflickr.com/65535/49889928303_4a073bdb08_o.jpg",
    "id_image": "2013_rv_Maserati_rv_Quattroporte_rv_V6_rv_1600",
    "count_view": 0
  },
  {
    "link_thumb": "https://live.staticflickr.com/65535/49890446376_ee317edc63_n.jpg",
    "id_album": "284880556",
    "description": "2013_rv_Maserati_rv_Quattroporte_rv_Zegna_rv_Edition_rv_Concept_rv_V1_rv_1600",
    "title": "2013_rv_Maserati_rv_Quattroporte_rv_Zegna_rv_Edition_rv_Concept_rv_V1_rv_1600",
    "link_img": "https://live.staticflickr.com/65535/49890446376_ec9012838e_o.jpg",
    "id_image": "2013_rv_Maserati_rv_Quattroporte_rv_Zegna_rv_Edition_rv_Concept_rv_V1_rv_1600",
    "count_view": 0
  },
  {
    "link_thumb": "https://live.staticflickr.com/65535/49889928603_6dee1e1e26_n.jpg",
    "id_album": "284880556",
    "description": "2013_rv_Maserati_rv_Quattroporte_rv_Zegna_rv_Edition_rv_Concept_rv_V2_rv_1600",
    "title": "2013_rv_Maserati_rv_Quattroporte_rv_Zegna_rv_Edition_rv_Concept_rv_V2_rv_1600",
    "link_img": "https://live.staticflickr.com/65535/49889928603_973bea4f53_o.jpg",
    "id_image": "2013_rv_Maserati_rv_Quattroporte_rv_Zegna_rv_Edition_rv_Concept_rv_V2_rv_1600",
    "count_view": 0
  },
  {
    "link_thumb": "https://live.staticflickr.com/65535/49890446801_14b3cde4e9_n.jpg",
    "id_album": "284880556",
    "description": "2017_rv_Maserati_rv_Quattroporte_rv_GTS_rv_V1_rv_2000",
    "title": "2017_rv_Maserati_rv_Quattroporte_rv_GTS_rv_V1_rv_2000",
    "link_img": "https://live.staticflickr.com/65535/49890446801_08c544ae98_o.jpg",
    "id_image": "2017_rv_Maserati_rv_Quattroporte_rv_GTS_rv_V1_rv_2000",
    "count_view": 0
  },
  {
    "link_thumb": "https://live.staticflickr.com/65535/49890754257_95029fd5e4_n.jpg",
    "id_album": "284880556",
    "description": "2017_rv_Maserati_rv_Quattroporte_rv_GTS_rv_V2_rv_2000",
    "title": "2017_rv_Maserati_rv_Quattroporte_rv_GTS_rv_V2_rv_2000",
    "link_img": "https://live.staticflickr.com/65535/49890754257_880eeeaa6f_o.jpg",
    "id_image": "2017_rv_Maserati_rv_Quattroporte_rv_GTS_rv_V2_rv_2000",
    "count_view": 0
  },
  {
    "link_thumb": "https://live.staticflickr.com/65535/49889929183_3fde33011f_n.jpg",
    "id_album": "284880556",
    "description": "2017_rv_Maserati_rv_Quattroporte_rv_GTS_rv_V4_rv_2000",
    "title": "2017_rv_Maserati_rv_Quattroporte_rv_GTS_rv_V4_rv_2000",
    "link_img": "https://live.staticflickr.com/65535/49889929183_5a2e884421_o.jpg",
    "id_image": "2017_rv_Maserati_rv_Quattroporte_rv_GTS_rv_V4_rv_2000",
    "count_view": 0
  },
  {
    "link_thumb": "https://live.staticflickr.com/65535/49890447596_d16b52d5c6_n.jpg",
    "id_album": "284880556",
    "description": "2017_rv_Maserati_rv_Quattroporte_rv_GTS_rv_V5_rv_2000",
    "title": "2017_rv_Maserati_rv_Quattroporte_rv_GTS_rv_V5_rv_2000",
    "link_img": "https://live.staticflickr.com/65535/49890447596_1e0c206b57_o.jpg",
    "id_image": "2017_rv_Maserati_rv_Quattroporte_rv_GTS_rv_V5_rv_2000",
    "count_view": 0
  },
  {
    "link_thumb": "https://live.staticflickr.com/65535/49890754862_cea4a08491_n.jpg",
    "id_album": "284880556",
    "description": "2017_rv_Maserati_rv_Quattroporte_rv_GTS_rv_V6_rv_2000",
    "title": "2017_rv_Maserati_rv_Quattroporte_rv_GTS_rv_V6_rv_2000",
    "link_img": "https://live.staticflickr.com/65535/49890754862_516bf79df7_o.jpg",
    "id_image": "2017_rv_Maserati_rv_Quattroporte_rv_GTS_rv_V6_rv_2000",
    "count_view": 0
  }
]