[
  {
    "total_img": 0,
    "number_page": 0,
    "title": "Toyota MR2",
    "tag": "Toyota MR2,",
    "description": "Toyota MR2",
    "link_thumb": "https://live.staticflickr.com/65535/49891993418_e6ee83424d_n.jpg",
    "id_album": "-467496004",
    "total_view": 36
  }
]