[
  {
    "total_img": 0,
    "number_page": 0,
    "title": "Volvo S80",
    "tag": "Volvo S80,",
    "description": "Volvo S80",
    "link_thumb": "https://live.staticflickr.com/65535/49892688991_42eee1a56c_n.jpg",
    "id_album": "-1749229761",
    "total_view": 12
  }
]