[
  {
    "total_img": 0,
    "number_page": 0,
    "title": "Rinspeed",
    "tag": "Rinspeed,",
    "description": "Rinspeed",
    "link_thumb": "https://live.staticflickr.com/65535/49891775538_0a3538eacf_n.jpg",
    "id_album": "-1461312931",
    "total_view": 5
  }
]