[
  {
    "link_thumb": "https://live.staticflickr.com/65535/49892021958_a106517e77_n.jpg",
    "id_album": "2017658989",
    "description": "2016_rv_Trion_rv_Nemesis_rv_RR_rv_V1_rv_1440",
    "title": "2016_rv_Trion_rv_Nemesis_rv_RR_rv_V1_rv_1440",
    "link_img": "https://live.staticflickr.com/65535/49892021958_79cab208fa_o.jpg",
    "id_image": "2016_rv_Trion_rv_Nemesis_rv_RR_rv_V1_rv_1440",
    "count_view": 0
  },
  {
    "link_thumb": "https://live.staticflickr.com/65535/49892849527_817de9bd97_n.jpg",
    "id_album": "2017658989",
    "description": "2016_rv_Trion_rv_Nemesis_rv_RR_rv_V2_rv_1440",
    "title": "2016_rv_Trion_rv_Nemesis_rv_RR_rv_V2_rv_1440",
    "link_img": "https://live.staticflickr.com/65535/49892849527_1ec7ac7487_o.jpg",
    "id_image": "2016_rv_Trion_rv_Nemesis_rv_RR_rv_V2_rv_1440",
    "count_view": 0
  },
  {
    "link_thumb": "https://live.staticflickr.com/65535/49892536836_1c88c8489c_n.jpg",
    "id_album": "2017658989",
    "description": "2016_rv_Trion_rv_Nemesis_rv_RR_rv_V3_rv_1440",
    "title": "2016_rv_Trion_rv_Nemesis_rv_RR_rv_V3_rv_1440",
    "link_img": "https://live.staticflickr.com/65535/49892536836_410cc1cac0_o.jpg",
    "id_image": "2016_rv_Trion_rv_Nemesis_rv_RR_rv_V3_rv_1440",
    "count_view": 0
  },
  {
    "link_thumb": "https://live.staticflickr.com/65535/49892849807_b763a05270_n.jpg",
    "id_album": "2017658989",
    "description": "2016_rv_Trion_rv_Nemesis_rv_RR_rv_V4_rv_1440",
    "title": "2016_rv_Trion_rv_Nemesis_rv_RR_rv_V4_rv_1440",
    "link_img": "https://live.staticflickr.com/65535/49892849807_bba78a4467_o.jpg",
    "id_image": "2016_rv_Trion_rv_Nemesis_rv_RR_rv_V4_rv_1440",
    "count_view": 0
  },
  {
    "link_thumb": "https://live.staticflickr.com/65535/49892022453_55176c7af3_n.jpg",
    "id_album": "2017658989",
    "description": "2016_rv_Trion_rv_Nemesis_rv_RR_rv_V5_rv_1440",
    "title": "2016_rv_Trion_rv_Nemesis_rv_RR_rv_V5_rv_1440",
    "link_img": "https://live.staticflickr.com/65535/49892022453_e6fd9e8f76_o.jpg",
    "id_image": "2016_rv_Trion_rv_Nemesis_rv_RR_rv_V5_rv_1440",
    "count_view": 0
  },
  {
    "link_thumb": "https://live.staticflickr.com/65535/49892022558_4ee706f353_n.jpg",
    "id_album": "2017658989",
    "description": "2016_rv_Trion_rv_Nemesis_rv_RR_rv_V6_rv_1440",
    "title": "2016_rv_Trion_rv_Nemesis_rv_RR_rv_V6_rv_1440",
    "link_img": "https://live.staticflickr.com/65535/49892022558_62eb4c3087_o.jpg",
    "id_image": "2016_rv_Trion_rv_Nemesis_rv_RR_rv_V6_rv_1440",
    "count_view": 0
  }
]