[
  {
    "total_img": 0,
    "number_page": 0,
    "title": "Renault Laguna",
    "tag": "Renault Laguna,",
    "description": "Renault Laguna",
    "link_thumb": "https://live.staticflickr.com/65535/49891745073_569c86f092_n.jpg",
    "id_album": "-1387225061",
    "total_view": 9
  }
]