[
  {
    "link_thumb": "https://live.staticflickr.com/65535/49888826243_b2a274e04a_n.jpg",
    "id_album": "364404925",
    "description": "1969_rv_Dodge_rv_Coronet_rv_RT_rv_V1_rv_1536",
    "title": "1969_rv_Dodge_rv_Coronet_rv_RT_rv_V1_rv_1536",
    "link_img": "https://live.staticflickr.com/65535/49888826243_3e2df1a3ba_o.jpg",
    "id_image": "1969_rv_Dodge_rv_Coronet_rv_RT_rv_V1_rv_1536",
    "count_view": 0
  },
  {
    "link_thumb": "https://live.staticflickr.com/65535/49889343741_ef1ac3847d_n.jpg",
    "id_album": "364404925",
    "description": "1969_rv_Dodge_rv_Coronet_rv_RT_rv_V2_rv_1536",
    "title": "1969_rv_Dodge_rv_Coronet_rv_RT_rv_V2_rv_1536",
    "link_img": "https://live.staticflickr.com/65535/49889343741_921f0e7f85_o.jpg",
    "id_image": "1969_rv_Dodge_rv_Coronet_rv_RT_rv_V2_rv_1536",
    "count_view": 0
  },
  {
    "link_thumb": "https://live.staticflickr.com/65535/49889343911_c0b33915fb_n.jpg",
    "id_album": "364404925",
    "description": "1969_rv_Dodge_rv_Coronet_rv_RT_rv_V3_rv_1536",
    "title": "1969_rv_Dodge_rv_Coronet_rv_RT_rv_V3_rv_1536",
    "link_img": "https://live.staticflickr.com/65535/49889343911_a0cd1f3011_o.jpg",
    "id_image": "1969_rv_Dodge_rv_Coronet_rv_RT_rv_V3_rv_1536",
    "count_view": 0
  },
  {
    "link_thumb": "https://live.staticflickr.com/65535/49889653537_a251124967_n.jpg",
    "id_album": "364404925",
    "description": "1969_rv_Dodge_rv_Coronet_rv_RT_rv_V4_rv_1536",
    "title": "1969_rv_Dodge_rv_Coronet_rv_RT_rv_V4_rv_1536",
    "link_img": "https://live.staticflickr.com/65535/49889653537_1e4c6b031f_o.jpg",
    "id_image": "1969_rv_Dodge_rv_Coronet_rv_RT_rv_V4_rv_1536",
    "count_view": 0
  },
  {
    "link_thumb": "https://live.staticflickr.com/65535/49888826818_658dc1cca9_n.jpg",
    "id_album": "364404925",
    "description": "1969_rv_Dodge_rv_Coronet_rv_RT_rv_V5_rv_1536",
    "title": "1969_rv_Dodge_rv_Coronet_rv_RT_rv_V5_rv_1536",
    "link_img": "https://live.staticflickr.com/65535/49888826818_12fe0567f0_o.jpg",
    "id_image": "1969_rv_Dodge_rv_Coronet_rv_RT_rv_V5_rv_1536",
    "count_view": 0
  },
  {
    "link_thumb": "https://live.staticflickr.com/65535/49889344291_a741a364a6_n.jpg",
    "id_album": "364404925",
    "description": "1969_rv_Dodge_rv_Coronet_rv_RT_rv_V6_rv_1536",
    "title": "1969_rv_Dodge_rv_Coronet_rv_RT_rv_V6_rv_1536",
    "link_img": "https://live.staticflickr.com/65535/49889344291_b20394a7be_o.jpg",
    "id_image": "1969_rv_Dodge_rv_Coronet_rv_RT_rv_V6_rv_1536",
    "count_view": 0
  },
  {
    "link_thumb": "https://live.staticflickr.com/65535/49889344426_f9aa0904f4_n.jpg",
    "id_album": "364404925",
    "description": "1969_rv_Dodge_rv_Coronet_rv_RT_rv_V7_rv_1536",
    "title": "1969_rv_Dodge_rv_Coronet_rv_RT_rv_V7_rv_1536",
    "link_img": "https://live.staticflickr.com/65535/49889344426_cdbceee392_o.jpg",
    "id_image": "1969_rv_Dodge_rv_Coronet_rv_RT_rv_V7_rv_1536",
    "count_view": 0
  },
  {
    "link_thumb": "https://live.staticflickr.com/65535/49889344526_0311790c46_n.jpg",
    "id_album": "364404925",
    "description": "1969_rv_Dodge_rv_Coronet_rv_RT_rv_V8_rv_1536",
    "title": "1969_rv_Dodge_rv_Coronet_rv_RT_rv_V8_rv_1536",
    "link_img": "https://live.staticflickr.com/65535/49889344526_c46712977e_o.jpg",
    "id_image": "1969_rv_Dodge_rv_Coronet_rv_RT_rv_V8_rv_1536",
    "count_view": 0
  },
  {
    "link_thumb": "https://live.staticflickr.com/65535/49889654267_2a847f74da_n.jpg",
    "id_album": "364404925",
    "description": "1969_rv_Dodge_rv_Coronet_rv_Super_rv_Bee_rv_V1_rv_1536",
    "title": "1969_rv_Dodge_rv_Coronet_rv_Super_rv_Bee_rv_V1_rv_1536",
    "link_img": "https://live.staticflickr.com/65535/49889654267_410d96e6ba_o.jpg",
    "id_image": "1969_rv_Dodge_rv_Coronet_rv_Super_rv_Bee_rv_V1_rv_1536",
    "count_view": 0
  },
  {
    "link_thumb": "https://live.staticflickr.com/65535/49889344901_ccd1fcec9d_n.jpg",
    "id_album": "364404925",
    "description": "1969_rv_Dodge_rv_Coronet_rv_Super_rv_Bee_rv_V2_rv_1536",
    "title": "1969_rv_Dodge_rv_Coronet_rv_Super_rv_Bee_rv_V2_rv_1536",
    "link_img": "https://live.staticflickr.com/65535/49889344901_8f524ef60d_o.jpg",
    "id_image": "1969_rv_Dodge_rv_Coronet_rv_Super_rv_Bee_rv_V2_rv_1536",
    "count_view": 0
  },
  {
    "link_thumb": "https://live.staticflickr.com/65535/49889345016_b8e8ca3935_n.jpg",
    "id_album": "364404925",
    "description": "1969_rv_Dodge_rv_Coronet_rv_Super_rv_Bee_rv_V3_rv_1536",
    "title": "1969_rv_Dodge_rv_Coronet_rv_Super_rv_Bee_rv_V3_rv_1536",
    "link_img": "https://live.staticflickr.com/65535/49889345016_3c502be28d_o.jpg",
    "id_image": "1969_rv_Dodge_rv_Coronet_rv_Super_rv_Bee_rv_V3_rv_1536",
    "count_view": 0
  },
  {
    "link_thumb": "https://live.staticflickr.com/65535/49888827758_35cab043ea_n.jpg",
    "id_album": "364404925",
    "description": "1969_rv_Dodge_rv_Coronet_rv_Super_rv_Bee_rv_V4_rv_1536",
    "title": "1969_rv_Dodge_rv_Coronet_rv_Super_rv_Bee_rv_V4_rv_1536",
    "link_img": "https://live.staticflickr.com/65535/49888827758_9db3f28d81_o.jpg",
    "id_image": "1969_rv_Dodge_rv_Coronet_rv_Super_rv_Bee_rv_V4_rv_1536",
    "count_view": 0
  },
  {
    "link_thumb": "https://live.staticflickr.com/65535/49888827893_bd22ddedb6_n.jpg",
    "id_album": "364404925",
    "description": "1969_rv_Dodge_rv_Coronet_rv_Super_rv_Bee_rv_V5_rv_1536",
    "title": "1969_rv_Dodge_rv_Coronet_rv_Super_rv_Bee_rv_V5_rv_1536",
    "link_img": "https://live.staticflickr.com/65535/49888827893_c1b7b92948_o.jpg",
    "id_image": "1969_rv_Dodge_rv_Coronet_rv_Super_rv_Bee_rv_V5_rv_1536",
    "count_view": 0
  },
  {
    "link_thumb": "https://live.staticflickr.com/65535/49889654872_bafcefbb95_n.jpg",
    "id_album": "364404925",
    "description": "1969_rv_Dodge_rv_Coronet_rv_Super_rv_Bee_rv_V6_rv_1536",
    "title": "1969_rv_Dodge_rv_Coronet_rv_Super_rv_Bee_rv_V6_rv_1536",
    "link_img": "https://live.staticflickr.com/65535/49889654872_9f2fb18a1e_o.jpg",
    "id_image": "1969_rv_Dodge_rv_Coronet_rv_Super_rv_Bee_rv_V6_rv_1536",
    "count_view": 0
  },
  {
    "link_thumb": "https://live.staticflickr.com/65535/49889345596_a7f128a2c2_n.jpg",
    "id_album": "364404925",
    "description": "1969_rv_Dodge_rv_Coronet_rv_Super_rv_Bee_rv_V7_rv_1536",
    "title": "1969_rv_Dodge_rv_Coronet_rv_Super_rv_Bee_rv_V7_rv_1536",
    "link_img": "https://live.staticflickr.com/65535/49889345596_879a58d9ec_o.jpg",
    "id_image": "1969_rv_Dodge_rv_Coronet_rv_Super_rv_Bee_rv_V7_rv_1536",
    "count_view": 0
  },
  {
    "link_thumb": "https://live.staticflickr.com/65535/49889655137_db38cd053f_n.jpg",
    "id_album": "364404925",
    "description": "1969_rv_Dodge_rv_Coronet_rv_Super_rv_Bee_rv_V8_rv_1536",
    "title": "1969_rv_Dodge_rv_Coronet_rv_Super_rv_Bee_rv_V8_rv_1536",
    "link_img": "https://live.staticflickr.com/65535/49889655137_61cb534f0c_o.jpg",
    "id_image": "1969_rv_Dodge_rv_Coronet_rv_Super_rv_Bee_rv_V8_rv_1536",
    "count_view": 0
  },
  {
    "link_thumb": "https://live.staticflickr.com/65535/49889655217_fd7dbb40ba_n.jpg",
    "id_album": "364404925",
    "description": "1969_rv_Dodge_rv_Coronet_rv_Super_rv_Bee_rv_V9_rv_1536",
    "title": "1969_rv_Dodge_rv_Coronet_rv_Super_rv_Bee_rv_V9_rv_1536",
    "link_img": "https://live.staticflickr.com/65535/49889655217_95cac58183_o.jpg",
    "id_image": "1969_rv_Dodge_rv_Coronet_rv_Super_rv_Bee_rv_V9_rv_1536",
    "count_view": 0
  },
  {
    "link_thumb": "https://live.staticflickr.com/65535/49889345966_42e33b4af0_n.jpg",
    "id_album": "364404925",
    "description": "1970_rv_Dodge_rv_Coronet_rv_Super_rv_Bee_rv_V1_rv_1440",
    "title": "1970_rv_Dodge_rv_Coronet_rv_Super_rv_Bee_rv_V1_rv_1440",
    "link_img": "https://live.staticflickr.com/65535/49889345966_3812290694_o.jpg",
    "id_image": "1970_rv_Dodge_rv_Coronet_rv_Super_rv_Bee_rv_V1_rv_1440",
    "count_view": 0
  },
  {
    "link_thumb": "https://live.staticflickr.com/65535/49889655397_e1a445ef2b_n.jpg",
    "id_album": "364404925",
    "description": "1970_rv_Dodge_rv_Coronet_rv_Super_rv_Bee_rv_V2_rv_1440",
    "title": "1970_rv_Dodge_rv_Coronet_rv_Super_rv_Bee_rv_V2_rv_1440",
    "link_img": "https://live.staticflickr.com/65535/49889655397_9737cd2f74_o.jpg",
    "id_image": "1970_rv_Dodge_rv_Coronet_rv_Super_rv_Bee_rv_V2_rv_1440",
    "count_view": 0
  },
  {
    "link_thumb": "https://live.staticflickr.com/65535/49888828778_cf001295a8_n.jpg",
    "id_album": "364404925",
    "description": "1970_rv_Dodge_rv_Coronet_rv_Super_rv_Bee_rv_V3_rv_1440",
    "title": "1970_rv_Dodge_rv_Coronet_rv_Super_rv_Bee_rv_V3_rv_1440",
    "link_img": "https://live.staticflickr.com/65535/49888828778_3c9f11b95d_o.jpg",
    "id_image": "1970_rv_Dodge_rv_Coronet_rv_Super_rv_Bee_rv_V3_rv_1440",
    "count_view": 0
  },
  {
    "link_thumb": "https://live.staticflickr.com/65535/49889346271_3cf367d52d_n.jpg",
    "id_album": "364404925",
    "description": "1970_rv_Dodge_rv_Coronet_rv_Super_rv_Bee_rv_V4_rv_1440",
    "title": "1970_rv_Dodge_rv_Coronet_rv_Super_rv_Bee_rv_V4_rv_1440",
    "link_img": "https://live.staticflickr.com/65535/49889346271_bb05fdda0b_o.jpg",
    "id_image": "1970_rv_Dodge_rv_Coronet_rv_Super_rv_Bee_rv_V4_rv_1440",
    "count_view": 0
  },
  {
    "link_thumb": "https://live.staticflickr.com/65535/49889655752_accae94221_n.jpg",
    "id_album": "364404925",
    "description": "1970_rv_Dodge_rv_Coronet_rv_Super_rv_Bee_rv_V6_rv_1440",
    "title": "1970_rv_Dodge_rv_Coronet_rv_Super_rv_Bee_rv_V6_rv_1440",
    "link_img": "https://live.staticflickr.com/65535/49889655752_f7b5866393_o.jpg",
    "id_image": "1970_rv_Dodge_rv_Coronet_rv_Super_rv_Bee_rv_V6_rv_1440",
    "count_view": 0
  },
  {
    "link_thumb": "https://live.staticflickr.com/65535/49888829153_4264b23c63_n.jpg",
    "id_album": "364404925",
    "description": "1970_rv_Dodge_rv_Coronet_rv_Super_rv_Bee_rv_V7_rv_1440",
    "title": "1970_rv_Dodge_rv_Coronet_rv_Super_rv_Bee_rv_V7_rv_1440",
    "link_img": "https://live.staticflickr.com/65535/49888829153_f954b6fa75_o.jpg",
    "id_image": "1970_rv_Dodge_rv_Coronet_rv_Super_rv_Bee_rv_V7_rv_1440",
    "count_view": 0
  },
  {
    "link_thumb": "https://live.staticflickr.com/65535/49888829258_d0dfc7279c_n.jpg",
    "id_album": "364404925",
    "description": "1970_rv_Dodge_rv_Coronet_rv_Super_rv_Bee_rv_V8_rv_1440",
    "title": "1970_rv_Dodge_rv_Coronet_rv_Super_rv_Bee_rv_V8_rv_1440",
    "link_img": "https://live.staticflickr.com/65535/49888829258_0ebc2b4f41_o.jpg",
    "id_image": "1970_rv_Dodge_rv_Coronet_rv_Super_rv_Bee_rv_V8_rv_1440",
    "count_view": 0
  },
  {
    "link_thumb": "https://live.staticflickr.com/65535/49888829353_856481b585_n.jpg",
    "id_album": "364404925",
    "description": "1970_rv_Dodge_rv_Coronet_rv_Super_rv_Bee_rv_V9_rv_1440",
    "title": "1970_rv_Dodge_rv_Coronet_rv_Super_rv_Bee_rv_V9_rv_1440",
    "link_img": "https://live.staticflickr.com/65535/49888829353_5d9c5f92a7_o.jpg",
    "id_image": "1970_rv_Dodge_rv_Coronet_rv_Super_rv_Bee_rv_V9_rv_1440",
    "count_view": 0
  }
]