[
  {
    "link_thumb": "https://live.staticflickr.com/65535/49891147096_a6d35ef079_n.jpg",
    "id_album": "1428366981",
    "description": "2011_rv_Noble_rv_M600_rv_V4_rv_1440",
    "title": "2011_rv_Noble_rv_M600_rv_V4_rv_1440",
    "link_img": "https://live.staticflickr.com/65535/49891147096_81d7c75473_o.jpg",
    "id_image": "2011_rv_Noble_rv_M600_rv_V4_rv_1440",
    "count_view": 0
  },
  {
    "link_thumb": "https://live.staticflickr.com/65535/49888915958_ae06f1751e_n.jpg",
    "id_album": "1828657713",
    "description": "1957_rv_Ferrari_rv_250_rv_TR_rv_V2_rv_1440",
    "title": "1957_rv_Ferrari_rv_250_rv_TR_rv_V2_rv_1440",
    "link_img": "https://live.staticflickr.com/65535/49888915958_da7500605b_o.jpg",
    "id_image": "1957_rv_Ferrari_rv_250_rv_TR_rv_V2_rv_1440",
    "count_view": 0
  },
  {
    "link_thumb": "https://live.staticflickr.com/65535/48122026496_e9706cb0bc_n.jpg",
    "id_album": "-1217333387",
    "description": "Renault_713619",
    "title": "Renault_713619",
    "link_img": "https://live.staticflickr.com/65535/48122026496_6121bdd489_o.jpg",
    "id_image": "Renault_713619",
    "count_view": 0
  },
  {
    "link_thumb": "https://live.staticflickr.com/65535/48118903241_959a2e5619_n.jpg",
    "id_album": "446908717",
    "description": "Lexus_880193",
    "title": "Lexus_880193",
    "link_img": "https://live.staticflickr.com/65535/48118903241_f9a162fcc7_o.jpg",
    "id_image": "Lexus_880193",
    "count_view": 0
  },
  {
    "link_thumb": "https://live.staticflickr.com/65535/48113462842_2fd10e7260_n.jpg",
    "id_album": "1456070666",
    "description": "Bugatti_366022",
    "title": "Bugatti_366022",
    "link_img": "https://live.staticflickr.com/65535/48113462842_e3640e43e4_o.jpg",
    "id_image": "Bugatti_366022",
    "count_view": 0
  },
  {
    "link_thumb": "https://live.staticflickr.com/65535/49889032062_68a82ac650_n.jpg",
    "id_album": "504832144",
    "description": "2013_rv_Acura_rv_NSX_rv_Concept_rv_V3_rv_1600",
    "title": "2013_rv_Acura_rv_NSX_rv_Concept_rv_V3_rv_1600",
    "link_img": "https://live.staticflickr.com/65535/49889032062_4eb5c1ae3c_o.jpg",
    "id_image": "2013_rv_Acura_rv_NSX_rv_Concept_rv_V3_rv_1600",
    "count_view": 0
  },
  {
    "link_thumb": "https://live.staticflickr.com/65535/48122529001_ed75b1498d_n.jpg",
    "id_album": "1645818674",
    "description": "Suzuki_825063",
    "title": "Suzuki_825063",
    "link_img": "https://live.staticflickr.com/65535/48122529001_daf99f2021_o.jpg",
    "id_image": "Suzuki_825063",
    "count_view": 0
  },
  {
    "link_thumb": "https://live.staticflickr.com/65535/48115495787_b925111187_n.jpg",
    "id_album": "413141323",
    "description": "Dodge_514432",
    "title": "Dodge_514432",
    "link_img": "https://live.staticflickr.com/65535/48115495787_a37ea7ae6e_o.jpg",
    "id_image": "Dodge_514432",
    "count_view": 0
  },
  {
    "link_thumb": "https://live.staticflickr.com/65535/49891821043_906dd6c3b9_n.jpg",
    "id_album": "1479345904",
    "description": "2012_rv_Dodge_rv_Charger_rv_Blacktop_rv_V5_rv_1440",
    "title": "2012_rv_Dodge_rv_Charger_rv_Blacktop_rv_V5_rv_1440",
    "link_img": "https://live.staticflickr.com/65535/49891821043_a15c5f16d8_o.jpg",
    "id_image": "2012_rv_Dodge_rv_Charger_rv_Blacktop_rv_V5_rv_1440",
    "count_view": 0
  },
  {
    "link_thumb": "https://live.staticflickr.com/65535/48112197542_54d41bc903_n.jpg",
    "id_album": "-1414939221",
    "description": "AstonMartin_253550",
    "title": "AstonMartin_253550",
    "link_img": "https://live.staticflickr.com/65535/48112197542_a00799b3fb_o.jpg",
    "id_image": "AstonMartin_253550",
    "count_view": 0
  },
  {
    "link_thumb": "https://live.staticflickr.com/65535/49890712716_e7cb672bcd_n.jpg",
    "id_album": "1310566757",
    "description": "2016_rv_Mercedes_rv_Benz_rv_CLA45_rv_AMG_rv_Shooting_rv_Brake_rv_V8_rv_1600",
    "title": "2016_rv_Mercedes_rv_Benz_rv_CLA45_rv_AMG_rv_Shooting_rv_Brake_rv_V8_rv_1600",
    "link_img": "https://live.staticflickr.com/65535/49890712716_3b98aecefe_o.jpg",
    "id_image": "2016_rv_Mercedes_rv_Benz_rv_CLA45_rv_AMG_rv_Shooting_rv_Brake_rv_V8_rv_1600",
    "count_view": 0
  },
  {
    "link_thumb": "https://live.staticflickr.com/65535/49889793438_aa8357db3b_n.jpg",
    "id_album": "-1502031787",
    "description": "2015_rv_Lexus_rv_RC_rv_V4_rv_1600",
    "title": "2015_rv_Lexus_rv_RC_rv_V4_rv_1600",
    "link_img": "https://live.staticflickr.com/65535/49889793438_fbbc16e6f7_o.jpg",
    "id_image": "2015_rv_Lexus_rv_RC_rv_V4_rv_1600",
    "count_view": 0
  },
  {
    "link_thumb": "https://live.staticflickr.com/65535/48122399676_c6861f8086_n.jpg",
    "id_album": "422322641",
    "description": "Subaru_259060",
    "title": "Subaru_259060",
    "link_img": "https://live.staticflickr.com/65535/48122399676_bbf5d03aa3_o.jpg",
    "id_image": "Subaru_259060",
    "count_view": 0
  },
  {
    "link_thumb": "https://live.staticflickr.com/65535/48117911202_d2275fcf10_n.jpg",
    "id_album": "-354267407",
    "description": "Honda_540615",
    "title": "Honda_540615",
    "link_img": "https://live.staticflickr.com/65535/48117911202_9f56a54123_o.jpg",
    "id_image": "Honda_540615",
    "count_view": 0
  },
  {
    "link_thumb": "https://live.staticflickr.com/65535/48112703987_0db439dbf2_n.jpg",
    "id_album": "727633301",
    "description": "BMW_152538",
    "title": "BMW_152538",
    "link_img": "https://live.staticflickr.com/65535/48112703987_72b76eb80f_o.jpg",
    "id_image": "BMW_152538",
    "count_view": 0
  },
  {
    "link_thumb": "https://live.staticflickr.com/65535/49890265942_ed496e25dc_n.jpg",
    "id_album": "-1452251642",
    "description": "2012_rv_Infiniti_rv_G37_rv_Coupe_rv_IPL_rv_V1_rv_1440",
    "title": "2012_rv_Infiniti_rv_G37_rv_Coupe_rv_IPL_rv_V1_rv_1440",
    "link_img": "https://live.staticflickr.com/65535/49890265942_8abb934454_o.jpg",
    "id_image": "2012_rv_Infiniti_rv_G37_rv_Coupe_rv_IPL_rv_V1_rv_1440",
    "count_view": 0
  },
  {
    "link_thumb": "https://live.staticflickr.com/65535/48118953272_be1d8a2826_n.jpg",
    "id_album": "446908717",
    "description": "Lexus_449922",
    "title": "Lexus_449922",
    "link_img": "https://live.staticflickr.com/65535/48118953272_b64bd00a94_o.jpg",
    "id_image": "Lexus_449922",
    "count_view": 0
  },
  {
    "link_thumb": "https://live.staticflickr.com/65535/48117166872_732da9b452_n.jpg",
    "id_album": "-1846404630",
    "description": "Ford_389882",
    "title": "Ford_389882",
    "link_img": "https://live.staticflickr.com/65535/48117166872_84ea911ff6_o.jpg",
    "id_image": "Ford_389882",
    "count_view": 0
  },
  {
    "link_thumb": "https://live.staticflickr.com/65535/48117450923_a0278c8c3a_n.jpg",
    "id_album": "-1846404630",
    "description": "Ford_741434",
    "title": "Ford_741434",
    "link_img": "https://live.staticflickr.com/65535/48117450923_c09c00ec86_o.jpg",
    "id_image": "Ford_741434",
    "count_view": 0
  },
  {
    "link_thumb": "https://live.staticflickr.com/65535/48112722518_2221e5a09b_n.jpg",
    "id_album": "727633301",
    "description": "BMW_274926",
    "title": "BMW_274926",
    "link_img": "https://live.staticflickr.com/65535/48112722518_eafc8820c8_o.jpg",
    "id_image": "BMW_274926",
    "count_view": 0
  },
  {
    "link_thumb": "https://live.staticflickr.com/65535/49889953642_9fbf76131d_n.jpg",
    "id_album": "1558646706",
    "description": "2014_rv_Chevrolet_rv_Camaro_rv_1LE_rv_V2_rv_1600",
    "title": "2014_rv_Chevrolet_rv_Camaro_rv_1LE_rv_V2_rv_1600",
    "link_img": "https://live.staticflickr.com/65535/49889953642_702387d5a2_o.jpg",
    "id_image": "2014_rv_Chevrolet_rv_Camaro_rv_1LE_rv_V2_rv_1600",
    "count_view": 0
  },
  {
    "link_thumb": "https://live.staticflickr.com/65535/49889868756_4e30e2cf9d_n.jpg",
    "id_album": "-1597375708",
    "description": "2018_rv_Porsche_rv_911_rv_GTS_rv_V4_rv_2000",
    "title": "2018_rv_Porsche_rv_911_rv_GTS_rv_V4_rv_2000",
    "link_img": "https://live.staticflickr.com/65535/49889868756_ca6f6e64e2_o.jpg",
    "id_image": "2018_rv_Porsche_rv_911_rv_GTS_rv_V4_rv_2000",
    "count_view": 0
  },
  {
    "link_thumb": "https://live.staticflickr.com/65535/48118679553_4fb09250e8_n.jpg",
    "id_album": "-2100339805",
    "description": "Lamborghini_898813",
    "title": "Lamborghini_898813",
    "link_img": "https://live.staticflickr.com/65535/48118679553_96a257ff53_o.jpg",
    "id_image": "Lamborghini_898813",
    "count_view": 0
  },
  {
    "link_thumb": "https://live.staticflickr.com/65535/48112863606_61c7c5c930_n.jpg",
    "id_album": "727633301",
    "description": "BMW_484524",
    "title": "BMW_484524",
    "link_img": "https://live.staticflickr.com/65535/48112863606_c185fda521_o.jpg",
    "id_image": "BMW_484524",
    "count_view": 0
  },
  {
    "link_thumb": "https://live.staticflickr.com/65535/49890100318_9c1a2b802d_n.jpg",
    "id_album": "-664878344",
    "description": "2020_rv_Novitec_rv_McLaren_rv_720S_rv_Spider_rv_N_rv_Largo_rv_V1_rv_2160",
    "title": "2020_rv_Novitec_rv_McLaren_rv_720S_rv_Spider_rv_N_rv_Largo_rv_V1_rv_2160",
    "link_img": "https://live.staticflickr.com/65535/49890100318_f992c3a5e5_o.jpg",
    "id_image": "2020_rv_Novitec_rv_McLaren_rv_720S_rv_Spider_rv_N_rv_Largo_rv_V1_rv_2160",
    "count_view": 0
  },
  {
    "link_thumb": "https://live.staticflickr.com/65535/48116161662_659ee69cc7_n.jpg",
    "id_album": "1364506720",
    "description": "Ferrari_525750",
    "title": "Ferrari_525750",
    "link_img": "https://live.staticflickr.com/65535/48116161662_6388a8c49b_o.jpg",
    "id_image": "Ferrari_525750",
    "count_view": 0
  },
  {
    "link_thumb": "https://live.staticflickr.com/65535/49892804462_043680a15c_n.jpg",
    "id_album": "-1642234658",
    "description": "1984_rv_Toyota_rv_Celica_rv_Supra_rv_V6_rv_1440",
    "title": "1984_rv_Toyota_rv_Celica_rv_Supra_rv_V6_rv_1440",
    "link_img": "https://live.staticflickr.com/65535/49892804462_8d6360713c_o.jpg",
    "id_image": "1984_rv_Toyota_rv_Celica_rv_Supra_rv_V6_rv_1440",
    "count_view": 0
  },
  {
    "link_thumb": "https://live.staticflickr.com/65535/48113584407_724b883310_n.jpg",
    "id_album": "1246496342",
    "description": "Buick_489639",
    "title": "Buick_489639",
    "link_img": "https://live.staticflickr.com/65535/48113584407_7487d33e78_o.jpg",
    "id_image": "Buick_489639",
    "count_view": 0
  },
  {
    "link_thumb": "https://live.staticflickr.com/65535/49889208698_5b8757854f_n.jpg",
    "id_album": "524349362",
    "description": "2017_rv_Ford_rv_GT_rv_66_rv_Heritage_rv_Edition_rv_V5_rv_1600",
    "title": "2017_rv_Ford_rv_GT_rv_66_rv_Heritage_rv_Edition_rv_V5_rv_1600",
    "link_img": "https://live.staticflickr.com/65535/49889208698_7e4e5eedf1_o.jpg",
    "id_image": "2017_rv_Ford_rv_GT_rv_66_rv_Heritage_rv_Edition_rv_V5_rv_1600",
    "count_view": 0
  },
  {
    "link_thumb": "https://live.staticflickr.com/65535/48117441416_85dd512fa1_n.jpg",
    "id_album": "-1846404630",
    "description": "Ford_742598",
    "title": "Ford_742598",
    "link_img": "https://live.staticflickr.com/65535/48117441416_e286da931d_o.jpg",
    "id_image": "Ford_742598",
    "count_view": 0
  },
  {
    "link_thumb": "https://live.staticflickr.com/65535/49890177002_09717161c9_n.jpg",
    "id_album": "-1597375708",
    "description": "2010_rv_Porsche_rv_911_rv_Carrera_rv_GTS_rv_V2_rv_1440",
    "title": "2010_rv_Porsche_rv_911_rv_Carrera_rv_GTS_rv_V2_rv_1440",
    "link_img": "https://live.staticflickr.com/65535/49890177002_1838a636e5_o.jpg",
    "id_image": "2010_rv_Porsche_rv_911_rv_Carrera_rv_GTS_rv_V2_rv_1440",
    "count_view": 0
  },
  {
    "link_thumb": "https://live.staticflickr.com/65535/49891228141_7bb216a4b8_n.jpg",
    "id_album": "1600747842",
    "description": "2009_rv_Pagani_rv_Zonda_rv_R_rv_V6_rv_1440",
    "title": "2009_rv_Pagani_rv_Zonda_rv_R_rv_V6_rv_1440",
    "link_img": "https://live.staticflickr.com/65535/49891228141_0f53b19e69_o.jpg",
    "id_image": "2009_rv_Pagani_rv_Zonda_rv_R_rv_V6_rv_1440",
    "count_view": 0
  },
  {
    "link_thumb": "https://live.staticflickr.com/65535/48123016786_7732d24232_n.jpg",
    "id_album": "-150952028",
    "description": "Volkswagen_709730",
    "title": "Volkswagen_709730",
    "link_img": "https://live.staticflickr.com/65535/48123016786_394c1bba78_o.jpg",
    "id_image": "Volkswagen_709730",
    "count_view": 0
  },
  {
    "link_thumb": "https://live.staticflickr.com/65535/48112241773_92395d6ffa_n.jpg",
    "id_album": "548548524",
    "description": "AstonMartin_906955",
    "title": "AstonMartin_906955",
    "link_img": "https://live.staticflickr.com/65535/48112241773_c79bd402e5_o.jpg",
    "id_image": "AstonMartin_906955",
    "count_view": 0
  },
  {
    "link_thumb": "https://live.staticflickr.com/65535/48120699708_88e156e5fb_n.jpg",
    "id_album": "-6897294",
    "description": "Opel_257556",
    "title": "Opel_257556",
    "link_img": "https://live.staticflickr.com/65535/48120699708_dacfc5d4bf_o.jpg",
    "id_image": "Opel_257556",
    "count_view": 0
  },
  {
    "link_thumb": "https://live.staticflickr.com/65535/48117555858_9182d6846c_n.jpg",
    "id_album": "-1846404630",
    "description": "Ford_908225",
    "title": "Ford_908225",
    "link_img": "https://live.staticflickr.com/65535/48117555858_eb04eaf3f3_o.jpg",
    "id_image": "Ford_908225",
    "count_view": 0
  },
  {
    "link_thumb": "https://live.staticflickr.com/65535/48121643551_6046826c14_n.jpg",
    "id_album": "-1178450892",
    "description": "Porsche_827433",
    "title": "Porsche_827433",
    "link_img": "https://live.staticflickr.com/65535/48121643551_08c6e500fb_o.jpg",
    "id_image": "Porsche_827433",
    "count_view": 0
  },
  {
    "link_thumb": "https://live.staticflickr.com/65535/49888202568_c3bff6ed9c_n.jpg",
    "id_album": "504832144",
    "description": "2001_rv_Acura_rv_NSX_rv_V6_rv_1536",
    "title": "2001_rv_Acura_rv_NSX_rv_V6_rv_1536",
    "link_img": "https://live.staticflickr.com/65535/49888202568_79832ed055_o.jpg",
    "id_image": "2001_rv_Acura_rv_NSX_rv_V6_rv_1536",
    "count_view": 0
  },
  {
    "link_thumb": "https://live.staticflickr.com/65535/48114091417_f0d121da30_n.jpg",
    "id_album": "-1721545051",
    "description": "Chevrolet_288827",
    "title": "Chevrolet_288827",
    "link_img": "https://live.staticflickr.com/65535/48114091417_5ba713a615_o.jpg",
    "id_image": "Chevrolet_288827",
    "count_view": 0
  },
  {
    "link_thumb": "https://live.staticflickr.com/65535/48121345336_693066e0d7_n.jpg",
    "id_album": "-1178450892",
    "description": "Porsche_401286",
    "title": "Porsche_401286",
    "link_img": "https://live.staticflickr.com/65535/48121345336_eccd7256e1_o.jpg",
    "id_image": "Porsche_401286",
    "count_view": 0
  },
  {
    "link_thumb": "https://live.staticflickr.com/65535/48118065727_99c83411b7_n.jpg",
    "id_album": "-843028318",
    "description": "Jaguar_449670",
    "title": "Jaguar_449670",
    "link_img": "https://live.staticflickr.com/65535/48118065727_92c7902482_o.jpg",
    "id_image": "Jaguar_449670",
    "count_view": 0
  },
  {
    "link_thumb": "https://live.staticflickr.com/65535/49889893366_7544ed8b43_n.jpg",
    "id_album": "159808189",
    "description": "2008_rv_Holden_rv_Coupe_rv_60_rv_Concept_rv_V2_rv_1536",
    "title": "2008_rv_Holden_rv_Coupe_rv_60_rv_Concept_rv_V2_rv_1536",
    "link_img": "https://live.staticflickr.com/65535/49889893366_8c998397f6_o.jpg",
    "id_image": "2008_rv_Holden_rv_Coupe_rv_60_rv_Concept_rv_V2_rv_1536",
    "count_view": 0
  },
  {
    "link_thumb": "https://live.staticflickr.com/65535/48121455572_9c7d63265f_n.jpg",
    "id_album": "-1178450892",
    "description": "Porsche_436285",
    "title": "Porsche_436285",
    "link_img": "https://live.staticflickr.com/65535/48121455572_1ffa5793f6_o.jpg",
    "id_image": "Porsche_436285",
    "count_view": 0
  },
  {
    "link_thumb": "https://live.staticflickr.com/65535/48119722242_666fde8422_n.jpg",
    "id_album": "-731054311",
    "description": "MercedesBenz_350291",
    "title": "MercedesBenz_350291",
    "link_img": "https://live.staticflickr.com/65535/48119722242_f4c76a7941_o.jpg",
    "id_image": "MercedesBenz_350291",
    "count_view": 0
  },
  {
    "link_thumb": "https://live.staticflickr.com/65535/48115780137_60574159b8_n.jpg",
    "id_album": "1364506720",
    "description": "Ferrari_255162",
    "title": "Ferrari_255162",
    "link_img": "https://live.staticflickr.com/65535/48115780137_36ec20f736_o.jpg",
    "id_image": "Ferrari_255162",
    "count_view": 0
  },
  {
    "link_thumb": "https://live.staticflickr.com/65535/49888997218_42c3757dcf_n.jpg",
    "id_album": "665596159",
    "description": "2008_rv_Ferrari_rv_612_rv_Scaglietti_rv_V1_rv_1440",
    "title": "2008_rv_Ferrari_rv_612_rv_Scaglietti_rv_V1_rv_1440",
    "link_img": "https://live.staticflickr.com/65535/49888997218_7e883d08e9_o.jpg",
    "id_image": "2008_rv_Ferrari_rv_612_rv_Scaglietti_rv_V1_rv_1440",
    "count_view": 0
  },
  {
    "link_thumb": "https://live.staticflickr.com/65535/48122953618_b7eedce5f7_n.jpg",
    "id_album": "-150952028",
    "description": "Volkswagen_329517",
    "title": "Volkswagen_329517",
    "link_img": "https://live.staticflickr.com/65535/48122953618_0ec7334966_o.jpg",
    "id_image": "Volkswagen_329517",
    "count_view": 0
  },
  {
    "link_thumb": "https://live.staticflickr.com/65535/49892489521_294715c6d7_n.jpg",
    "id_album": "-1642234658",
    "description": "1984_rv_Toyota_rv_Celica_rv_Supra_rv_V5_rv_1440",
    "title": "1984_rv_Toyota_rv_Celica_rv_Supra_rv_V5_rv_1440",
    "link_img": "https://live.staticflickr.com/65535/49892489521_c15de9980f_o.jpg",
    "id_image": "1984_rv_Toyota_rv_Celica_rv_Supra_rv_V5_rv_1440",
    "count_view": 0
  },
  {
    "link_thumb": "https://live.staticflickr.com/65535/49040929786_5807272416_n.jpg",
    "id_album": "904180535",
    "description": "AlfaRomeo_960387",
    "title": "AlfaRomeo_960387",
    "link_img": "https://live.staticflickr.com/65535/49040929786_3566e476d8_o.jpg",
    "id_image": "AlfaRomeo_960387",
    "count_view": 0
  },
  {
    "link_thumb": "https://live.staticflickr.com/65535/48112324992_06b6b69f4a_n.jpg",
    "id_album": "1546790746",
    "description": "AstonMartin_976119",
    "title": "AstonMartin_976119",
    "link_img": "https://live.staticflickr.com/65535/48112324992_19646381e3_o.jpg",
    "id_image": "AstonMartin_976119",
    "count_view": 0
  },
  {
    "link_thumb": "https://live.staticflickr.com/65535/48116485448_b1a2790559_n.jpg",
    "id_album": "-803737857",
    "description": "Fiat_217707",
    "title": "Fiat_217707",
    "link_img": "https://live.staticflickr.com/65535/48116485448_052a45e0ba_o.jpg",
    "id_image": "Fiat_217707",
    "count_view": 0
  },
  {
    "link_thumb": "https://live.staticflickr.com/65535/49889147138_ed3ca6182c_n.jpg",
    "id_album": "-135411974",
    "description": "1969_rv_Ford_rv_Mustang_rv_Boss_rv_302_rv_V6_rv_1536",
    "title": "1969_rv_Ford_rv_Mustang_rv_Boss_rv_302_rv_V6_rv_1536",
    "link_img": "https://live.staticflickr.com/65535/49889147138_abf8f83391_o.jpg",
    "id_image": "1969_rv_Ford_rv_Mustang_rv_Boss_rv_302_rv_V6_rv_1536",
    "count_view": 0
  },
  {
    "link_thumb": "https://live.staticflickr.com/65535/48114735627_a0d799e282_n.jpg",
    "id_album": "-1721545051",
    "description": "Chevrolet_911771",
    "title": "Chevrolet_911771",
    "link_img": "https://live.staticflickr.com/65535/48114735627_6981194623_o.jpg",
    "id_image": "Chevrolet_911771",
    "count_view": 0
  },
  {
    "link_thumb": "https://live.staticflickr.com/65535/48118554523_f47d6687e6_n.jpg",
    "id_album": "-2100339805",
    "description": "Lamborghini_542113",
    "title": "Lamborghini_542113",
    "link_img": "https://live.staticflickr.com/65535/48118554523_47b758be12_o.jpg",
    "id_image": "Lamborghini_542113",
    "count_view": 0
  },
  {
    "link_thumb": "https://live.staticflickr.com/65535/48111794177_fe1f717f8a_n.jpg",
    "id_album": "1482519782",
    "description": "Hyundai_964244",
    "title": "Hyundai_964244",
    "link_img": "https://live.staticflickr.com/65535/48111794177_d0113516cf_o.jpg",
    "id_image": "Hyundai_964244",
    "count_view": 0
  },
  {
    "link_thumb": "https://live.staticflickr.com/65535/49890829023_787abc9a08_n.jpg",
    "id_album": "654772634",
    "description": "1954_rv_Porsche_rv_356_rv_V3_rv_1536",
    "title": "1954_rv_Porsche_rv_356_rv_V3_rv_1536",
    "link_img": "https://live.staticflickr.com/65535/49890829023_d8ac3b3e40_o.jpg",
    "id_image": "1954_rv_Porsche_rv_356_rv_V3_rv_1536",
    "count_view": 0
  },
  {
    "link_thumb": "https://live.staticflickr.com/65535/49889842873_f36dc5670a_n.jpg",
    "id_album": "763870673",
    "description": "1957_rv_Lotus_rv_Elite_rv_V4_rv_1440",
    "title": "1957_rv_Lotus_rv_Elite_rv_V4_rv_1440",
    "link_img": "https://live.staticflickr.com/65535/49889842873_c1e0235296_o.jpg",
    "id_image": "1957_rv_Lotus_rv_Elite_rv_V4_rv_1440",
    "count_view": 0
  },
  {
    "link_thumb": "https://live.staticflickr.com/65535/49890060826_4cc80cdb58_n.jpg",
    "id_album": "-132134020",
    "description": "2006_rv_Koenigsegg_rv_CCXR_rv_V1_rv_1600",
    "title": "2006_rv_Koenigsegg_rv_CCXR_rv_V1_rv_1600",
    "link_img": "https://live.staticflickr.com/65535/49890060826_4dc3a5529d_o.jpg",
    "id_image": "2006_rv_Koenigsegg_rv_CCXR_rv_V1_rv_1600",
    "count_view": 0
  },
  {
    "link_thumb": "https://live.staticflickr.com/65535/49892846292_72c9d438c5_n.jpg",
    "id_album": "2008465592",
    "description": "2016_rv_Toyota_rv_Tacoma_rv_TRD_rv_Off_rv_Road_rv_V4_rv_1600",
    "title": "2016_rv_Toyota_rv_Tacoma_rv_TRD_rv_Off_rv_Road_rv_V4_rv_1600",
    "link_img": "https://live.staticflickr.com/65535/49892846292_6fdc7218c4_o.jpg",
    "id_image": "2016_rv_Toyota_rv_Tacoma_rv_TRD_rv_Off_rv_Road_rv_V4_rv_1600",
    "count_view": 0
  },
  {
    "link_thumb": "https://live.staticflickr.com/65535/49891596927_fde3b24b48_n.jpg",
    "id_album": "1620445445",
    "description": "2015_rv_Phiaro_rv_P75_rv_Concept_rv_V1_rv_1600",
    "title": "2015_rv_Phiaro_rv_P75_rv_Concept_rv_V1_rv_1600",
    "link_img": "https://live.staticflickr.com/65535/49891596927_7083ee64f9_o.jpg",
    "id_image": "2015_rv_Phiaro_rv_P75_rv_Concept_rv_V1_rv_1600",
    "count_view": 0
  },
  {
    "link_thumb": "https://live.staticflickr.com/65535/48118237851_25dde7cb0b_n.jpg",
    "id_album": "-2100339805",
    "description": "Lamborghini_207732",
    "title": "Lamborghini_207732",
    "link_img": "https://live.staticflickr.com/65535/48118237851_f934d4a88e_o.jpg",
    "id_image": "Lamborghini_207732",
    "count_view": 0
  },
  {
    "link_thumb": "https://live.staticflickr.com/65535/49892065678_3f82c403fa_n.jpg",
    "id_album": "-1220388988",
    "description": "2016_rv_Audi_rv_R8_rv_V10_rv_V7_rv_1600",
    "title": "2016_rv_Audi_rv_R8_rv_V10_rv_V7_rv_1600",
    "link_img": "https://live.staticflickr.com/65535/49892065678_13b2692ced_o.jpg",
    "id_image": "2016_rv_Audi_rv_R8_rv_V10_rv_V7_rv_1600",
    "count_view": 0
  },
  {
    "link_thumb": "https://live.staticflickr.com/65535/48123081376_b9251288b1_n.jpg",
    "id_album": "-150952028",
    "description": "Volkswagen_962205",
    "title": "Volkswagen_962205",
    "link_img": "https://live.staticflickr.com/65535/48123081376_a21686063e_o.jpg",
    "id_image": "Volkswagen_962205",
    "count_view": 0
  },
  {
    "link_thumb": "https://live.staticflickr.com/65535/48116381942_d10735510e_n.jpg",
    "id_album": "1364506720",
    "description": "Ferrari_758352",
    "title": "Ferrari_758352",
    "link_img": "https://live.staticflickr.com/65535/48116381942_7d0ea2375e_o.jpg",
    "id_image": "Ferrari_758352",
    "count_view": 0
  },
  {
    "link_thumb": "https://live.staticflickr.com/65535/48118977283_262cfd0328_n.jpg",
    "id_album": "446908717",
    "description": "Lexus_922922",
    "title": "Lexus_922922",
    "link_img": "https://live.staticflickr.com/65535/48118977283_9877761397_o.jpg",
    "id_image": "Lexus_922922",
    "count_view": 0
  },
  {
    "link_thumb": "https://live.staticflickr.com/65535/48119767208_3589bae35e_n.jpg",
    "id_album": "-731054311",
    "description": "MercedesBenz_688784",
    "title": "MercedesBenz_688784",
    "link_img": "https://live.staticflickr.com/65535/48119767208_d77e467285_o.jpg",
    "id_image": "MercedesBenz_688784",
    "count_view": 0
  },
  {
    "link_thumb": "https://live.staticflickr.com/65535/49889706357_e31c73ff9f_n.jpg",
    "id_album": "-835450558",
    "description": "2011_rv_Formula1_rv_Lotus_rv_Renault_rv_R31_rv_V2_rv_1200",
    "title": "2011_rv_Formula1_rv_Lotus_rv_Renault_rv_R31_rv_V2_rv_1200",
    "link_img": "https://live.staticflickr.com/65535/49889706357_af85eea715_o.jpg",
    "id_image": "2011_rv_Formula1_rv_Lotus_rv_Renault_rv_R31_rv_V2_rv_1200",
    "count_view": 0
  },
  {
    "link_thumb": "https://live.staticflickr.com/65535/48122313671_bfd5856287_n.jpg",
    "id_album": "-58240507",
    "description": "Studebaker_929127",
    "title": "Studebaker_929127",
    "link_img": "https://live.staticflickr.com/65535/48122313671_7034141547_o.jpg",
    "id_image": "Studebaker_929127",
    "count_view": 0
  },
  {
    "link_thumb": "https://live.staticflickr.com/65535/48113824162_c6d3468d20_n.jpg",
    "id_album": "-1721545051",
    "description": "Chevrolet_177485",
    "title": "Chevrolet_177485",
    "link_img": "https://live.staticflickr.com/65535/48113824162_9d1be4fd42_o.jpg",
    "id_image": "Chevrolet_177485",
    "count_view": 0
  },
  {
    "link_thumb": "https://live.staticflickr.com/65535/49891283297_fe579d8927_n.jpg",
    "id_album": "-1072712416",
    "description": "2017_rv_Mitsubishi_rv_e_rv_Evolution_rv_Concept_rv_V5_rv_2000",
    "title": "2017_rv_Mitsubishi_rv_e_rv_Evolution_rv_Concept_rv_V5_rv_2000",
    "link_img": "https://live.staticflickr.com/65535/49891283297_f507687516_o.jpg",
    "id_image": "2017_rv_Mitsubishi_rv_e_rv_Evolution_rv_Concept_rv_V5_rv_2000",
    "count_view": 0
  },
  {
    "link_thumb": "https://live.staticflickr.com/65535/48112295697_f266c0a1eb_n.jpg",
    "id_album": "555757480",
    "description": "AstonMartin_892991",
    "title": "AstonMartin_892991",
    "link_img": "https://live.staticflickr.com/65535/48112295697_932d79eab1_o.jpg",
    "id_image": "AstonMartin_892991",
    "count_view": 0
  },
  {
    "link_thumb": "https://live.staticflickr.com/65535/49888912806_d93ebc7892_n.jpg",
    "id_album": "216453960",
    "description": "2016_rv_Aston_rv_Martin_rv_Vanquish_rv_Zagato_rv_Concept_rv_V3_rv_2000",
    "title": "2016_rv_Aston_rv_Martin_rv_Vanquish_rv_Zagato_rv_Concept_rv_V3_rv_2000",
    "link_img": "https://live.staticflickr.com/65535/49888912806_9d92bd9a2f_o.jpg",
    "id_image": "2016_rv_Aston_rv_Martin_rv_Vanquish_rv_Zagato_rv_Concept_rv_V3_rv_2000",
    "count_view": 0
  },
  {
    "link_thumb": "https://live.staticflickr.com/65535/48118576632_1e4da57612_n.jpg",
    "id_album": "-2100339805",
    "description": "Lamborghini_462344",
    "title": "Lamborghini_462344",
    "link_img": "https://live.staticflickr.com/65535/48118576632_c7c3d91515_o.jpg",
    "id_image": "Lamborghini_462344",
    "count_view": 0
  },
  {
    "link_thumb": "https://live.staticflickr.com/65535/49890466343_273759305f_n.jpg",
    "id_album": "-395084990",
    "description": "1982_rv_Mitsubishi_rv_Starion_rv_Turbo_rv_V1_rv_1440",
    "title": "1982_rv_Mitsubishi_rv_Starion_rv_Turbo_rv_V1_rv_1440",
    "link_img": "https://live.staticflickr.com/65535/49890466343_7484170aa4_o.jpg",
    "id_image": "1982_rv_Mitsubishi_rv_Starion_rv_Turbo_rv_V1_rv_1440",
    "count_view": 0
  },
  {
    "link_thumb": "https://live.staticflickr.com/65535/48113250418_105396595d_n.jpg",
    "id_album": "727633301",
    "description": "BMW_920017",
    "title": "BMW_920017",
    "link_img": "https://live.staticflickr.com/65535/48113250418_ea396011bb_o.jpg",
    "id_image": "BMW_920017",
    "count_view": 0
  },
  {
    "link_thumb": "https://live.staticflickr.com/65535/49889150347_01cb00b767_n.jpg",
    "id_album": "1219359179",
    "description": "1965_rv_Aston_rv_Martin_rv_DB6_rv_Vantage_rv_V1_rv_1440",
    "title": "1965_rv_Aston_rv_Martin_rv_DB6_rv_Vantage_rv_V1_rv_1440",
    "link_img": "https://live.staticflickr.com/65535/49889150347_ba2a4ed330_o.jpg",
    "id_image": "1965_rv_Aston_rv_Martin_rv_DB6_rv_Vantage_rv_V1_rv_1440",
    "count_view": 0
  },
  {
    "link_thumb": "https://live.staticflickr.com/65535/48112432836_89ed069069_n.jpg",
    "id_album": "-15119147",
    "description": "Audi_906826",
    "title": "Audi_906826",
    "link_img": "https://live.staticflickr.com/65535/48112432836_a6684f5dd6_o.jpg",
    "id_image": "Audi_906826",
    "count_view": 0
  },
  {
    "link_thumb": "https://live.staticflickr.com/65535/48119178388_aa5325c2db_n.jpg",
    "id_album": "697984456",
    "description": "Maserati_895927",
    "title": "Maserati_895927",
    "link_img": "https://live.staticflickr.com/65535/48119178388_f8a0613946_o.jpg",
    "id_image": "Maserati_895927",
    "count_view": 0
  },
  {
    "link_thumb": "https://live.staticflickr.com/65535/48113104633_c24455052d_n.jpg",
    "id_album": "727633301",
    "description": "BMW_792965",
    "title": "BMW_792965",
    "link_img": "https://live.staticflickr.com/65535/48113104633_f173039da0_o.jpg",
    "id_image": "BMW_792965",
    "count_view": 0
  },
  {
    "link_thumb": "https://live.staticflickr.com/65535/48121077347_5a5bca47d0_n.jpg",
    "id_album": "-1123679742",
    "description": "Plymouth_289073",
    "title": "Plymouth_289073",
    "link_img": "https://live.staticflickr.com/65535/48121077347_d2a26af28f_o.jpg",
    "id_image": "Plymouth_289073",
    "count_view": 0
  },
  {
    "link_thumb": "https://live.staticflickr.com/65535/49892462421_cfbffab9fa_n.jpg",
    "id_album": "-91950429",
    "description": "2010_rv_Subaru_rv_Impreza_rv_WRX_rv_STI_rv_A_rv_Line_rv_V1_rv_1440",
    "title": "2010_rv_Subaru_rv_Impreza_rv_WRX_rv_STI_rv_A_rv_Line_rv_V1_rv_1440",
    "link_img": "https://live.staticflickr.com/65535/49892462421_ae466a32a2_o.jpg",
    "id_image": "2010_rv_Subaru_rv_Impreza_rv_WRX_rv_STI_rv_A_rv_Line_rv_V1_rv_1440",
    "count_view": 0
  },
  {
    "link_thumb": "https://live.staticflickr.com/65535/49890358726_5633ed1a50_n.jpg",
    "id_album": "764198353",
    "description": "2014_rv_Lotus_rv_Elise_rv_S_rv_Cup_rv_R_rv_V4_rv_1600",
    "title": "2014_rv_Lotus_rv_Elise_rv_S_rv_Cup_rv_R_rv_V4_rv_1600",
    "link_img": "https://live.staticflickr.com/65535/49890358726_17dea66d3b_o.jpg",
    "id_image": "2014_rv_Lotus_rv_Elise_rv_S_rv_Cup_rv_R_rv_V4_rv_1600",
    "count_view": 0
  },
  {
    "link_thumb": "https://live.staticflickr.com/65535/48114398288_4f6f18d83f_n.jpg",
    "id_album": "-1721545051",
    "description": "Chevrolet_505430",
    "title": "Chevrolet_505430",
    "link_img": "https://live.staticflickr.com/65535/48114398288_e7d362999e_o.jpg",
    "id_image": "Chevrolet_505430",
    "count_view": 0
  },
  {
    "link_thumb": "https://live.staticflickr.com/65535/48123285208_002102a81d_n.jpg",
    "id_album": "-360260466",
    "description": "Yamaha_644580",
    "title": "Yamaha_644580",
    "link_img": "https://live.staticflickr.com/65535/48123285208_8859b9b90a_o.jpg",
    "id_image": "Yamaha_644580",
    "count_view": 0
  },
  {
    "link_thumb": "https://live.staticflickr.com/65535/48118877782_03b726e4ed_n.jpg",
    "id_album": "1234246491",
    "description": "LandRover_258992",
    "title": "LandRover_258992",
    "link_img": "https://live.staticflickr.com/65535/48118877782_2294dc6522_o.jpg",
    "id_image": "LandRover_258992",
    "count_view": 0
  },
  {
    "link_thumb": "https://live.staticflickr.com/65535/48118523441_14eda9163b_n.jpg",
    "id_album": "-2100339805",
    "description": "Lamborghini_540979",
    "title": "Lamborghini_540979",
    "link_img": "https://live.staticflickr.com/65535/48118523441_601438fa18_o.jpg",
    "id_image": "Lamborghini_540979",
    "count_view": 0
  },
  {
    "link_thumb": "https://live.staticflickr.com/65535/48113122271_d1d9283685_n.jpg",
    "id_album": "727633301",
    "description": "BMW_880638",
    "title": "BMW_880638",
    "link_img": "https://live.staticflickr.com/65535/48113122271_83103b9b67_o.jpg",
    "id_image": "BMW_880638",
    "count_view": 0
  },
  {
    "link_thumb": "https://live.staticflickr.com/65535/49892497566_fa9a583c0a_n.jpg",
    "id_album": "22537530",
    "description": "2014_rv_Toyota_rv_FT_rv_1_rv_Graphite_rv_Concept_rv_V4_rv_1600",
    "title": "2014_rv_Toyota_rv_FT_rv_1_rv_Graphite_rv_Concept_rv_V4_rv_1600",
    "link_img": "https://live.staticflickr.com/65535/49892497566_73ae203f81_o.jpg",
    "id_image": "2014_rv_Toyota_rv_FT_rv_1_rv_Graphite_rv_Concept_rv_V4_rv_1600",
    "count_view": 0
  },
  {
    "link_thumb": "https://live.staticflickr.com/65535/48111997941_141e5b53ec_n.jpg",
    "id_album": "1906325017",
    "description": "Infiniti_960144",
    "title": "Infiniti_960144",
    "link_img": "https://live.staticflickr.com/65535/48111997941_2b46bc4b09_o.jpg",
    "id_image": "Infiniti_960144",
    "count_view": 0
  },
  {
    "link_thumb": "https://live.staticflickr.com/65535/48112905473_9b91e6d3ba_n.jpg",
    "id_album": "727633301",
    "description": "BMW_484527",
    "title": "BMW_484527",
    "link_img": "https://live.staticflickr.com/65535/48112905473_2bdc710763_o.jpg",
    "id_image": "BMW_484527",
    "count_view": 0
  },
  {
    "link_thumb": "https://live.staticflickr.com/65535/48115743741_36a45f14ac_n.jpg",
    "id_album": "1364506720",
    "description": "Ferrari_289157",
    "title": "Ferrari_289157",
    "link_img": "https://live.staticflickr.com/65535/48115743741_a625fe4552_o.jpg",
    "id_image": "Ferrari_289157",
    "count_view": 0
  },
  {
    "link_thumb": "https://live.staticflickr.com/65535/49888411073_b460e8e125_n.jpg",
    "id_album": "1171449162",
    "description": "2013_rv_Audi_rv_Sport_rv_Quattro_rv_Concept_rv_V4_rv_1600",
    "title": "2013_rv_Audi_rv_Sport_rv_Quattro_rv_Concept_rv_V4_rv_1600",
    "link_img": "https://live.staticflickr.com/65535/49888411073_1fc322ab56_o.jpg",
    "id_image": "2013_rv_Audi_rv_Sport_rv_Quattro_rv_Concept_rv_V4_rv_1600",
    "count_view": 0
  },
  {
    "link_thumb": "https://live.staticflickr.com/65535/49891165216_fea37a1c8e_n.jpg",
    "id_album": "-1746133601",
    "description": "2019_rv_Novitec_rv_Lamborghini_rv_Aventador_rv_SVJ_rv_V6_rv_2160",
    "title": "2019_rv_Novitec_rv_Lamborghini_rv_Aventador_rv_SVJ_rv_V6_rv_2160",
    "link_img": "https://live.staticflickr.com/65535/49891165216_e8bd527fce_o.jpg",
    "id_image": "2019_rv_Novitec_rv_Lamborghini_rv_Aventador_rv_SVJ_rv_V6_rv_2160",
    "count_view": 0
  },
  {
    "link_thumb": "https://live.staticflickr.com/65535/48112896002_2bb7f8cf8a_n.jpg",
    "id_album": "727633301",
    "description": "BMW_457636",
    "title": "BMW_457636",
    "link_img": "https://live.staticflickr.com/65535/48112896002_9c8ea49eed_o.jpg",
    "id_image": "BMW_457636",
    "count_view": 0
  },
  {
    "link_thumb": "https://live.staticflickr.com/65535/49891073862_acc4d8bd3f_n.jpg",
    "id_album": "-534151904",
    "description": "2014_rv_Mercedes_rv_Benz_rv_E_rv_Class_rv_Coupe_rv_V3_rv_1600",
    "title": "2014_rv_Mercedes_rv_Benz_rv_E_rv_Class_rv_Coupe_rv_V3_rv_1600",
    "link_img": "https://live.staticflickr.com/65535/49891073862_5f29b7074d_o.jpg",
    "id_image": "2014_rv_Mercedes_rv_Benz_rv_E_rv_Class_rv_Coupe_rv_V3_rv_1600",
    "count_view": 0
  },
  {
    "link_thumb": "https://live.staticflickr.com/65535/49889584816_60d84c2262_n.jpg",
    "id_album": "89481110",
    "description": "2017_rv_Ferrari_rv_LaFerrari_rv_Aperta_rv_V14_rv_2160",
    "title": "2017_rv_Ferrari_rv_LaFerrari_rv_Aperta_rv_V14_rv_2160",
    "link_img": "https://live.staticflickr.com/65535/49889584816_0ebeb59996_o.jpg",
    "id_image": "2017_rv_Ferrari_rv_LaFerrari_rv_Aperta_rv_V14_rv_2160",
    "count_view": 0
  },
  {
    "link_thumb": "https://live.staticflickr.com/65535/48113759738_0dc7e9eedf_n.jpg",
    "id_album": "-1721545051",
    "description": "Chevrolet_175523",
    "title": "Chevrolet_175523",
    "link_img": "https://live.staticflickr.com/65535/48113759738_61babf6c96_o.jpg",
    "id_image": "Chevrolet_175523",
    "count_view": 0
  },
  {
    "link_thumb": "https://live.staticflickr.com/65535/49892564146_36b9b03ba5_n.jpg",
    "id_album": "2103242556",
    "description": "2018_rv_Honda_rv_Civic_rv_Type_rv_R_rv_V3_rv_2000",
    "title": "2018_rv_Honda_rv_Civic_rv_Type_rv_R_rv_V3_rv_2000",
    "link_img": "https://live.staticflickr.com/65535/49892564146_28d43a2780_o.jpg",
    "id_image": "2018_rv_Honda_rv_Civic_rv_Type_rv_R_rv_V3_rv_2000",
    "count_view": 0
  },
  {
    "link_thumb": "https://live.staticflickr.com/65535/48117172048_7dfed985f2_n.jpg",
    "id_album": "-1846404630",
    "description": "Ford_416702",
    "title": "Ford_416702",
    "link_img": "https://live.staticflickr.com/65535/48117172048_f0f55fe8ed_o.jpg",
    "id_image": "Ford_416702",
    "count_view": 0
  },
  {
    "link_thumb": "https://live.staticflickr.com/65535/49891649042_9fdc46e7d7_n.jpg",
    "id_album": "-1178450892",
    "description": "2011_rv_Porsche_rv_918_rv_RSR_rv_Concept_rv_V4_rv_1536",
    "title": "2011_rv_Porsche_rv_918_rv_RSR_rv_Concept_rv_V4_rv_1536",
    "link_img": "https://live.staticflickr.com/65535/49891649042_7a4f37893b_o.jpg",
    "id_image": "2011_rv_Porsche_rv_918_rv_RSR_rv_Concept_rv_V4_rv_1536",
    "count_view": 0
  },
  {
    "link_thumb": "https://live.staticflickr.com/65535/48113445826_f8c2421fc5_n.jpg",
    "id_album": "1456070666",
    "description": "Bugatti_908489",
    "title": "Bugatti_908489",
    "link_img": "https://live.staticflickr.com/65535/48113445826_cc19581539_o.jpg",
    "id_image": "Bugatti_908489",
    "count_view": 0
  },
  {
    "link_thumb": "https://live.staticflickr.com/65535/48115087483_83059a72c7_n.jpg",
    "id_album": "413141323",
    "description": "Dodge_204735",
    "title": "Dodge_204735",
    "link_img": "https://live.staticflickr.com/65535/48115087483_f9a28925aa_o.jpg",
    "id_image": "Dodge_204735",
    "count_view": 0
  },
  {
    "link_thumb": "https://live.staticflickr.com/65535/49890547216_ed32430e7e_n.jpg",
    "id_album": "1806856197",
    "description": "2015_rv_McLaren_rv_650S_rv_Sprint_rv_V2_rv_1600",
    "title": "2015_rv_McLaren_rv_650S_rv_Sprint_rv_V2_rv_1600",
    "link_img": "https://live.staticflickr.com/65535/49890547216_afdf8cc2f0_o.jpg",
    "id_image": "2015_rv_McLaren_rv_650S_rv_Sprint_rv_V2_rv_1600",
    "count_view": 0
  },
  {
    "link_thumb": "https://live.staticflickr.com/65535/48119721981_2e181ff8bf_n.jpg",
    "id_album": "-731054311",
    "description": "MercedesBenz_644371",
    "title": "MercedesBenz_644371",
    "link_img": "https://live.staticflickr.com/65535/48119721981_0c9c4d693c_o.jpg",
    "id_image": "MercedesBenz_644371",
    "count_view": 0
  },
  {
    "link_thumb": "https://live.staticflickr.com/65535/48112833761_fc0ab4a076_n.jpg",
    "id_album": "727633301",
    "description": "BMW_476593",
    "title": "BMW_476593",
    "link_img": "https://live.staticflickr.com/65535/48112833761_3f8ffc19c8_o.jpg",
    "id_image": "BMW_476593",
    "count_view": 0
  },
  {
    "link_thumb": "https://live.staticflickr.com/65535/48113813683_a907000042_n.jpg",
    "id_album": "-1721545051",
    "description": "Chevrolet_198708",
    "title": "Chevrolet_198708",
    "link_img": "https://live.staticflickr.com/65535/48113813683_abe2bd8091_o.jpg",
    "id_image": "Chevrolet_198708",
    "count_view": 0
  },
  {
    "link_thumb": "https://live.staticflickr.com/65535/48123108533_4b73254dbb_n.jpg",
    "id_album": "-150952028",
    "description": "Volkswagen_946661",
    "title": "Volkswagen_946661",
    "link_img": "https://live.staticflickr.com/65535/48123108533_1ce96a06b8_o.jpg",
    "id_image": "Volkswagen_946661",
    "count_view": 0
  },
  {
    "link_thumb": "https://live.staticflickr.com/65535/48123302523_355bccb6e4_n.jpg",
    "id_album": "-360260466",
    "description": "Yamaha_844810",
    "title": "Yamaha_844810",
    "link_img": "https://live.staticflickr.com/65535/48123302523_cdbea88a5b_o.jpg",
    "id_image": "Yamaha_844810",
    "count_view": 0
  },
  {
    "link_thumb": "https://live.staticflickr.com/65535/48113599447_7ddffcd3b4_n.jpg",
    "id_album": "-680120434",
    "description": "Cadillac_143723",
    "title": "Cadillac_143723",
    "link_img": "https://live.staticflickr.com/65535/48113599447_fbd67daa30_o.jpg",
    "id_image": "Cadillac_143723",
    "count_view": 0
  },
  {
    "link_thumb": "https://live.staticflickr.com/65535/48114697107_77ecbeb3ec_n.jpg",
    "id_album": "-1721545051",
    "description": "Chevrolet_883025",
    "title": "Chevrolet_883025",
    "link_img": "https://live.staticflickr.com/65535/48114697107_770a578ced_o.jpg",
    "id_image": "Chevrolet_883025",
    "count_view": 0
  },
  {
    "link_thumb": "https://live.staticflickr.com/65535/49889863397_6282dcb095_n.jpg",
    "id_album": "665596111",
    "description": "2016_rv_Ferrari_rv_F12tdf_rv_V8_rv_2000",
    "title": "2016_rv_Ferrari_rv_F12tdf_rv_V8_rv_2000",
    "link_img": "https://live.staticflickr.com/65535/49889863397_50baf539d9_o.jpg",
    "id_image": "2016_rv_Ferrari_rv_F12tdf_rv_V8_rv_2000",
    "count_view": 0
  },
  {
    "link_thumb": "https://live.staticflickr.com/65535/48112831332_748fe8ba97_n.jpg",
    "id_album": "727633301",
    "description": "BMW_369396",
    "title": "BMW_369396",
    "link_img": "https://live.staticflickr.com/65535/48112831332_daa4dffd71_o.jpg",
    "id_image": "BMW_369396",
    "count_view": 0
  },
  {
    "link_thumb": "https://live.staticflickr.com/65535/48112784598_3502120a09_n.jpg",
    "id_album": "727633301",
    "description": "BMW_403752",
    "title": "BMW_403752",
    "link_img": "https://live.staticflickr.com/65535/48112784598_326b3deeee_o.jpg",
    "id_image": "BMW_403752",
    "count_view": 0
  },
  {
    "link_thumb": "https://live.staticflickr.com/65535/49890452396_8833984997_n.jpg",
    "id_album": "-1422593953",
    "description": "2015_rv_Maserati_rv_Mostro_rv_Zagato_rv_Coupe_rv_V2_rv_1600",
    "title": "2015_rv_Maserati_rv_Mostro_rv_Zagato_rv_Coupe_rv_V2_rv_1600",
    "link_img": "https://live.staticflickr.com/65535/49890452396_e77b64253c_o.jpg",
    "id_image": "2015_rv_Maserati_rv_Mostro_rv_Zagato_rv_Coupe_rv_V2_rv_1600",
    "count_view": 0
  },
  {
    "link_thumb": "https://live.staticflickr.com/65535/48113787011_1656334d01_n.jpg",
    "id_album": "-1721545051",
    "description": "Chevrolet_206985",
    "title": "Chevrolet_206985",
    "link_img": "https://live.staticflickr.com/65535/48113787011_881de0d987_o.jpg",
    "id_image": "Chevrolet_206985",
    "count_view": 0
  },
  {
    "link_thumb": "https://live.staticflickr.com/65535/48112332887_cd5de54a56_n.jpg",
    "id_album": "-15119147",
    "description": "Audi_179209",
    "title": "Audi_179209",
    "link_img": "https://live.staticflickr.com/65535/48112332887_bc88fd4a90_o.jpg",
    "id_image": "Audi_179209",
    "count_view": 0
  },
  {
    "link_thumb": "https://live.staticflickr.com/65535/48122526308_27306d1523_n.jpg",
    "id_album": "422322641",
    "description": "Subaru_521109",
    "title": "Subaru_521109",
    "link_img": "https://live.staticflickr.com/65535/48122526308_384b2b3377_o.jpg",
    "id_image": "Subaru_521109",
    "count_view": 0
  },
  {
    "link_thumb": "https://live.staticflickr.com/65535/48117938953_ef828420da_n.jpg",
    "id_album": "-354267407",
    "description": "Honda_884321",
    "title": "Honda_884321",
    "link_img": "https://live.staticflickr.com/65535/48117938953_0fe80bcccd_o.jpg",
    "id_image": "Honda_884321",
    "count_view": 0
  },
  {
    "link_thumb": "https://live.staticflickr.com/65535/48114384773_ccde004e9b_n.jpg",
    "id_album": "-1721545051",
    "description": "Chevrolet_503712",
    "title": "Chevrolet_503712",
    "link_img": "https://live.staticflickr.com/65535/48114384773_7c20271e1b_o.jpg",
    "id_image": "Chevrolet_503712",
    "count_view": 0
  },
  {
    "link_thumb": "https://live.staticflickr.com/65535/49889873716_742f428805_n.jpg",
    "id_album": "1596525670",
    "description": "2017_rv_Gunther_rv_Werks_rv_400R_rv_V2_rv_2160",
    "title": "2017_rv_Gunther_rv_Werks_rv_400R_rv_V2_rv_2160",
    "link_img": "https://live.staticflickr.com/65535/49889873716_6d4562458d_o.jpg",
    "id_image": "2017_rv_Gunther_rv_Werks_rv_400R_rv_V2_rv_2160",
    "count_view": 0
  },
  {
    "link_thumb": "https://live.staticflickr.com/65535/48118876287_1130a10232_n.jpg",
    "id_album": "1234246491",
    "description": "LandRover_258966",
    "title": "LandRover_258966",
    "link_img": "https://live.staticflickr.com/65535/48118876287_94e5dc5827_o.jpg",
    "id_image": "LandRover_258966",
    "count_view": 0
  },
  {
    "link_thumb": "https://live.staticflickr.com/65535/48116448426_1c66273d33_n.jpg",
    "id_album": "-803737857",
    "description": "Fiat_188045",
    "title": "Fiat_188045",
    "link_img": "https://live.staticflickr.com/65535/48116448426_0b8456897f_o.jpg",
    "id_image": "Fiat_188045",
    "count_view": 0
  },
  {
    "link_thumb": "https://live.staticflickr.com/65535/48122864601_204ed3954e_n.jpg",
    "id_album": "-150952028",
    "description": "Volkswagen_238277",
    "title": "Volkswagen_238277",
    "link_img": "https://live.staticflickr.com/65535/48122864601_42169b285e_o.jpg",
    "id_image": "Volkswagen_238277",
    "count_view": 0
  },
  {
    "link_thumb": "https://live.staticflickr.com/65535/48121270297_80e924ddc3_n.jpg",
    "id_album": "-1178450892",
    "description": "Porsche_170504",
    "title": "Porsche_170504",
    "link_img": "https://live.staticflickr.com/65535/48121270297_d3017f2c8d_o.jpg",
    "id_image": "Porsche_170504",
    "count_view": 0
  },
  {
    "link_thumb": "https://live.staticflickr.com/65535/48114634803_985a6081d5_n.jpg",
    "id_album": "-1721545051",
    "description": "Chevrolet_879949",
    "title": "Chevrolet_879949",
    "link_img": "https://live.staticflickr.com/65535/48114634803_4503f97ba1_o.jpg",
    "id_image": "Chevrolet_879949",
    "count_view": 0
  },
  {
    "link_thumb": "https://live.staticflickr.com/65535/48114055192_e9d942c67f_n.jpg",
    "id_album": "-1721545051",
    "description": "Chevrolet_284323",
    "title": "Chevrolet_284323",
    "link_img": "https://live.staticflickr.com/65535/48114055192_dc1bd8145d_o.jpg",
    "id_image": "Chevrolet_284323",
    "count_view": 0
  },
  {
    "link_thumb": "https://live.staticflickr.com/65535/49888931128_5ccc9b8d43_n.jpg",
    "id_album": "-2063156129",
    "description": "1993_rv_Ferrari_rv_333_rv_SP_rv_V7_rv_1600",
    "title": "1993_rv_Ferrari_rv_333_rv_SP_rv_V7_rv_1600",
    "link_img": "https://live.staticflickr.com/65535/49888931128_1e020c1414_o.jpg",
    "id_image": "1993_rv_Ferrari_rv_333_rv_SP_rv_V7_rv_1600",
    "count_view": 0
  },
  {
    "link_thumb": "https://live.staticflickr.com/65535/48112604891_63e891051c_n.jpg",
    "id_album": "727633301",
    "description": "BMW_202282",
    "title": "BMW_202282",
    "link_img": "https://live.staticflickr.com/65535/48112604891_f49d67bfbd_o.jpg",
    "id_image": "BMW_202282",
    "count_view": 0
  },
  {
    "link_thumb": "https://live.staticflickr.com/65535/48121591152_1bf62d8a5b_n.jpg",
    "id_album": "-1178450892",
    "description": "Porsche_625920",
    "title": "Porsche_625920",
    "link_img": "https://live.staticflickr.com/65535/48121591152_88542752f7_o.jpg",
    "id_image": "Porsche_625920",
    "count_view": 0
  },
  {
    "link_thumb": "https://live.staticflickr.com/65535/48114591293_9e1f0e6416_n.jpg",
    "id_album": "-1721545051",
    "description": "Chevrolet_805361",
    "title": "Chevrolet_805361",
    "link_img": "https://live.staticflickr.com/65535/48114591293_0f0f2bd0e8_o.jpg",
    "id_image": "Chevrolet_805361",
    "count_view": 0
  },
  {
    "link_thumb": "https://live.staticflickr.com/65535/49889292676_125b58cf3b_n.jpg",
    "id_album": "1016927281",
    "description": "2019_rv_Porsche_rv_911_rv_Carrera_rv_4S_rv_V9_rv_2000",
    "title": "2019_rv_Porsche_rv_911_rv_Carrera_rv_4S_rv_V9_rv_2000",
    "link_img": "https://live.staticflickr.com/65535/49889292676_b6646c9bbf_o.jpg",
    "id_image": "2019_rv_Porsche_rv_911_rv_Carrera_rv_4S_rv_V9_rv_2000",
    "count_view": 0
  },
  {
    "link_thumb": "https://live.staticflickr.com/65535/49891437532_5c117ee279_n.jpg",
    "id_album": "963816952",
    "description": "2015_rv_Nissan_rv_GT_rv_R_rv_LM_rv_Nismo_rv_V2_rv_1600",
    "title": "2015_rv_Nissan_rv_GT_rv_R_rv_LM_rv_Nismo_rv_V2_rv_1600",
    "link_img": "https://live.staticflickr.com/65535/49891437532_b1b65dd062_o.jpg",
    "id_image": "2015_rv_Nissan_rv_GT_rv_R_rv_LM_rv_Nismo_rv_V2_rv_1600",
    "count_view": 0
  },
  {
    "link_thumb": "https://live.staticflickr.com/65535/48118880167_a8ba5abe29_n.jpg",
    "id_album": "1234246491",
    "description": "LandRover_273579",
    "title": "LandRover_273579",
    "link_img": "https://live.staticflickr.com/65535/48118880167_1cf3111b02_o.jpg",
    "id_image": "LandRover_273579",
    "count_view": 0
  },
  {
    "link_thumb": "https://live.staticflickr.com/65535/48119409358_bf095ca231_n.jpg",
    "id_album": "990865885",
    "description": "McLaren_896866",
    "title": "McLaren_896866",
    "link_img": "https://live.staticflickr.com/65535/48119409358_958309414b_o.jpg",
    "id_image": "McLaren_896866",
    "count_view": 0
  },
  {
    "link_thumb": "https://live.staticflickr.com/65535/48120987667_3b10a6d6c4_n.jpg",
    "id_album": "1965631892",
    "description": "Peugeot_926581",
    "title": "Peugeot_926581",
    "link_img": "https://live.staticflickr.com/65535/48120987667_a200a28a38_o.jpg",
    "id_image": "Peugeot_926581",
    "count_view": 0
  },
  {
    "link_thumb": "https://live.staticflickr.com/65535/48117450171_f308274b0e_n.jpg",
    "id_album": "-1846404630",
    "description": "Ford_768939",
    "title": "Ford_768939",
    "link_img": "https://live.staticflickr.com/65535/48117450171_440e0d15ff_o.jpg",
    "id_image": "Ford_768939",
    "count_view": 0
  },
  {
    "link_thumb": "https://live.staticflickr.com/65535/48113993218_974bab8be3_n.jpg",
    "id_album": "-1721545051",
    "description": "Chevrolet_283625",
    "title": "Chevrolet_283625",
    "link_img": "https://live.staticflickr.com/65535/48113993218_0ff8f1043d_o.jpg",
    "id_image": "Chevrolet_283625",
    "count_view": 0
  },
  {
    "link_thumb": "https://live.staticflickr.com/65535/49889816578_5669283d00_n.jpg",
    "id_album": "-578175838",
    "description": "1970_rv_Porsche_rv_917_rv_V6_rv_1440",
    "title": "1970_rv_Porsche_rv_917_rv_V6_rv_1440",
    "link_img": "https://live.staticflickr.com/65535/49889816578_1eff9686d2_o.jpg",
    "id_image": "1970_rv_Porsche_rv_917_rv_V6_rv_1440",
    "count_view": 0
  },
  {
    "link_thumb": "https://live.staticflickr.com/65535/49889405438_fbd2090220_n.jpg",
    "id_album": "2066040487",
    "description": "2014_rv_Hoonigan_rv_Ford_rv_Mustang_rv_RTR_rv_by_rv_Ken_rv_Block_rv_V3_rv_1600",
    "title": "2014_rv_Hoonigan_rv_Ford_rv_Mustang_rv_RTR_rv_by_rv_Ken_rv_Block_rv_V3_rv_1600",
    "link_img": "https://live.staticflickr.com/65535/49889405438_971ebb26d7_o.jpg",
    "id_image": "2014_rv_Hoonigan_rv_Ford_rv_Mustang_rv_RTR_rv_by_rv_Ken_rv_Block_rv_V3_rv_1600",
    "count_view": 0
  },
  {
    "link_thumb": "https://live.staticflickr.com/65535/48113225807_761a0c2ea6_n.jpg",
    "id_album": "727633301",
    "description": "BMW_880705",
    "title": "BMW_880705",
    "link_img": "https://live.staticflickr.com/65535/48113225807_584cb83bd7_o.jpg",
    "id_image": "BMW_880705",
    "count_view": 0
  },
  {
    "link_thumb": "https://live.staticflickr.com/65535/48115802568_e9ea167a52_n.jpg",
    "id_album": "1364506720",
    "description": "Ferrari_317671",
    "title": "Ferrari_317671",
    "link_img": "https://live.staticflickr.com/65535/48115802568_09dc7b120d_o.jpg",
    "id_image": "Ferrari_317671",
    "count_view": 0
  },
  {
    "link_thumb": "https://live.staticflickr.com/65535/48121282276_1e1e17d4d7_n.jpg",
    "id_album": "-1178450892",
    "description": "Porsche_280623",
    "title": "Porsche_280623",
    "link_img": "https://live.staticflickr.com/65535/48121282276_c825cc9367_o.jpg",
    "id_image": "Porsche_280623",
    "count_view": 0
  },
  {
    "link_thumb": "https://live.staticflickr.com/65535/48116290063_a29e329cf3_n.jpg",
    "id_album": "1364506720",
    "description": "Ferrari_758266",
    "title": "Ferrari_758266",
    "link_img": "https://live.staticflickr.com/65535/48116290063_d30dc4f224_o.jpg",
    "id_image": "Ferrari_758266",
    "count_view": 0
  },
  {
    "link_thumb": "https://live.staticflickr.com/65535/48113122918_1b0f5362b8_n.jpg",
    "id_album": "727633301",
    "description": "BMW_831884",
    "title": "BMW_831884",
    "link_img": "https://live.staticflickr.com/65535/48113122918_db162dcc57_o.jpg",
    "id_image": "BMW_831884",
    "count_view": 0
  },
  {
    "link_thumb": "https://live.staticflickr.com/65535/48117366826_c0347900ec_n.jpg",
    "id_album": "-1846404630",
    "description": "Ford_670443",
    "title": "Ford_670443",
    "link_img": "https://live.staticflickr.com/65535/48117366826_9b30f03dfc_o.jpg",
    "id_image": "Ford_670443",
    "count_view": 0
  },
  {
    "link_thumb": "https://live.staticflickr.com/65535/48113073986_0a99fb7f50_n.jpg",
    "id_album": "727633301",
    "description": "BMW_816825",
    "title": "BMW_816825",
    "link_img": "https://live.staticflickr.com/65535/48113073986_0cc712a6fd_o.jpg",
    "id_image": "BMW_816825",
    "count_view": 0
  },
  {
    "link_thumb": "https://live.staticflickr.com/65535/49892323191_b73526ca38_n.jpg",
    "id_album": "-283016394",
    "description": "1970_rv_Dodge_rv_Challenger_rv_RT_rv_SE_rv_V1_rv_1536",
    "title": "1970_rv_Dodge_rv_Challenger_rv_RT_rv_SE_rv_V1_rv_1536",
    "link_img": "https://live.staticflickr.com/65535/49892323191_33cddf9286_o.jpg",
    "id_image": "1970_rv_Dodge_rv_Challenger_rv_RT_rv_SE_rv_V1_rv_1536",
    "count_view": 0
  },
  {
    "link_thumb": "https://live.staticflickr.com/65535/49892480707_db50b3bff7_n.jpg",
    "id_album": "-842352658",
    "description": "2015_rv_Volkswagen_rv_Golf_rv_R_rv_Variant_rv_V4_rv_1600",
    "title": "2015_rv_Volkswagen_rv_Golf_rv_R_rv_Variant_rv_V4_rv_1600",
    "link_img": "https://live.staticflickr.com/65535/49892480707_29f663ed21_o.jpg",
    "id_image": "2015_rv_Volkswagen_rv_Golf_rv_R_rv_Variant_rv_V4_rv_1600",
    "count_view": 0
  },
  {
    "link_thumb": "https://live.staticflickr.com/65535/48122403981_f008541af4_n.jpg",
    "id_album": "422322641",
    "description": "Subaru_259074",
    "title": "Subaru_259074",
    "link_img": "https://live.staticflickr.com/65535/48122403981_5d1bb9bf6a_o.jpg",
    "id_image": "Subaru_259074",
    "count_view": 0
  },
  {
    "link_thumb": "https://live.staticflickr.com/65535/49892469071_c0fc2abb4b_n.jpg",
    "id_album": "746165216",
    "description": "2012_rv_Toyota_rv_GT_rv_86_rv_V2_rv_1440",
    "title": "2012_rv_Toyota_rv_GT_rv_86_rv_V2_rv_1440",
    "link_img": "https://live.staticflickr.com/65535/49892469071_38925f1c90_o.jpg",
    "id_image": "2012_rv_Toyota_rv_GT_rv_86_rv_V2_rv_1440",
    "count_view": 0
  },
  {
    "link_thumb": "https://live.staticflickr.com/65535/49890193083_28db2a3c56_n.jpg",
    "id_album": "1310566757",
    "description": "2014_rv_Mercedes_rv_Benz_rv_CLA45_rv_AMG_rv_V6_rv_1600",
    "title": "2014_rv_Mercedes_rv_Benz_rv_CLA45_rv_AMG_rv_V6_rv_1600",
    "link_img": "https://live.staticflickr.com/65535/49890193083_f70c063b5a_o.jpg",
    "id_image": "2014_rv_Mercedes_rv_Benz_rv_CLA45_rv_AMG_rv_V6_rv_1600",
    "count_view": 0
  },
  {
    "link_thumb": "https://live.staticflickr.com/65535/48119230096_b584359680_n.jpg",
    "id_album": "898314866",
    "description": "Mazda_822130",
    "title": "Mazda_822130",
    "link_img": "https://live.staticflickr.com/65535/48119230096_5b20ec6fc7_o.jpg",
    "id_image": "Mazda_822130",
    "count_view": 0
  },
  {
    "link_thumb": "https://live.staticflickr.com/65535/49890426107_4804a31a4a_n.jpg",
    "id_album": "1554721686",
    "description": "2014_rv_Lamborghini_rv_Asterion_rv_LPI910_rv_4_rv_Concept_rv_V3_rv_1600",
    "title": "2014_rv_Lamborghini_rv_Asterion_rv_LPI910_rv_4_rv_Concept_rv_V3_rv_1600",
    "link_img": "https://live.staticflickr.com/65535/49890426107_8755a87872_o.jpg",
    "id_image": "2014_rv_Lamborghini_rv_Asterion_rv_LPI910_rv_4_rv_Concept_rv_V3_rv_1600",
    "count_view": 0
  },
  {
    "link_thumb": "https://live.staticflickr.com/65535/48113005106_983d14931c_n.jpg",
    "id_album": "727633301",
    "description": "BMW_694404",
    "title": "BMW_694404",
    "link_img": "https://live.staticflickr.com/65535/48113005106_a859b425e8_o.jpg",
    "id_image": "BMW_694404",
    "count_view": 0
  },
  {
    "link_thumb": "https://live.staticflickr.com/65535/49889458173_a9dac82fa3_n.jpg",
    "id_album": "-139568481",
    "description": "1961_rv_Jaguar_rv_E_rv_Type_rv_V4_rv_1536",
    "title": "1961_rv_Jaguar_rv_E_rv_Type_rv_V4_rv_1536",
    "link_img": "https://live.staticflickr.com/65535/49889458173_8f2552322b_o.jpg",
    "id_image": "1961_rv_Jaguar_rv_E_rv_Type_rv_V4_rv_1536",
    "count_view": 0
  },
  {
    "link_thumb": "https://live.staticflickr.com/65535/48120030737_ea4e3541e5_n.jpg",
    "id_album": "-731054311",
    "description": "MercedesBenz_964032",
    "title": "MercedesBenz_964032",
    "link_img": "https://live.staticflickr.com/65535/48120030737_621a7bdf1f_o.jpg",
    "id_image": "MercedesBenz_964032",
    "count_view": 0
  },
  {
    "link_thumb": "https://live.staticflickr.com/65535/48123286292_3fa3506837_n.jpg",
    "id_album": "1159292543",
    "description": "Volvo_879888",
    "title": "Volvo_879888",
    "link_img": "https://live.staticflickr.com/65535/48123286292_6b367525fe_o.jpg",
    "id_image": "Volvo_879888",
    "count_view": 0
  },
  {
    "link_thumb": "https://live.staticflickr.com/65535/48113220816_616af38132_n.jpg",
    "id_album": "727633301",
    "description": "BMW_922146",
    "title": "BMW_922146",
    "link_img": "https://live.staticflickr.com/65535/48113220816_ce45824dd3_o.jpg",
    "id_image": "BMW_922146",
    "count_view": 0
  },
  {
    "link_thumb": "https://live.staticflickr.com/65535/48118402322_b169b8ccb5_n.jpg",
    "id_album": "-2100339805",
    "description": "Lamborghini_318490",
    "title": "Lamborghini_318490",
    "link_img": "https://live.staticflickr.com/65535/48118402322_a1c4f086c9_o.jpg",
    "id_image": "Lamborghini_318490",
    "count_view": 0
  },
  {
    "link_thumb": "https://live.staticflickr.com/65535/48114640581_4cd2c9a6fb_n.jpg",
    "id_album": "-1721545051",
    "description": "Chevrolet_903361",
    "title": "Chevrolet_903361",
    "link_img": "https://live.staticflickr.com/65535/48114640581_87a4631c9a_o.jpg",
    "id_image": "Chevrolet_903361",
    "count_view": 0
  },
  {
    "link_thumb": "https://live.staticflickr.com/65535/48122008543_bf9c5ac9da_n.jpg",
    "id_album": "-1217333387",
    "description": "Renault_251545",
    "title": "Renault_251545",
    "link_img": "https://live.staticflickr.com/65535/48122008543_fd54058a90_o.jpg",
    "id_image": "Renault_251545",
    "count_view": 0
  },
  {
    "link_thumb": "https://live.staticflickr.com/65535/48120378123_1fe0ed9407_n.jpg",
    "id_album": "810634050",
    "description": "Nissan_257487",
    "title": "Nissan_257487",
    "link_img": "https://live.staticflickr.com/65535/48120378123_5539a8f493_o.jpg",
    "id_image": "Nissan_257487",
    "count_view": 0
  },
  {
    "link_thumb": "https://live.staticflickr.com/65535/49890456476_a5446a6136_n.jpg",
    "id_album": "1935587636",
    "description": "2015_rv_Mazda_rv_RX_rv_Vision_rv_Concept_rv_V2_rv_1600",
    "title": "2015_rv_Mazda_rv_RX_rv_Vision_rv_Concept_rv_V2_rv_1600",
    "link_img": "https://live.staticflickr.com/65535/49890456476_c4518c0872_o.jpg",
    "id_image": "2015_rv_Mazda_rv_RX_rv_Vision_rv_Concept_rv_V2_rv_1600",
    "count_view": 0
  },
  {
    "link_thumb": "https://live.staticflickr.com/65535/48115341948_92a4c31be8_n.jpg",
    "id_album": "413141323",
    "description": "Dodge_472113",
    "title": "Dodge_472113",
    "link_img": "https://live.staticflickr.com/65535/48115341948_a30712d6b9_o.jpg",
    "id_image": "Dodge_472113",
    "count_view": 0
  },
  {
    "link_thumb": "https://live.staticflickr.com/65535/48122538381_26318b0123_n.jpg",
    "id_album": "1645818674",
    "description": "Suzuki_825102",
    "title": "Suzuki_825102",
    "link_img": "https://live.staticflickr.com/65535/48122538381_7834a1a227_o.jpg",
    "id_image": "Suzuki_825102",
    "count_view": 0
  },
  {
    "link_thumb": "https://live.staticflickr.com/65535/48118481172_3deb56b448_n.jpg",
    "id_album": "-2100339805",
    "description": "Lamborghini_377393",
    "title": "Lamborghini_377393",
    "link_img": "https://live.staticflickr.com/65535/48118481172_5154cc6409_o.jpg",
    "id_image": "Lamborghini_377393",
    "count_view": 0
  },
  {
    "link_thumb": "https://live.staticflickr.com/65535/48118596017_90e96cacf0_n.jpg",
    "id_album": "-2100339805",
    "description": "Lamborghini_514050",
    "title": "Lamborghini_514050",
    "link_img": "https://live.staticflickr.com/65535/48118596017_236fa4fc31_o.jpg",
    "id_image": "Lamborghini_514050",
    "count_view": 0
  },
  {
    "link_thumb": "https://live.staticflickr.com/65535/48118448343_7eabf2a491_n.jpg",
    "id_album": "-2100339805",
    "description": "Lamborghini_394137",
    "title": "Lamborghini_394137",
    "link_img": "https://live.staticflickr.com/65535/48118448343_f52f778198_o.jpg",
    "id_image": "Lamborghini_394137",
    "count_view": 0
  },
  {
    "link_thumb": "https://live.staticflickr.com/65535/49889165847_ce81306094_n.jpg",
    "id_album": "-329322037",
    "description": "2010_rv_Aston_rv_Martin_rv_DBS_rv_Volante_rv_V4_rv_2160",
    "title": "2010_rv_Aston_rv_Martin_rv_DBS_rv_Volante_rv_V4_rv_2160",
    "link_img": "https://live.staticflickr.com/65535/49889165847_c3f6f305d8_o.jpg",
    "id_image": "2010_rv_Aston_rv_Martin_rv_DBS_rv_Volante_rv_V4_rv_2160",
    "count_view": 0
  },
  {
    "link_thumb": "https://live.staticflickr.com/65535/49890330987_411c2eb328_n.jpg",
    "id_album": "1773051538",
    "description": "2004_rv_Jaguar_rv_XKR_rv_Portfolio_rv_Convertible_rv_V1_rv_1536",
    "title": "2004_rv_Jaguar_rv_XKR_rv_Portfolio_rv_Convertible_rv_V1_rv_1536",
    "link_img": "https://live.staticflickr.com/65535/49890330987_c393df8419_o.jpg",
    "id_image": "2004_rv_Jaguar_rv_XKR_rv_Portfolio_rv_Convertible_rv_V1_rv_1536",
    "count_view": 0
  },
  {
    "link_thumb": "https://live.staticflickr.com/65535/48119607998_cc60d477a5_n.jpg",
    "id_album": "-731054311",
    "description": "MercedesBenz_312879",
    "title": "MercedesBenz_312879",
    "link_img": "https://live.staticflickr.com/65535/48119607998_386bbfb9f5_o.jpg",
    "id_image": "MercedesBenz_312879",
    "count_view": 0
  },
  {
    "link_thumb": "https://live.staticflickr.com/65535/49889308698_4002a3ae96_n.jpg",
    "id_album": "-1617578684",
    "description": "2018_rv_Porsche_rv_911_rv_GT3_rv_Touring_rv_Package_rv_V3_rv_2000",
    "title": "2018_rv_Porsche_rv_911_rv_GT3_rv_Touring_rv_Package_rv_V3_rv_2000",
    "link_img": "https://live.staticflickr.com/65535/49889308698_b3c44c2acf_o.jpg",
    "id_image": "2018_rv_Porsche_rv_911_rv_GT3_rv_Touring_rv_Package_rv_V3_rv_2000",
    "count_view": 0
  },
  {
    "link_thumb": "https://live.staticflickr.com/65535/48121671552_7f44437c5f_n.jpg",
    "id_album": "-1178450892",
    "description": "Porsche_709646",
    "title": "Porsche_709646",
    "link_img": "https://live.staticflickr.com/65535/48121671552_a71391b43a_o.jpg",
    "id_image": "Porsche_709646",
    "count_view": 0
  },
  {
    "link_thumb": "https://live.staticflickr.com/65535/48112768911_4a2ff91dee_n.jpg",
    "id_album": "727633301",
    "description": "BMW_450537",
    "title": "BMW_450537",
    "link_img": "https://live.staticflickr.com/65535/48112768911_d504a3a1e7_o.jpg",
    "id_image": "BMW_450537",
    "count_view": 0
  },
  {
    "link_thumb": "https://live.staticflickr.com/65535/49889094922_4ed4555396_n.jpg",
    "id_album": "110008377",
    "description": "2003_rv_Alfa_rv_Romeo_rv_Spider_rv_V4_rv_1440",
    "title": "2003_rv_Alfa_rv_Romeo_rv_Spider_rv_V4_rv_1440",
    "link_img": "https://live.staticflickr.com/65535/49889094922_a9862cb004_o.jpg",
    "id_image": "2003_rv_Alfa_rv_Romeo_rv_Spider_rv_V4_rv_1440",
    "count_view": 0
  },
  {
    "link_thumb": "https://live.staticflickr.com/65535/48115432481_ddc122935a_n.jpg",
    "id_album": "413141323",
    "description": "Dodge_602529",
    "title": "Dodge_602529",
    "link_img": "https://live.staticflickr.com/65535/48115432481_5c9a7c0664_o.jpg",
    "id_image": "Dodge_602529",
    "count_view": 0
  },
  {
    "link_thumb": "https://live.staticflickr.com/65535/48114279717_aba86e3d78_n.jpg",
    "id_album": "-1721545051",
    "description": "Chevrolet_396141",
    "title": "Chevrolet_396141",
    "link_img": "https://live.staticflickr.com/65535/48114279717_96757e8e51_o.jpg",
    "id_image": "Chevrolet_396141",
    "count_view": 0
  },
  {
    "link_thumb": "https://live.staticflickr.com/65535/49892642201_b2b66e0bc6_n.jpg",
    "id_album": "1890694871",
    "description": "2001_rv_Mitsubishi_rv_Lancer_rv_GSR_rv_Evolution_rv_VII_rv_V5_rv_1440",
    "title": "2001_rv_Mitsubishi_rv_Lancer_rv_GSR_rv_Evolution_rv_VII_rv_V5_rv_1440",
    "link_img": "https://live.staticflickr.com/65535/49892642201_517a1b79cd_o.jpg",
    "id_image": "2001_rv_Mitsubishi_rv_Lancer_rv_GSR_rv_Evolution_rv_VII_rv_V5_rv_1440",
    "count_view": 0
  },
  {
    "link_thumb": "https://live.staticflickr.com/65535/48119376651_d162dff1c0_n.jpg",
    "id_album": "990865885",
    "description": "McLaren_896856",
    "title": "McLaren_896856",
    "link_img": "https://live.staticflickr.com/65535/48119376651_528e8878cf_o.jpg",
    "id_image": "McLaren_896856",
    "count_view": 0
  },
  {
    "link_thumb": "https://live.staticflickr.com/65535/49892145016_1d4f8de88d_n.jpg",
    "id_album": "-522462605",
    "description": "2008_rv_Porsche_rv_RS_rv_Spyder_rv_V1_rv_1440",
    "title": "2008_rv_Porsche_rv_RS_rv_Spyder_rv_V1_rv_1440",
    "link_img": "https://live.staticflickr.com/65535/49892145016_ff21a6b7ae_o.jpg",
    "id_image": "2008_rv_Porsche_rv_RS_rv_Spyder_rv_V1_rv_1440",
    "count_view": 0
  },
  {
    "link_thumb": "https://live.staticflickr.com/65535/48112944673_d8f3f5bb7e_n.jpg",
    "id_album": "727633301",
    "description": "BMW_490024",
    "title": "BMW_490024",
    "link_img": "https://live.staticflickr.com/65535/48112944673_4f754a825f_o.jpg",
    "id_image": "BMW_490024",
    "count_view": 0
  },
  {
    "link_thumb": "https://live.staticflickr.com/65535/48115682031_8f742a3088_n.jpg",
    "id_album": "1364506720",
    "description": "Ferrari_255112",
    "title": "Ferrari_255112",
    "link_img": "https://live.staticflickr.com/65535/48115682031_7b2b679470_o.jpg",
    "id_image": "Ferrari_255112",
    "count_view": 0
  },
  {
    "link_thumb": "https://live.staticflickr.com/65535/48119857251_a5c8a68488_n.jpg",
    "id_album": "-731054311",
    "description": "MercedesBenz_908262",
    "title": "MercedesBenz_908262",
    "link_img": "https://live.staticflickr.com/65535/48119857251_aae56d0911_o.jpg",
    "id_image": "MercedesBenz_908262",
    "count_view": 0
  },
  {
    "link_thumb": "https://live.staticflickr.com/65535/48122500922_eaf2c8a980_n.jpg",
    "id_album": "422322641",
    "description": "Subaru_259078",
    "title": "Subaru_259078",
    "link_img": "https://live.staticflickr.com/65535/48122500922_ed2bff4af0_o.jpg",
    "id_image": "Subaru_259078",
    "count_view": 0
  },
  {
    "link_thumb": "https://live.staticflickr.com/65535/49890241226_129375e11f_n.jpg",
    "id_album": "-936716449",
    "description": "2019_rv_Lamborghini_rv_Huracan_rv_Evo_rv_V9_rv_2160",
    "title": "2019_rv_Lamborghini_rv_Huracan_rv_Evo_rv_V9_rv_2160",
    "link_img": "https://live.staticflickr.com/65535/49890241226_abcea8245e_o.jpg",
    "id_image": "2019_rv_Lamborghini_rv_Huracan_rv_Evo_rv_V9_rv_2160",
    "count_view": 0
  },
  {
    "link_thumb": "https://live.staticflickr.com/65535/48123057696_28dca54e5c_n.jpg",
    "id_album": "-150952028",
    "description": "Volkswagen_920628",
    "title": "Volkswagen_920628",
    "link_img": "https://live.staticflickr.com/65535/48123057696_ee0af27137_o.jpg",
    "id_image": "Volkswagen_920628",
    "count_view": 0
  },
  {
    "link_thumb": "https://live.staticflickr.com/65535/49892601831_3df4e41e40_n.jpg",
    "id_album": "-842876950",
    "description": "2007_rv_Aston_rv_Martin_rv_V8_rv_Vantage_rv_Roadster_rv_V2_rv_1440",
    "title": "2007_rv_Aston_rv_Martin_rv_V8_rv_Vantage_rv_Roadster_rv_V2_rv_1440",
    "link_img": "https://live.staticflickr.com/65535/49892601831_e2d65ae642_o.jpg",
    "id_image": "2007_rv_Aston_rv_Martin_rv_V8_rv_Vantage_rv_Roadster_rv_V2_rv_1440",
    "count_view": 0
  },
  {
    "link_thumb": "https://live.staticflickr.com/65535/48116746262_2a44a9f0d2_n.jpg",
    "id_album": "-1846404630",
    "description": "Ford_175518",
    "title": "Ford_175518",
    "link_img": "https://live.staticflickr.com/65535/48116746262_a811e97d41_o.jpg",
    "id_image": "Ford_175518",
    "count_view": 0
  },
  {
    "link_thumb": "https://live.staticflickr.com/65535/48117637572_aa588f8aec_n.jpg",
    "id_album": "-1846404630",
    "description": "Ford_930992",
    "title": "Ford_930992",
    "link_img": "https://live.staticflickr.com/65535/48117637572_00acf7ecdb_o.jpg",
    "id_image": "Ford_930992",
    "count_view": 0
  },
  {
    "link_thumb": "https://live.staticflickr.com/65535/49890206488_e0cf7d9ec7_n.jpg",
    "id_album": "-1837389467",
    "description": "1999_rv_Mercedes_rv_Benz_rv_CLK_rv_GTR_rv_V5_rv_1440",
    "title": "1999_rv_Mercedes_rv_Benz_rv_CLK_rv_GTR_rv_V5_rv_1440",
    "link_img": "https://live.staticflickr.com/65535/49890206488_09f1b0d74f_o.jpg",
    "id_image": "1999_rv_Mercedes_rv_Benz_rv_CLK_rv_GTR_rv_V5_rv_1440",
    "count_view": 0
  },
  {
    "link_thumb": "https://live.staticflickr.com/65535/48112539788_68a293385c_n.jpg",
    "id_album": "2097036181",
    "description": "Bentley_187439",
    "title": "Bentley_187439",
    "link_img": "https://live.staticflickr.com/65535/48112539788_1067e93395_o.jpg",
    "id_image": "Bentley_187439",
    "count_view": 0
  },
  {
    "link_thumb": "https://live.staticflickr.com/65535/49888359338_2a0df46d35_n.jpg",
    "id_album": "-31825570",
    "description": "2019_rv_Aston_rv_Martin_rv_Rapide_rv_AMR_rv_V3_rv_2160",
    "title": "2019_rv_Aston_rv_Martin_rv_Rapide_rv_AMR_rv_V3_rv_2160",
    "link_img": "https://live.staticflickr.com/65535/49888359338_a0f9d8bbee_o.jpg",
    "id_image": "2019_rv_Aston_rv_Martin_rv_Rapide_rv_AMR_rv_V3_rv_2160",
    "count_view": 0
  },
  {
    "link_thumb": "https://live.staticflickr.com/65535/48113285737_111947ca69_n.jpg",
    "id_album": "727633301",
    "description": "BMW_912765",
    "title": "BMW_912765",
    "link_img": "https://live.staticflickr.com/65535/48113285737_0bfe7e8d4b_o.jpg",
    "id_image": "BMW_912765",
    "count_view": 0
  },
  {
    "link_thumb": "https://live.staticflickr.com/65535/48122453503_e2478e508d_n.jpg",
    "id_album": "422322641",
    "description": "Subaru_319426",
    "title": "Subaru_319426",
    "link_img": "https://live.staticflickr.com/65535/48122453503_b22c52d11c_o.jpg",
    "id_image": "Subaru_319426",
    "count_view": 0
  },
  {
    "link_thumb": "https://live.staticflickr.com/65535/48113977212_e5d0f26da1_n.jpg",
    "id_album": "-1721545051",
    "description": "Chevrolet_246285",
    "title": "Chevrolet_246285",
    "link_img": "https://live.staticflickr.com/65535/48113977212_def5ae614b_o.jpg",
    "id_image": "Chevrolet_246285",
    "count_view": 0
  },
  {
    "link_thumb": "https://live.staticflickr.com/65535/49890142302_e518ea3899_n.jpg",
    "id_album": "-289181366",
    "description": "1966_rv_Shelby_rv_GT350_rv_V9_rv_1536",
    "title": "1966_rv_Shelby_rv_GT350_rv_V9_rv_1536",
    "link_img": "https://live.staticflickr.com/65535/49890142302_0804fde7fd_o.jpg",
    "id_image": "1966_rv_Shelby_rv_GT350_rv_V9_rv_1536",
    "count_view": 0
  },
  {
    "link_thumb": "https://live.staticflickr.com/65535/48113060971_598eb507d7_n.jpg",
    "id_album": "727633301",
    "description": "BMW_790827",
    "title": "BMW_790827",
    "link_img": "https://live.staticflickr.com/65535/48113060971_09d9863670_o.jpg",
    "id_image": "BMW_790827",
    "count_view": 0
  },
  {
    "link_thumb": "https://live.staticflickr.com/65535/48114373918_29d392df50_n.jpg",
    "id_album": "-1721545051",
    "description": "Chevrolet_502336",
    "title": "Chevrolet_502336",
    "link_img": "https://live.staticflickr.com/65535/48114373918_80ddab739e_o.jpg",
    "id_image": "Chevrolet_502336",
    "count_view": 0
  },
  {
    "link_thumb": "https://live.staticflickr.com/65535/48118474271_93004be368_n.jpg",
    "id_album": "-2100339805",
    "description": "Lamborghini_451731",
    "title": "Lamborghini_451731",
    "link_img": "https://live.staticflickr.com/65535/48118474271_39b620c78d_o.jpg",
    "id_image": "Lamborghini_451731",
    "count_view": 0
  },
  {
    "link_thumb": "https://live.staticflickr.com/65535/48116032246_b0a276d597_n.jpg",
    "id_album": "1364506720",
    "description": "Ferrari_501980",
    "title": "Ferrari_501980",
    "link_img": "https://live.staticflickr.com/65535/48116032246_87a4fd75f0_o.jpg",
    "id_image": "Ferrari_501980",
    "count_view": 0
  },
  {
    "link_thumb": "https://live.staticflickr.com/65535/48116075112_0e64e72240_n.jpg",
    "id_album": "1364506720",
    "description": "Ferrari_453415",
    "title": "Ferrari_453415",
    "link_img": "https://live.staticflickr.com/65535/48116075112_563eb54b27_o.jpg",
    "id_image": "Ferrari_453415",
    "count_view": 0
  },
  {
    "link_thumb": "https://live.staticflickr.com/65535/49889273637_7cc8a4ffd0_n.jpg",
    "id_album": "-2012653187",
    "description": "2012_rv_Audi_rv_S4_rv_V2_rv_1440",
    "title": "2012_rv_Audi_rv_S4_rv_V2_rv_1440",
    "link_img": "https://live.staticflickr.com/65535/49889273637_78c3328c40_o.jpg",
    "id_image": "2012_rv_Audi_rv_S4_rv_V2_rv_1440",
    "count_view": 0
  },
  {
    "link_thumb": "https://live.staticflickr.com/65535/49888918413_42b7d77c2d_n.jpg",
    "id_album": "1828657713",
    "description": "1962_rv_Ferrari_rv_250_rv_GTO_rv_V17_rv_2000",
    "title": "1962_rv_Ferrari_rv_250_rv_GTO_rv_V17_rv_2000",
    "link_img": "https://live.staticflickr.com/65535/49888918413_001e06f204_o.jpg",
    "id_image": "1962_rv_Ferrari_rv_250_rv_GTO_rv_V17_rv_2000",
    "count_view": 0
  },
  {
    "link_thumb": "https://live.staticflickr.com/65535/48112315418_cce46e477d_n.jpg",
    "id_album": "-15119147",
    "description": "Audi_357165",
    "title": "Audi_357165",
    "link_img": "https://live.staticflickr.com/65535/48112315418_01096e504d_o.jpg",
    "id_image": "Audi_357165",
    "count_view": 0
  },
  {
    "link_thumb": "https://live.staticflickr.com/65535/48114992686_2b3c8582b8_n.jpg",
    "id_album": "413141323",
    "description": "Dodge_106302",
    "title": "Dodge_106302",
    "link_img": "https://live.staticflickr.com/65535/48114992686_c431cc9b34_o.jpg",
    "id_image": "Dodge_106302",
    "count_view": 0
  },
  {
    "link_thumb": "https://live.staticflickr.com/65535/48113149112_5b79ae37a7_n.jpg",
    "id_album": "727633301",
    "description": "BMW_742884",
    "title": "BMW_742884",
    "link_img": "https://live.staticflickr.com/65535/48113149112_6f4d6bfd2f_o.jpg",
    "id_image": "BMW_742884",
    "count_view": 0
  },
  {
    "link_thumb": "https://live.staticflickr.com/65535/48112568158_f9e0092915_n.jpg",
    "id_album": "2097036181",
    "description": "Bentley_470759",
    "title": "Bentley_470759",
    "link_img": "https://live.staticflickr.com/65535/48112568158_58fb07f87c_o.jpg",
    "id_image": "Bentley_470759",
    "count_view": 0
  },
  {
    "link_thumb": "https://live.staticflickr.com/65535/49890477518_b87ae5afe2_n.jpg",
    "id_album": "535324403",
    "description": "2021_rv_Morgan_rv_Plus_rv_Four_rv_V1_rv_2160",
    "title": "2021_rv_Morgan_rv_Plus_rv_Four_rv_V1_rv_2160",
    "link_img": "https://live.staticflickr.com/65535/49890477518_1eae9e14d4_o.jpg",
    "id_image": "2021_rv_Morgan_rv_Plus_rv_Four_rv_V1_rv_2160",
    "count_view": 0
  },
  {
    "link_thumb": "https://live.staticflickr.com/65535/48119221517_0cbcaf3900_n.jpg",
    "id_album": "697984456",
    "description": "Maserati_891952",
    "title": "Maserati_891952",
    "link_img": "https://live.staticflickr.com/65535/48119221517_4d5a516cff_o.jpg",
    "id_image": "Maserati_891952",
    "count_view": 0
  },
  {
    "link_thumb": "https://live.staticflickr.com/65535/49890276251_b59d3134b8_n.jpg",
    "id_album": "1603718572",
    "description": "2016_rv_Lexus_rv_GS_rv_F_rv_V1_rv_1600",
    "title": "2016_rv_Lexus_rv_GS_rv_F_rv_V1_rv_1600",
    "link_img": "https://live.staticflickr.com/65535/49890276251_dbe943ff13_o.jpg",
    "id_image": "2016_rv_Lexus_rv_GS_rv_F_rv_V1_rv_1600",
    "count_view": 0
  },
  {
    "link_thumb": "https://live.staticflickr.com/65535/49889238601_c4aa456b0c_n.jpg",
    "id_album": "-843466787",
    "description": "1962_rv_Chevrolet_rv_Corvette_rv_V9_rv_1536",
    "title": "1962_rv_Chevrolet_rv_Corvette_rv_V9_rv_1536",
    "link_img": "https://live.staticflickr.com/65535/49889238601_4bb19b18c9_o.jpg",
    "id_image": "1962_rv_Chevrolet_rv_Corvette_rv_V9_rv_1536",
    "count_view": 0
  },
  {
    "link_thumb": "https://live.staticflickr.com/65535/49889835841_f38a4e8202_n.jpg",
    "id_album": "-289181366",
    "description": "1967_rv_Shelby_rv_GT350_rv_V4_rv_1600",
    "title": "1967_rv_Shelby_rv_GT350_rv_V4_rv_1600",
    "link_img": "https://live.staticflickr.com/65535/49889835841_8c3dc45e98_o.jpg",
    "id_image": "1967_rv_Shelby_rv_GT350_rv_V4_rv_1600",
    "count_view": 0
  },
  {
    "link_thumb": "https://live.staticflickr.com/65535/48123144438_ee5fbf7646_n.jpg",
    "id_album": "1159292543",
    "description": "Volvo_273846",
    "title": "Volvo_273846",
    "link_img": "https://live.staticflickr.com/65535/48123144438_8bdf21a631_o.jpg",
    "id_image": "Volvo_273846",
    "count_view": 0
  },
  {
    "link_thumb": "https://live.staticflickr.com/65535/49890062882_1696490178_n.jpg",
    "id_album": "-559101122",
    "description": "2003_rv_Ford_rv_Mustang_rv_Mach_rv_1_rv_V1_rv_1536",
    "title": "2003_rv_Ford_rv_Mustang_rv_Mach_rv_1_rv_V1_rv_1536",
    "link_img": "https://live.staticflickr.com/65535/49890062882_5512b3b09e_o.jpg",
    "id_image": "2003_rv_Ford_rv_Mustang_rv_Mach_rv_1_rv_V1_rv_1536",
    "count_view": 0
  },
  {
    "link_thumb": "https://live.staticflickr.com/65535/48122646873_b51da8ed35_n.jpg",
    "id_album": "1274920659",
    "description": "Toyota_160892",
    "title": "Toyota_160892",
    "link_img": "https://live.staticflickr.com/65535/48122646873_976f5d19bb_o.jpg",
    "id_image": "Toyota_160892",
    "count_view": 0
  },
  {
    "link_thumb": "https://live.staticflickr.com/65535/48113201621_a5ecfa8fb2_n.jpg",
    "id_album": "727633301",
    "description": "BMW_917599",
    "title": "BMW_917599",
    "link_img": "https://live.staticflickr.com/65535/48113201621_39a11963cc_o.jpg",
    "id_image": "BMW_917599",
    "count_view": 0
  },
  {
    "link_thumb": "https://live.staticflickr.com/65535/49890483741_34aedb39e7_n.jpg",
    "id_album": "-1174261063",
    "description": "2013_rv_Mazda_rv_MX_rv_5_rv_V3_rv_1600",
    "title": "2013_rv_Mazda_rv_MX_rv_5_rv_V3_rv_1600",
    "link_img": "https://live.staticflickr.com/65535/49890483741_012ee54be4_o.jpg",
    "id_image": "2013_rv_Mazda_rv_MX_rv_5_rv_V3_rv_1600",
    "count_view": 0
  },
  {
    "link_thumb": "https://live.staticflickr.com/65535/48113819953_d6f36c7a7b_n.jpg",
    "id_album": "-1721545051",
    "description": "Chevrolet_203472",
    "title": "Chevrolet_203472",
    "link_img": "https://live.staticflickr.com/65535/48113819953_b4c35d0957_o.jpg",
    "id_image": "Chevrolet_203472",
    "count_view": 0
  },
  {
    "link_thumb": "https://live.staticflickr.com/65535/48113854182_2ddf8d7c25_n.jpg",
    "id_album": "-1721545051",
    "description": "Chevrolet_189792",
    "title": "Chevrolet_189792",
    "link_img": "https://live.staticflickr.com/65535/48113854182_f2e9701fc5_o.jpg",
    "id_image": "Chevrolet_189792",
    "count_view": 0
  },
  {
    "link_thumb": "https://live.staticflickr.com/65535/48117813491_c4e9f342ab_n.jpg",
    "id_album": "-354267407",
    "description": "Honda_501000",
    "title": "Honda_501000",
    "link_img": "https://live.staticflickr.com/65535/48117813491_f61bbbe191_o.jpg",
    "id_image": "Honda_501000",
    "count_view": 0
  },
  {
    "link_thumb": "https://live.staticflickr.com/65535/48115795571_33f25cb249_n.jpg",
    "id_album": "1364506720",
    "description": "Ferrari_317765",
    "title": "Ferrari_317765",
    "link_img": "https://live.staticflickr.com/65535/48115795571_c0b35eb76a_o.jpg",
    "id_image": "Ferrari_317765",
    "count_view": 0
  },
  {
    "link_thumb": "https://live.staticflickr.com/65535/49892484106_1d9617802b_n.jpg",
    "id_album": "-2074247247",
    "description": "2007_rv_Toyota_rv_TRD_rv_Aurion_rv_V5_rv_1536",
    "title": "2007_rv_Toyota_rv_TRD_rv_Aurion_rv_V5_rv_1536",
    "link_img": "https://live.staticflickr.com/65535/49892484106_ed0bc6ec83_o.jpg",
    "id_image": "2007_rv_Toyota_rv_TRD_rv_Aurion_rv_V5_rv_1536",
    "count_view": 0
  },
  {
    "link_thumb": "https://live.staticflickr.com/65535/48120059923_95e9c0b88e_n.jpg",
    "id_album": "-1116477526",
    "description": "Mitsubishi_259090",
    "title": "Mitsubishi_259090",
    "link_img": "https://live.staticflickr.com/65535/48120059923_b5dc617238_o.jpg",
    "id_image": "Mitsubishi_259090",
    "count_view": 0
  },
  {
    "link_thumb": "https://live.staticflickr.com/65535/48120248141_cca9321753_n.jpg",
    "id_album": "666438681",
    "description": "Motorcycles_639360",
    "title": "Motorcycles_639360",
    "link_img": "https://live.staticflickr.com/65535/48120248141_1416523f6a_o.jpg",
    "id_image": "Motorcycles_639360",
    "count_view": 0
  },
  {
    "link_thumb": "https://live.staticflickr.com/65535/48113315677_0eaa3d3f5e_n.jpg",
    "id_album": "727633301",
    "description": "BMW_920147",
    "title": "BMW_920147",
    "link_img": "https://live.staticflickr.com/65535/48113315677_828e94c0af_o.jpg",
    "id_image": "BMW_920147",
    "count_view": 0
  },
  {
    "link_thumb": "https://live.staticflickr.com/65535/48115835128_655e2760eb_n.jpg",
    "id_album": "1364506720",
    "description": "Ferrari_317790",
    "title": "Ferrari_317790",
    "link_img": "https://live.staticflickr.com/65535/48115835128_32259eea9f_o.jpg",
    "id_image": "Ferrari_317790",
    "count_view": 0
  },
  {
    "link_thumb": "https://live.staticflickr.com/65535/48119041942_264ea5baab_n.jpg",
    "id_album": "446908717",
    "description": "Lexus_941059",
    "title": "Lexus_941059",
    "link_img": "https://live.staticflickr.com/65535/48119041942_199fc65251_o.jpg",
    "id_image": "Lexus_941059",
    "count_view": 0
  },
  {
    "link_thumb": "https://live.staticflickr.com/65535/48122735577_0951fe6b59_n.jpg",
    "id_album": "1274920659",
    "description": "Toyota_319431",
    "title": "Toyota_319431",
    "link_img": "https://live.staticflickr.com/65535/48122735577_f1dd690a31_o.jpg",
    "id_image": "Toyota_319431",
    "count_view": 0
  },
  {
    "link_thumb": "https://live.staticflickr.com/65535/48115521127_8505748281_n.jpg",
    "id_album": "413141323",
    "description": "Dodge_549751",
    "title": "Dodge_549751",
    "link_img": "https://live.staticflickr.com/65535/48115521127_e59648d055_o.jpg",
    "id_image": "Dodge_549751",
    "count_view": 0
  },
  {
    "link_thumb": "https://live.staticflickr.com/65535/48112124821_e939ff8110_n.jpg",
    "id_album": "996272974",
    "description": "AstonMartin_440278",
    "title": "AstonMartin_440278",
    "link_img": "https://live.staticflickr.com/65535/48112124821_8f8d31a8b0_o.jpg",
    "id_image": "AstonMartin_440278",
    "count_view": 0
  },
  {
    "link_thumb": "https://live.staticflickr.com/65535/49890820003_e6b6e66d58_n.jpg",
    "id_album": "-923669998",
    "description": "1965_rv_Pontiac_rv_Tempest_rv_LeMans_rv_GTO_rv_V6_rv_1536",
    "title": "1965_rv_Pontiac_rv_Tempest_rv_LeMans_rv_GTO_rv_V6_rv_1536",
    "link_img": "https://live.staticflickr.com/65535/49890820003_8ea11bd480_o.jpg",
    "id_image": "1965_rv_Pontiac_rv_Tempest_rv_LeMans_rv_GTO_rv_V6_rv_1536",
    "count_view": 0
  },
  {
    "link_thumb": "https://live.staticflickr.com/65535/48121165946_90e671056b_n.jpg",
    "id_album": "-2099496752",
    "description": "Pontiac_844366",
    "title": "Pontiac_844366",
    "link_img": "https://live.staticflickr.com/65535/48121165946_a2847b10b2_o.jpg",
    "id_image": "Pontiac_844366",
    "count_view": 0
  },
  {
    "link_thumb": "https://live.staticflickr.com/65535/48121441083_ebe4ac071e_n.jpg",
    "id_album": "-1178450892",
    "description": "Porsche_484425",
    "title": "Porsche_484425",
    "link_img": "https://live.staticflickr.com/65535/48121441083_32d10a51fe_o.jpg",
    "id_image": "Porsche_484425",
    "count_view": 0
  },
  {
    "link_thumb": "https://live.staticflickr.com/65535/48118516073_bcacdb96a0_n.jpg",
    "id_album": "-2100339805",
    "description": "Lamborghini_461726",
    "title": "Lamborghini_461726",
    "link_img": "https://live.staticflickr.com/65535/48118516073_d04a818d1b_o.jpg",
    "id_image": "Lamborghini_461726",
    "count_view": 0
  },
  {
    "link_thumb": "https://live.staticflickr.com/65535/48118488672_1af75ceb7d_n.jpg",
    "id_album": "-2100339805",
    "description": "Lamborghini_378774",
    "title": "Lamborghini_378774",
    "link_img": "https://live.staticflickr.com/65535/48118488672_d90d2047be_o.jpg",
    "id_image": "Lamborghini_378774",
    "count_view": 0
  },
  {
    "link_thumb": "https://live.staticflickr.com/65535/48118842843_9f0486c70e_n.jpg",
    "id_album": "1234246491",
    "description": "LandRover_885613",
    "title": "LandRover_885613",
    "link_img": "https://live.staticflickr.com/65535/48118842843_219999740f_o.jpg",
    "id_image": "LandRover_885613",
    "count_view": 0
  },
  {
    "link_thumb": "https://live.staticflickr.com/65535/48120372457_b96e68387b_n.jpg",
    "id_album": "666438681",
    "description": "Motorcycles_878647",
    "title": "Motorcycles_878647",
    "link_img": "https://live.staticflickr.com/65535/48120372457_06d23dc2ac_o.jpg",
    "id_image": "Motorcycles_878647",
    "count_view": 0
  },
  {
    "link_thumb": "https://live.staticflickr.com/65535/48116028226_d1d626b15b_n.jpg",
    "id_album": "1364506720",
    "description": "Ferrari_498578",
    "title": "Ferrari_498578",
    "link_img": "https://live.staticflickr.com/65535/48116028226_dccc132fc1_o.jpg",
    "id_image": "Ferrari_498578",
    "count_view": 0
  },
  {
    "link_thumb": "https://live.staticflickr.com/65535/49113222522_e4886ea675_n.jpg",
    "id_album": "-1414939221",
    "description": "AstonMartin_471159 _rv_ Copy",
    "title": "AstonMartin_471159 _rv_ Copy",
    "link_img": "https://live.staticflickr.com/65535/49113222522_1dfb006ed9_o.jpg",
    "id_image": "AstonMartin_471159 _rv_ Copy",
    "count_view": 0
  },
  {
    "link_thumb": "https://live.staticflickr.com/65535/49889784296_cf43e55303_n.jpg",
    "id_album": "-1987353642",
    "description": "2015_rv_Galpin_rv_Auto_rv_Sports_rv_Rocket_rv_V6_rv_2000",
    "title": "2015_rv_Galpin_rv_Auto_rv_Sports_rv_Rocket_rv_V6_rv_2000",
    "link_img": "https://live.staticflickr.com/65535/49889784296_47a1ac713c_o.jpg",
    "id_image": "2015_rv_Galpin_rv_Auto_rv_Sports_rv_Rocket_rv_V6_rv_2000",
    "count_view": 0
  },
  {
    "link_thumb": "https://live.staticflickr.com/65535/48118016851_a5a0346339_n.jpg",
    "id_album": "-843028318",
    "description": "Jaguar_844445",
    "title": "Jaguar_844445",
    "link_img": "https://live.staticflickr.com/65535/48118016851_9218250466_o.jpg",
    "id_image": "Jaguar_844445",
    "count_view": 0
  },
  {
    "link_thumb": "https://live.staticflickr.com/65535/48116467422_ed80f8786b_n.jpg",
    "id_album": "1364506720",
    "description": "Ferrari_900641",
    "title": "Ferrari_900641",
    "link_img": "https://live.staticflickr.com/65535/48116467422_358ee64528_o.jpg",
    "id_image": "Ferrari_900641",
    "count_view": 0
  },
  {
    "link_thumb": "https://live.staticflickr.com/65535/48116599407_168e5273c3_n.jpg",
    "id_album": "-803737857",
    "description": "Fiat_959409",
    "title": "Fiat_959409",
    "link_img": "https://live.staticflickr.com/65535/48116599407_0bcc4747a1_o.jpg",
    "id_image": "Fiat_959409",
    "count_view": 0
  },
  {
    "link_thumb": "https://live.staticflickr.com/65535/48119702873_75af3c046d_n.jpg",
    "id_album": "-731054311",
    "description": "MercedesBenz_449714",
    "title": "MercedesBenz_449714",
    "link_img": "https://live.staticflickr.com/65535/48119702873_cc874cb04b_o.jpg",
    "id_image": "MercedesBenz_449714",
    "count_view": 0
  },
  {
    "link_thumb": "https://live.staticflickr.com/65535/48114449707_725a4d5068_n.jpg",
    "id_album": "-1721545051",
    "description": "Chevrolet_504486",
    "title": "Chevrolet_504486",
    "link_img": "https://live.staticflickr.com/65535/48114449707_ddef4aa0dd_o.jpg",
    "id_image": "Chevrolet_504486",
    "count_view": 0
  },
  {
    "link_thumb": "https://live.staticflickr.com/65535/48118114932_b821609be7_n.jpg",
    "id_album": "-843028318",
    "description": "Jaguar_885775",
    "title": "Jaguar_885775",
    "link_img": "https://live.staticflickr.com/65535/48118114932_e5938e400a_o.jpg",
    "id_image": "Jaguar_885775",
    "count_view": 0
  },
  {
    "link_thumb": "https://live.staticflickr.com/65535/49890688426_9c35034562_n.jpg",
    "id_album": "-538739456",
    "description": "2017_rv_Mercedes_rv_Benz_rv_C63_rv_AMG_rv_Cabriolet_rv_V2_rv_2000",
    "title": "2017_rv_Mercedes_rv_Benz_rv_C63_rv_AMG_rv_Cabriolet_rv_V2_rv_2000",
    "link_img": "https://live.staticflickr.com/65535/49890688426_61ecfa19f2_o.jpg",
    "id_image": "2017_rv_Mercedes_rv_Benz_rv_C63_rv_AMG_rv_Cabriolet_rv_V2_rv_2000",
    "count_view": 0
  },
  {
    "link_thumb": "https://live.staticflickr.com/65535/48116348407_9d7463f2af_n.jpg",
    "id_album": "1364506720",
    "description": "Ferrari_758253",
    "title": "Ferrari_758253",
    "link_img": "https://live.staticflickr.com/65535/48116348407_ff9afd7d6b_o.jpg",
    "id_image": "Ferrari_758253",
    "count_view": 0
  },
  {
    "link_thumb": "https://live.staticflickr.com/65535/48118340963_f5ffdd6d27_n.jpg",
    "id_album": "-2100339805",
    "description": "Lamborghini_318468",
    "title": "Lamborghini_318468",
    "link_img": "https://live.staticflickr.com/65535/48118340963_cc5d57fcf0_o.jpg",
    "id_image": "Lamborghini_318468",
    "count_view": 0
  },
  {
    "link_thumb": "https://live.staticflickr.com/65535/48116055157_8f8f8d5b32_n.jpg",
    "id_album": "1364506720",
    "description": "Ferrari_439363",
    "title": "Ferrari_439363",
    "link_img": "https://live.staticflickr.com/65535/48116055157_0c9b3c28be_o.jpg",
    "id_image": "Ferrari_439363",
    "count_view": 0
  }
]