[
  {
    "total_img": 0,
    "number_page": 0,
    "title": "Alfa Romeo Tipo",
    "tag": "Alfa Romeo Tipo,",
    "description": "Alfa Romeo Tipo",
    "link_thumb": "https://live.staticflickr.com/65535/49889101732_1e557b1d5a_n.jpg",
    "id_album": "-1465206620",
    "total_view": 16
  }
]