[
  {
    "link_thumb": "https://live.staticflickr.com/65535/49890248371_dc54ca727a_n.jpg",
    "id_album": "2051566758",
    "description": "1972_rv_Lancia_rv_Stratos_rv_Group_rv_4_rv_V1_rv_1440",
    "title": "1972_rv_Lancia_rv_Stratos_rv_Group_rv_4_rv_V1_rv_1440",
    "link_img": "https://live.staticflickr.com/65535/49890248371_fdce035282_o.jpg",
    "id_image": "1972_rv_Lancia_rv_Stratos_rv_Group_rv_4_rv_V1_rv_1440",
    "count_view": 0
  },
  {
    "link_thumb": "https://live.staticflickr.com/65535/49889730408_4c8be1f6aa_n.jpg",
    "id_album": "2051566758",
    "description": "1972_rv_Lancia_rv_Stratos_rv_Group_rv_4_rv_V2_rv_1440",
    "title": "1972_rv_Lancia_rv_Stratos_rv_Group_rv_4_rv_V2_rv_1440",
    "link_img": "https://live.staticflickr.com/65535/49889730408_3ae5ded91e_o.jpg",
    "id_image": "1972_rv_Lancia_rv_Stratos_rv_Group_rv_4_rv_V2_rv_1440",
    "count_view": 0
  },
  {
    "link_thumb": "https://live.staticflickr.com/65535/49889730673_2307196b5d_n.jpg",
    "id_album": "2051566758",
    "description": "1972_rv_Lancia_rv_Stratos_rv_Group_rv_4_rv_V3_rv_1440",
    "title": "1972_rv_Lancia_rv_Stratos_rv_Group_rv_4_rv_V3_rv_1440",
    "link_img": "https://live.staticflickr.com/65535/49889730673_92e91c5249_o.jpg",
    "id_image": "1972_rv_Lancia_rv_Stratos_rv_Group_rv_4_rv_V3_rv_1440",
    "count_view": 0
  },
  {
    "link_thumb": "https://live.staticflickr.com/65535/49889730888_b6bc72388f_n.jpg",
    "id_album": "2051566758",
    "description": "1972_rv_Lancia_rv_Stratos_rv_Group_rv_4_rv_V4_rv_1440",
    "title": "1972_rv_Lancia_rv_Stratos_rv_Group_rv_4_rv_V4_rv_1440",
    "link_img": "https://live.staticflickr.com/65535/49889730888_9657f4c9a1_o.jpg",
    "id_image": "1972_rv_Lancia_rv_Stratos_rv_Group_rv_4_rv_V4_rv_1440",
    "count_view": 0
  },
  {
    "link_thumb": "https://live.staticflickr.com/65535/49890557187_ffe93d1e3b_n.jpg",
    "id_album": "2051566758",
    "description": "1972_rv_Lancia_rv_Stratos_rv_Group_rv_4_rv_V5_rv_1440",
    "title": "1972_rv_Lancia_rv_Stratos_rv_Group_rv_4_rv_V5_rv_1440",
    "link_img": "https://live.staticflickr.com/65535/49890557187_93183e6136_o.jpg",
    "id_image": "1972_rv_Lancia_rv_Stratos_rv_Group_rv_4_rv_V5_rv_1440",
    "count_view": 0
  },
  {
    "link_thumb": "https://live.staticflickr.com/65535/49890557347_af27fe85c4_n.jpg",
    "id_album": "2051566758",
    "description": "1972_rv_Lancia_rv_Stratos_rv_Group_rv_4_rv_V6_rv_1440",
    "title": "1972_rv_Lancia_rv_Stratos_rv_Group_rv_4_rv_V6_rv_1440",
    "link_img": "https://live.staticflickr.com/65535/49890557347_7366d3f9e6_o.jpg",
    "id_image": "1972_rv_Lancia_rv_Stratos_rv_Group_rv_4_rv_V6_rv_1440",
    "count_view": 0
  },
  {
    "link_thumb": "https://live.staticflickr.com/65535/49890557562_096309aa80_n.jpg",
    "id_album": "2051566758",
    "description": "1973_rv_Lancia_rv_Stratos_rv_HF_rv_V1_rv_1440",
    "title": "1973_rv_Lancia_rv_Stratos_rv_HF_rv_V1_rv_1440",
    "link_img": "https://live.staticflickr.com/65535/49890557562_dcaf0ca5f9_o.jpg",
    "id_image": "1973_rv_Lancia_rv_Stratos_rv_HF_rv_V1_rv_1440",
    "count_view": 0
  },
  {
    "link_thumb": "https://live.staticflickr.com/65535/49890249801_599fd46a03_n.jpg",
    "id_album": "2051566758",
    "description": "1973_rv_Lancia_rv_Stratos_rv_HF_rv_V2_rv_1440",
    "title": "1973_rv_Lancia_rv_Stratos_rv_HF_rv_V2_rv_1440",
    "link_img": "https://live.staticflickr.com/65535/49890249801_009f9f94ea_o.jpg",
    "id_image": "1973_rv_Lancia_rv_Stratos_rv_HF_rv_V2_rv_1440",
    "count_view": 0
  },
  {
    "link_thumb": "https://live.staticflickr.com/65535/49889731878_23c9b4ec12_n.jpg",
    "id_album": "2051566758",
    "description": "1973_rv_Lancia_rv_Stratos_rv_HF_rv_V3_rv_1440",
    "title": "1973_rv_Lancia_rv_Stratos_rv_HF_rv_V3_rv_1440",
    "link_img": "https://live.staticflickr.com/65535/49889731878_03bf046859_o.jpg",
    "id_image": "1973_rv_Lancia_rv_Stratos_rv_HF_rv_V3_rv_1440",
    "count_view": 0
  },
  {
    "link_thumb": "https://live.staticflickr.com/65535/49890250196_48e333f705_n.jpg",
    "id_album": "2051566758",
    "description": "1973_rv_Lancia_rv_Stratos_rv_HF_rv_V4_rv_1440",
    "title": "1973_rv_Lancia_rv_Stratos_rv_HF_rv_V4_rv_1440",
    "link_img": "https://live.staticflickr.com/65535/49890250196_4bcdb793dc_o.jpg",
    "id_image": "1973_rv_Lancia_rv_Stratos_rv_HF_rv_V4_rv_1440",
    "count_view": 0
  },
  {
    "link_thumb": "https://live.staticflickr.com/65535/49890250416_a7ba8f848f_n.jpg",
    "id_album": "2051566758",
    "description": "1973_rv_Lancia_rv_Stratos_rv_HF_rv_V5_rv_1440",
    "title": "1973_rv_Lancia_rv_Stratos_rv_HF_rv_V5_rv_1440",
    "link_img": "https://live.staticflickr.com/65535/49890250416_6b8c283f4a_o.jpg",
    "id_image": "1973_rv_Lancia_rv_Stratos_rv_HF_rv_V5_rv_1440",
    "count_view": 0
  },
  {
    "link_thumb": "https://live.staticflickr.com/65535/49890558537_59f796fe36_n.jpg",
    "id_album": "2051566758",
    "description": "1973_rv_Lancia_rv_Stratos_rv_HF_rv_V7_rv_1440",
    "title": "1973_rv_Lancia_rv_Stratos_rv_HF_rv_V7_rv_1440",
    "link_img": "https://live.staticflickr.com/65535/49890558537_6e6e08269e_o.jpg",
    "id_image": "1973_rv_Lancia_rv_Stratos_rv_HF_rv_V7_rv_1440",
    "count_view": 0
  },
  {
    "link_thumb": "https://live.staticflickr.com/65535/49890558702_4820c3819c_n.jpg",
    "id_album": "2051566758",
    "description": "1973_rv_Lancia_rv_Stratos_rv_HF_rv_V8_rv_1440",
    "title": "1973_rv_Lancia_rv_Stratos_rv_HF_rv_V8_rv_1440",
    "link_img": "https://live.staticflickr.com/65535/49890558702_eb1d7455f6_o.jpg",
    "id_image": "1973_rv_Lancia_rv_Stratos_rv_HF_rv_V8_rv_1440",
    "count_view": 0
  },
  {
    "link_thumb": "https://live.staticflickr.com/65535/49889732593_c3b6ed232c_n.jpg",
    "id_album": "2051566758",
    "description": "1973_rv_Lancia_rv_Stratos_rv_HF_rv_V9_rv_1440",
    "title": "1973_rv_Lancia_rv_Stratos_rv_HF_rv_V9_rv_1440",
    "link_img": "https://live.staticflickr.com/65535/49889732593_82d4014b77_o.jpg",
    "id_image": "1973_rv_Lancia_rv_Stratos_rv_HF_rv_V9_rv_1440",
    "count_view": 0
  }
]