[
  {
    "link_thumb": "https://live.staticflickr.com/65535/48113477196_c342247474_n.jpg",
    "id_album": "1246496342",
    "description": "Buick_398322",
    "title": "Buick_398322",
    "link_img": "https://live.staticflickr.com/65535/48113477196_9763ae03e1_o.jpg",
    "id_image": "Buick_398322",
    "count_view": 0
  },
  {
    "link_thumb": "https://live.staticflickr.com/65535/48112232933_0bc472d516_n.jpg",
    "id_album": "555757480",
    "description": "AstonMartin_892993",
    "title": "AstonMartin_892993",
    "link_img": "https://live.staticflickr.com/65535/48112232933_1bbb1424ec_o.jpg",
    "id_image": "AstonMartin_892993",
    "count_view": 0
  },
  {
    "link_thumb": "https://live.staticflickr.com/65535/49892494111_cb600699a3_n.jpg",
    "id_album": "-1642234658",
    "description": "2004_rv_Toyota_rv_Celica_rv_GT_rv_S_rv_V3_rv_1536",
    "title": "2004_rv_Toyota_rv_Celica_rv_GT_rv_S_rv_V3_rv_1536",
    "link_img": "https://live.staticflickr.com/65535/49892494111_5995d69dc9_o.jpg",
    "id_image": "2004_rv_Toyota_rv_Celica_rv_GT_rv_S_rv_V3_rv_1536",
    "count_view": 0
  },
  {
    "link_thumb": "https://live.staticflickr.com/65535/48113227246_7b7014a034_n.jpg",
    "id_album": "727633301",
    "description": "BMW_922929",
    "title": "BMW_922929",
    "link_img": "https://live.staticflickr.com/65535/48113227246_013eefca97_o.jpg",
    "id_image": "BMW_922929",
    "count_view": 0
  },
  {
    "link_thumb": "https://live.staticflickr.com/65535/48121434918_b1f0a99825_n.jpg",
    "id_album": "-1178450892",
    "description": "Porsche_469244",
    "title": "Porsche_469244",
    "link_img": "https://live.staticflickr.com/65535/48121434918_d12b3d446a_o.jpg",
    "id_image": "Porsche_469244",
    "count_view": 0
  },
  {
    "link_thumb": "https://live.staticflickr.com/65535/49890555402_a0d3d480d8_n.jpg",
    "id_album": "-1732286570",
    "description": "1992_rv_Lancia_rv_Hyena_rv_V1_rv_1440",
    "title": "1992_rv_Lancia_rv_Hyena_rv_V1_rv_1440",
    "link_img": "https://live.staticflickr.com/65535/49890555402_13c67d6444_o.jpg",
    "id_image": "1992_rv_Lancia_rv_Hyena_rv_V1_rv_1440",
    "count_view": 0
  },
  {
    "link_thumb": "https://live.staticflickr.com/65535/48123116311_bb1423e065_n.jpg",
    "id_album": "1159292543",
    "description": "Volvo_296770",
    "title": "Volvo_296770",
    "link_img": "https://live.staticflickr.com/65535/48123116311_b2c8ff2a3c_o.jpg",
    "id_image": "Volvo_296770",
    "count_view": 0
  },
  {
    "link_thumb": "https://live.staticflickr.com/65535/48113766851_c76ea0b1b1_n.jpg",
    "id_album": "-1721545051",
    "description": "Chevrolet_192065",
    "title": "Chevrolet_192065",
    "link_img": "https://live.staticflickr.com/65535/48113766851_8d890eeab5_o.jpg",
    "id_image": "Chevrolet_192065",
    "count_view": 0
  },
  {
    "link_thumb": "https://live.staticflickr.com/65535/48117594343_1f64fc1bec_n.jpg",
    "id_album": "-1846404630",
    "description": "Ford_931261",
    "title": "Ford_931261",
    "link_img": "https://live.staticflickr.com/65535/48117594343_3cf79c281f_o.jpg",
    "id_image": "Ford_931261",
    "count_view": 0
  },
  {
    "link_thumb": "https://live.staticflickr.com/65535/48118041098_373b203758_n.jpg",
    "id_album": "-843028318",
    "description": "Jaguar_769399",
    "title": "Jaguar_769399",
    "link_img": "https://live.staticflickr.com/65535/48118041098_9d3564cc54_o.jpg",
    "id_image": "Jaguar_769399",
    "count_view": 0
  },
  {
    "link_thumb": "https://live.staticflickr.com/65535/48122991043_20c3ea2309_n.jpg",
    "id_album": "-150952028",
    "description": "Volkswagen_464698",
    "title": "Volkswagen_464698",
    "link_img": "https://live.staticflickr.com/65535/48122991043_dc14b20f1b_o.jpg",
    "id_image": "Volkswagen_464698",
    "count_view": 0
  },
  {
    "link_thumb": "https://live.staticflickr.com/65535/48119570543_3f77d77c1d_n.jpg",
    "id_album": "-731054311",
    "description": "MercedesBenz_257298",
    "title": "MercedesBenz_257298",
    "link_img": "https://live.staticflickr.com/65535/48119570543_a2ed39bf83_o.jpg",
    "id_image": "MercedesBenz_257298",
    "count_view": 0
  },
  {
    "link_thumb": "https://live.staticflickr.com/65535/49890481777_eb4acff1ab_n.jpg",
    "id_album": "-936716449",
    "description": "2019_rv_Lamborghini_rv_Huracan_rv_Sterrato_rv_Concept_rv_V4_rv_2160",
    "title": "2019_rv_Lamborghini_rv_Huracan_rv_Sterrato_rv_Concept_rv_V4_rv_2160",
    "link_img": "https://live.staticflickr.com/65535/49890481777_967bd3eb3b_o.jpg",
    "id_image": "2019_rv_Lamborghini_rv_Huracan_rv_Sterrato_rv_Concept_rv_V4_rv_2160",
    "count_view": 0
  },
  {
    "link_thumb": "https://live.staticflickr.com/65535/48113522452_111e00424e_n.jpg",
    "id_album": "1456070666",
    "description": "Bugatti_705509",
    "title": "Bugatti_705509",
    "link_img": "https://live.staticflickr.com/65535/48113522452_d1df6021b3_o.jpg",
    "id_image": "Bugatti_705509",
    "count_view": 0
  },
  {
    "link_thumb": "https://live.staticflickr.com/65535/48116377117_134b4a92fa_n.jpg",
    "id_album": "1364506720",
    "description": "Ferrari_758326",
    "title": "Ferrari_758326",
    "link_img": "https://live.staticflickr.com/65535/48116377117_881a61f799_o.jpg",
    "id_image": "Ferrari_758326",
    "count_view": 0
  },
  {
    "link_thumb": "https://live.staticflickr.com/65535/49889125132_e1dc7ec143_n.jpg",
    "id_album": "2068783385",
    "description": "2016_rv_Aston_rv_Martin_rv_AM_rv_RB_rv_001_rv_Concept_rv_V2_rv_2000",
    "title": "2016_rv_Aston_rv_Martin_rv_AM_rv_RB_rv_001_rv_Concept_rv_V2_rv_2000",
    "link_img": "https://live.staticflickr.com/65535/49889125132_36983c73cd_o.jpg",
    "id_image": "2016_rv_Aston_rv_Martin_rv_AM_rv_RB_rv_001_rv_Concept_rv_V2_rv_2000",
    "count_view": 0
  },
  {
    "link_thumb": "https://live.staticflickr.com/65535/48113581666_9b44483507_n.jpg",
    "id_album": "-680120434",
    "description": "Cadillac_498672",
    "title": "Cadillac_498672",
    "link_img": "https://live.staticflickr.com/65535/48113581666_5b38689ab1_o.jpg",
    "id_image": "Cadillac_498672",
    "count_view": 0
  },
  {
    "link_thumb": "https://live.staticflickr.com/65535/48116485556_838c4a5206_n.jpg",
    "id_album": "-803737857",
    "description": "Fiat_472222",
    "title": "Fiat_472222",
    "link_img": "https://live.staticflickr.com/65535/48116485556_4d67096e87_o.jpg",
    "id_image": "Fiat_472222",
    "count_view": 0
  },
  {
    "link_thumb": "https://live.staticflickr.com/65535/49890594938_51b342a0ed_n.jpg",
    "id_album": "-634611517",
    "description": "2016_rv_Nissan_rv_Titan_rv_Warrior_rv_Concept_rv_V5_rv_2000",
    "title": "2016_rv_Nissan_rv_Titan_rv_Warrior_rv_Concept_rv_V5_rv_2000",
    "link_img": "https://live.staticflickr.com/65535/49890594938_ce08751aba_o.jpg",
    "id_image": "2016_rv_Nissan_rv_Titan_rv_Warrior_rv_Concept_rv_V5_rv_2000",
    "count_view": 0
  },
  {
    "link_thumb": "https://live.staticflickr.com/65535/48114261733_dce74b604d_n.jpg",
    "id_album": "-1721545051",
    "description": "Chevrolet_427961",
    "title": "Chevrolet_427961",
    "link_img": "https://live.staticflickr.com/65535/48114261733_10c69b14ed_o.jpg",
    "id_image": "Chevrolet_427961",
    "count_view": 0
  },
  {
    "link_thumb": "https://live.staticflickr.com/65535/49891972778_1177d7a275_n.jpg",
    "id_album": "-1642234658",
    "description": "1982_rv_Toyota_rv_Celica_rv_Liftback_rv_V1_rv_1536",
    "title": "1982_rv_Toyota_rv_Celica_rv_Liftback_rv_V1_rv_1536",
    "link_img": "https://live.staticflickr.com/65535/49891972778_9abaf1c9ba_o.jpg",
    "id_image": "1982_rv_Toyota_rv_Celica_rv_Liftback_rv_V1_rv_1536",
    "count_view": 0
  },
  {
    "link_thumb": "https://live.staticflickr.com/65535/48119558552_0855881d96_n.jpg",
    "id_album": "-731054311",
    "description": "MercedesBenz_172569",
    "title": "MercedesBenz_172569",
    "link_img": "https://live.staticflickr.com/65535/48119558552_a3b6bbe4ee_o.jpg",
    "id_image": "MercedesBenz_172569",
    "count_view": 0
  },
  {
    "link_thumb": "https://live.staticflickr.com/65535/48117595081_59e1647794_n.jpg",
    "id_album": "-1846404630",
    "description": "Ford_932441",
    "title": "Ford_932441",
    "link_img": "https://live.staticflickr.com/65535/48117595081_902f2d265b_o.jpg",
    "id_image": "Ford_932441",
    "count_view": 0
  },
  {
    "link_thumb": "https://live.staticflickr.com/65535/49889249428_98328fdafc_n.jpg",
    "id_album": "1370790237",
    "description": "2015_rv_Dodge_rv_Challenger_rv_SRT_rv_Hellcat_rv_V15_rv_1440",
    "title": "2015_rv_Dodge_rv_Challenger_rv_SRT_rv_Hellcat_rv_V15_rv_1440",
    "link_img": "https://live.staticflickr.com/65535/49889249428_df3bc59f31_o.jpg",
    "id_image": "2015_rv_Dodge_rv_Challenger_rv_SRT_rv_Hellcat_rv_V15_rv_1440",
    "count_view": 0
  },
  {
    "link_thumb": "https://live.staticflickr.com/65535/48116451061_e2429e16df_n.jpg",
    "id_album": "-803737857",
    "description": "Fiat_188055",
    "title": "Fiat_188055",
    "link_img": "https://live.staticflickr.com/65535/48116451061_a868c81380_o.jpg",
    "id_image": "Fiat_188055",
    "count_view": 0
  },
  {
    "link_thumb": "https://live.staticflickr.com/65535/48117766072_abafc0fed8_n.jpg",
    "id_album": "-1846404630",
    "description": "Ford_99018",
    "title": "Ford_99018",
    "link_img": "https://live.staticflickr.com/65535/48117766072_4a37f06d21_o.jpg",
    "id_image": "Ford_99018",
    "count_view": 0
  },
  {
    "link_thumb": "https://live.staticflickr.com/65535/48114118958_0df9c4dd16_n.jpg",
    "id_album": "-1721545051",
    "description": "Chevrolet_296938",
    "title": "Chevrolet_296938",
    "link_img": "https://live.staticflickr.com/65535/48114118958_cfda1890c8_o.jpg",
    "id_image": "Chevrolet_296938",
    "count_view": 0
  },
  {
    "link_thumb": "https://live.staticflickr.com/65535/48122211908_8180726572_n.jpg",
    "id_album": "1536700661",
    "description": "RollsRoyce_942924",
    "title": "RollsRoyce_942924",
    "link_img": "https://live.staticflickr.com/65535/48122211908_c8f5ea06be_o.jpg",
    "id_image": "RollsRoyce_942924",
    "count_view": 0
  },
  {
    "link_thumb": "https://live.staticflickr.com/65535/48120056591_e7bb2d145d_n.jpg",
    "id_album": "-1116477526",
    "description": "Mitsubishi_450794",
    "title": "Mitsubishi_450794",
    "link_img": "https://live.staticflickr.com/65535/48120056591_e41d9865b2_o.jpg",
    "id_image": "Mitsubishi_450794",
    "count_view": 0
  },
  {
    "link_thumb": "https://live.staticflickr.com/65535/48114965548_582debf45c_n.jpg",
    "id_album": "2072464184",
    "description": "Citroen_892370",
    "title": "Citroen_892370",
    "link_img": "https://live.staticflickr.com/65535/48114965548_5dba55226c_o.jpg",
    "id_image": "Citroen_892370",
    "count_view": 0
  },
  {
    "link_thumb": "https://live.staticflickr.com/65535/49889350797_397c983863_n.jpg",
    "id_album": "727633301",
    "description": "2010_rv_BMW_rv_Z4_rv_GT3_rv_V1_rv_1536",
    "title": "2010_rv_BMW_rv_Z4_rv_GT3_rv_V1_rv_1536",
    "link_img": "https://live.staticflickr.com/65535/49889350797_a1eee1ca0a_o.jpg",
    "id_image": "2010_rv_BMW_rv_Z4_rv_GT3_rv_V1_rv_1536",
    "count_view": 0
  },
  {
    "link_thumb": "https://live.staticflickr.com/65535/48113073387_a2dc20a4ed_n.jpg",
    "id_album": "727633301",
    "description": "BMW_540944",
    "title": "BMW_540944",
    "link_img": "https://live.staticflickr.com/65535/48113073387_7c87442a93_o.jpg",
    "id_image": "BMW_540944",
    "count_view": 0
  },
  {
    "link_thumb": "https://live.staticflickr.com/65535/49890018773_f81cc3b27f_n.jpg",
    "id_album": "819228677",
    "description": "2020_rv_McLaren_rv_600LT_rv_Spider_rv_V9_rv_2160",
    "title": "2020_rv_McLaren_rv_600LT_rv_Spider_rv_V9_rv_2160",
    "link_img": "https://live.staticflickr.com/65535/49890018773_37bb800a9b_o.jpg",
    "id_image": "2020_rv_McLaren_rv_600LT_rv_Spider_rv_V9_rv_2160",
    "count_view": 0
  },
  {
    "link_thumb": "https://live.staticflickr.com/65535/48121329497_7eab6f2d6b_n.jpg",
    "id_album": "-1178450892",
    "description": "Porsche_250436",
    "title": "Porsche_250436",
    "link_img": "https://live.staticflickr.com/65535/48121329497_d0a62bf1a0_o.jpg",
    "id_image": "Porsche_250436",
    "count_view": 0
  },
  {
    "link_thumb": "https://live.staticflickr.com/65535/48122636683_67012c73a4_n.jpg",
    "id_album": "1822826527",
    "description": "TeslaMotors_952150",
    "title": "TeslaMotors_952150",
    "link_img": "https://live.staticflickr.com/65535/48122636683_8ed39e7a4b_o.jpg",
    "id_image": "TeslaMotors_952150",
    "count_view": 0
  },
  {
    "link_thumb": "https://live.staticflickr.com/65535/48114146493_79f400aa41_n.jpg",
    "id_album": "-1721545051",
    "description": "Chevrolet_318037",
    "title": "Chevrolet_318037",
    "link_img": "https://live.staticflickr.com/65535/48114146493_f85120a491_o.jpg",
    "id_image": "Chevrolet_318037",
    "count_view": 0
  },
  {
    "link_thumb": "https://live.staticflickr.com/65535/48113363858_1af5b015de_n.jpg",
    "id_album": "1456070666",
    "description": "Bugatti_237657",
    "title": "Bugatti_237657",
    "link_img": "https://live.staticflickr.com/65535/48113363858_b0ce6478c5_o.jpg",
    "id_image": "Bugatti_237657",
    "count_view": 0
  },
  {
    "link_thumb": "https://live.staticflickr.com/65535/48119566587_7dd758a47f_n.jpg",
    "id_album": "-731054311",
    "description": "MercedesBenz_197891",
    "title": "MercedesBenz_197891",
    "link_img": "https://live.staticflickr.com/65535/48119566587_efafc0498e_o.jpg",
    "id_image": "MercedesBenz_197891",
    "count_view": 0
  },
  {
    "link_thumb": "https://live.staticflickr.com/65535/48118020841_1ba5dc66fc_n.jpg",
    "id_album": "-843028318",
    "description": "Jaguar_879410",
    "title": "Jaguar_879410",
    "link_img": "https://live.staticflickr.com/65535/48118020841_b3c3cd7d2e_o.jpg",
    "id_image": "Jaguar_879410",
    "count_view": 0
  },
  {
    "link_thumb": "https://live.staticflickr.com/65535/48120443317_f82a3f3c27_n.jpg",
    "id_album": "810634050",
    "description": "Nissan_257521",
    "title": "Nissan_257521",
    "link_img": "https://live.staticflickr.com/65535/48120443317_4047e8e11e_o.jpg",
    "id_image": "Nissan_257521",
    "count_view": 0
  },
  {
    "link_thumb": "https://live.staticflickr.com/65535/48112948283_fab1a7dcb7_n.jpg",
    "id_album": "727633301",
    "description": "BMW_490417",
    "title": "BMW_490417",
    "link_img": "https://live.staticflickr.com/65535/48112948283_fe341c7d70_o.jpg",
    "id_image": "BMW_490417",
    "count_view": 0
  },
  {
    "link_thumb": "https://live.staticflickr.com/65535/48121602263_d8b199ac2f_n.jpg",
    "id_album": "-1178450892",
    "description": "Porsche_698889",
    "title": "Porsche_698889",
    "link_img": "https://live.staticflickr.com/65535/48121602263_6d5d70b84a_o.jpg",
    "id_image": "Porsche_698889",
    "count_view": 0
  },
  {
    "link_thumb": "https://live.staticflickr.com/65535/48122185282_89361a8524_n.jpg",
    "id_album": "1536700661",
    "description": "RollsRoyce_207756",
    "title": "RollsRoyce_207756",
    "link_img": "https://live.staticflickr.com/65535/48122185282_e5608a0372_o.jpg",
    "id_image": "RollsRoyce_207756",
    "count_view": 0
  },
  {
    "link_thumb": "https://live.staticflickr.com/65535/48118864963_3d4b0845ce_n.jpg",
    "id_album": "446908717",
    "description": "Lexus_212770",
    "title": "Lexus_212770",
    "link_img": "https://live.staticflickr.com/65535/48118864963_871a6b9e3e_o.jpg",
    "id_image": "Lexus_212770",
    "count_view": 0
  },
  {
    "link_thumb": "https://live.staticflickr.com/65535/49889762151_f63ec58cbb_n.jpg",
    "id_album": "1370790237",
    "description": "2012_rv_Dodge_rv_Challenger_rv_Rallye_rv_Redline_rv_V4_rv_1536",
    "title": "2012_rv_Dodge_rv_Challenger_rv_Rallye_rv_Redline_rv_V4_rv_1536",
    "link_img": "https://live.staticflickr.com/65535/49889762151_ff5748f271_o.jpg",
    "id_image": "2012_rv_Dodge_rv_Challenger_rv_Rallye_rv_Redline_rv_V4_rv_1536",
    "count_view": 0
  },
  {
    "link_thumb": "https://live.staticflickr.com/65535/48117354743_6926b04e64_n.jpg",
    "id_album": "-1846404630",
    "description": "Ford_595083",
    "title": "Ford_595083",
    "link_img": "https://live.staticflickr.com/65535/48117354743_92f2ce1ac8_o.jpg",
    "id_image": "Ford_595083",
    "count_view": 0
  },
  {
    "link_thumb": "https://live.staticflickr.com/65535/48113458376_661e334177_n.jpg",
    "id_album": "1246496342",
    "description": "Buick_141963",
    "title": "Buick_141963",
    "link_img": "https://live.staticflickr.com/65535/48113458376_204951d169_o.jpg",
    "id_image": "Buick_141963",
    "count_view": 0
  },
  {
    "link_thumb": "https://live.staticflickr.com/65535/49890331107_ba7f062b87_n.jpg",
    "id_album": "1773051538",
    "description": "2004_rv_Jaguar_rv_XKR_rv_Portfolio_rv_Convertible_rv_V2_rv_1536",
    "title": "2004_rv_Jaguar_rv_XKR_rv_Portfolio_rv_Convertible_rv_V2_rv_1536",
    "link_img": "https://live.staticflickr.com/65535/49890331107_dd881f5ccb_o.jpg",
    "id_image": "2004_rv_Jaguar_rv_XKR_rv_Portfolio_rv_Convertible_rv_V2_rv_1536",
    "count_view": 0
  },
  {
    "link_thumb": "https://live.staticflickr.com/65535/48118924417_6bc49034ea_n.jpg",
    "id_album": "446908717",
    "description": "Lexus_229906",
    "title": "Lexus_229906",
    "link_img": "https://live.staticflickr.com/65535/48118924417_bf9a00d5cc_o.jpg",
    "id_image": "Lexus_229906",
    "count_view": 0
  },
  {
    "link_thumb": "https://live.staticflickr.com/65535/48120487763_00148ccf1a_n.jpg",
    "id_album": "810634050",
    "description": "Nissan_477661",
    "title": "Nissan_477661",
    "link_img": "https://live.staticflickr.com/65535/48120487763_4385a00843_o.jpg",
    "id_image": "Nissan_477661",
    "count_view": 0
  },
  {
    "link_thumb": "https://live.staticflickr.com/65535/48121197276_fce9471b25_n.jpg",
    "id_album": "-1178450892",
    "description": "Porsche_213473",
    "title": "Porsche_213473",
    "link_img": "https://live.staticflickr.com/65535/48121197276_282ce125ed_o.jpg",
    "id_image": "Porsche_213473",
    "count_view": 0
  },
  {
    "link_thumb": "https://live.staticflickr.com/65535/48112965421_c65d3dd38a_n.jpg",
    "id_album": "727633301",
    "description": "BMW_523241",
    "title": "BMW_523241",
    "link_img": "https://live.staticflickr.com/65535/48112965421_34d1ab9a44_o.jpg",
    "id_image": "BMW_523241",
    "count_view": 0
  },
  {
    "link_thumb": "https://live.staticflickr.com/65535/48112280818_83f0d6f966_n.jpg",
    "id_album": "-15119147",
    "description": "Audi_229142",
    "title": "Audi_229142",
    "link_img": "https://live.staticflickr.com/65535/48112280818_9e09617d59_o.jpg",
    "id_image": "Audi_229142",
    "count_view": 0
  },
  {
    "link_thumb": "https://live.staticflickr.com/65535/48118244452_e4347f3c2d_n.jpg",
    "id_album": "-625217782",
    "description": "Kia_450357",
    "title": "Kia_450357",
    "link_img": "https://live.staticflickr.com/65535/48118244452_562bf359db_o.jpg",
    "id_image": "Kia_450357",
    "count_view": 0
  },
  {
    "link_thumb": "https://live.staticflickr.com/65535/49889389491_d68f2496f4_n.jpg",
    "id_album": "715958079",
    "description": "2018_rv_Formula1_rv_Mercedes_rv_AMG_rv_F1_rv_W09_rv_V3_rv_2000",
    "title": "2018_rv_Formula1_rv_Mercedes_rv_AMG_rv_F1_rv_W09_rv_V3_rv_2000",
    "link_img": "https://live.staticflickr.com/65535/49889389491_626b042e6b_o.jpg",
    "id_image": "2018_rv_Formula1_rv_Mercedes_rv_AMG_rv_F1_rv_W09_rv_V3_rv_2000",
    "count_view": 0
  },
  {
    "link_thumb": "https://live.staticflickr.com/65535/48122054542_349f30da12_n.jpg",
    "id_album": "-1217333387",
    "description": "Renault_189514",
    "title": "Renault_189514",
    "link_img": "https://live.staticflickr.com/65535/48122054542_184acb57bb_o.jpg",
    "id_image": "Renault_189514",
    "count_view": 0
  },
  {
    "link_thumb": "https://live.staticflickr.com/65535/48112398401_1af4fdc896_n.jpg",
    "id_album": "-15119147",
    "description": "Audi_805455",
    "title": "Audi_805455",
    "link_img": "https://live.staticflickr.com/65535/48112398401_cf089be250_o.jpg",
    "id_image": "Audi_805455",
    "count_view": 0
  },
  {
    "link_thumb": "https://live.staticflickr.com/65535/48123194298_49943dae67_n.jpg",
    "id_album": "1159292543",
    "description": "Volvo_817044",
    "title": "Volvo_817044",
    "link_img": "https://live.staticflickr.com/65535/48123194298_87b6c5504b_o.jpg",
    "id_image": "Volvo_817044",
    "count_view": 0
  },
  {
    "link_thumb": "https://live.staticflickr.com/65535/48116207747_6e3a5e00a5_n.jpg",
    "id_album": "1364506720",
    "description": "Ferrari_600909",
    "title": "Ferrari_600909",
    "link_img": "https://live.staticflickr.com/65535/48116207747_e5b5e94977_o.jpg",
    "id_image": "Ferrari_600909",
    "count_view": 0
  },
  {
    "link_thumb": "https://live.staticflickr.com/65535/48112549926_c11eccd267_n.jpg",
    "id_album": "2097036181",
    "description": "Bentley_714976",
    "title": "Bentley_714976",
    "link_img": "https://live.staticflickr.com/65535/48112549926_9652542afd_o.jpg",
    "id_image": "Bentley_714976",
    "count_view": 0
  },
  {
    "link_thumb": "https://live.staticflickr.com/65535/48117141077_15c1e714cd_n.jpg",
    "id_album": "-1846404630",
    "description": "Ford_355738",
    "title": "Ford_355738",
    "link_img": "https://live.staticflickr.com/65535/48117141077_bec5fcd8c1_o.jpg",
    "id_image": "Ford_355738",
    "count_view": 0
  },
  {
    "link_thumb": "https://live.staticflickr.com/65535/48112878448_6408f255c0_n.jpg",
    "id_album": "727633301",
    "description": "BMW_478888",
    "title": "BMW_478888",
    "link_img": "https://live.staticflickr.com/65535/48112878448_00a5e728bd_o.jpg",
    "id_image": "BMW_478888",
    "count_view": 0
  },
  {
    "link_thumb": "https://live.staticflickr.com/65535/48120223418_18f2dacf41_n.jpg",
    "id_album": "666438681",
    "description": "Motorcycles_321428",
    "title": "Motorcycles_321428",
    "link_img": "https://live.staticflickr.com/65535/48120223418_db37fe8a24_o.jpg",
    "id_image": "Motorcycles_321428",
    "count_view": 0
  },
  {
    "link_thumb": "https://live.staticflickr.com/65535/48118653288_e8ae0bb3bc_n.jpg",
    "id_album": "-2100339805",
    "description": "Lamborghini_844359",
    "title": "Lamborghini_844359",
    "link_img": "https://live.staticflickr.com/65535/48118653288_fb7f8e4807_o.jpg",
    "id_image": "Lamborghini_844359",
    "count_view": 0
  },
  {
    "link_thumb": "https://live.staticflickr.com/65535/48114200801_0ed875c838_n.jpg",
    "id_album": "-1721545051",
    "description": "Chevrolet_408736",
    "title": "Chevrolet_408736",
    "link_img": "https://live.staticflickr.com/65535/48114200801_3fb7c2a5d3_o.jpg",
    "id_image": "Chevrolet_408736",
    "count_view": 0
  },
  {
    "link_thumb": "https://live.staticflickr.com/65535/48112897216_12810fb77c_n.jpg",
    "id_album": "727633301",
    "description": "BMW_488973",
    "title": "BMW_488973",
    "link_img": "https://live.staticflickr.com/65535/48112897216_4ba9977787_o.jpg",
    "id_image": "BMW_488973",
    "count_view": 0
  },
  {
    "link_thumb": "https://live.staticflickr.com/65535/48122729392_02796d31c1_n.jpg",
    "id_album": "1274920659",
    "description": "Toyota_259266",
    "title": "Toyota_259266",
    "link_img": "https://live.staticflickr.com/65535/48122729392_6e40735c5f_o.jpg",
    "id_image": "Toyota_259266",
    "count_view": 0
  },
  {
    "link_thumb": "https://live.staticflickr.com/65535/48118885548_070213159a_n.jpg",
    "id_album": "446908717",
    "description": "Lexus_318836",
    "title": "Lexus_318836",
    "link_img": "https://live.staticflickr.com/65535/48118885548_963e49862c_o.jpg",
    "id_image": "Lexus_318836",
    "count_view": 0
  },
  {
    "link_thumb": "https://live.staticflickr.com/65535/49888202988_e842da2ba4_n.jpg",
    "id_album": "504832144",
    "description": "2001_rv_Acura_rv_NSX_rv_V9_rv_1600",
    "title": "2001_rv_Acura_rv_NSX_rv_V9_rv_1600",
    "link_img": "https://live.staticflickr.com/65535/49888202988_e5c97603b5_o.jpg",
    "id_image": "2001_rv_Acura_rv_NSX_rv_V9_rv_1600",
    "count_view": 0
  },
  {
    "link_thumb": "https://live.staticflickr.com/65535/48118358032_7764e3fe08_n.jpg",
    "id_album": "-2100339805",
    "description": "Lamborghini_256307",
    "title": "Lamborghini_256307",
    "link_img": "https://live.staticflickr.com/65535/48118358032_5e3f745854_o.jpg",
    "id_image": "Lamborghini_256307",
    "count_view": 0
  },
  {
    "link_thumb": "https://live.staticflickr.com/65535/49891803458_6e53c20143_n.jpg",
    "id_album": "-1205337898",
    "description": "2013_rv_Seat_rv_Leon_rv_Cup_rv_Racer_rv_Concept_rv_V1_rv_1600",
    "title": "2013_rv_Seat_rv_Leon_rv_Cup_rv_Racer_rv_Concept_rv_V1_rv_1600",
    "link_img": "https://live.staticflickr.com/65535/49891803458_9be19b19a8_o.jpg",
    "id_image": "2013_rv_Seat_rv_Leon_rv_Cup_rv_Racer_rv_Concept_rv_V1_rv_1600",
    "count_view": 0
  },
  {
    "link_thumb": "https://live.staticflickr.com/65535/48122957678_e6f950d466_n.jpg",
    "id_album": "-150952028",
    "description": "Volkswagen_350547",
    "title": "Volkswagen_350547",
    "link_img": "https://live.staticflickr.com/65535/48122957678_d487aa379d_o.jpg",
    "id_image": "Volkswagen_350547",
    "count_view": 0
  },
  {
    "link_thumb": "https://live.staticflickr.com/65535/48122591262_2081fecfb4_n.jpg",
    "id_album": "422322641",
    "description": "Subaru_586464",
    "title": "Subaru_586464",
    "link_img": "https://live.staticflickr.com/65535/48122591262_d9d609ddae_o.jpg",
    "id_image": "Subaru_586464",
    "count_view": 0
  },
  {
    "link_thumb": "https://live.staticflickr.com/65535/48119075536_76d08b1703_n.jpg",
    "id_album": "697984456",
    "description": "Maserati_359585",
    "title": "Maserati_359585",
    "link_img": "https://live.staticflickr.com/65535/48119075536_f40de8b49e_o.jpg",
    "id_image": "Maserati_359585",
    "count_view": 0
  },
  {
    "link_thumb": "https://live.staticflickr.com/65535/49890435731_2d1a65cbfe_n.jpg",
    "id_album": "-1470719774",
    "description": "2018_rv_Maserati_rv_Gran_rv_Turismo_rv_MC_rv_V4_rv_2000",
    "title": "2018_rv_Maserati_rv_Gran_rv_Turismo_rv_MC_rv_V4_rv_2000",
    "link_img": "https://live.staticflickr.com/65535/49890435731_d12f937126_o.jpg",
    "id_image": "2018_rv_Maserati_rv_Gran_rv_Turismo_rv_MC_rv_V4_rv_2000",
    "count_view": 0
  },
  {
    "link_thumb": "https://live.staticflickr.com/65535/48118218658_97d70d3082_n.jpg",
    "id_album": "-625217782",
    "description": "Kia_993828",
    "title": "Kia_993828",
    "link_img": "https://live.staticflickr.com/65535/48118218658_19557638b2_o.jpg",
    "id_image": "Kia_993828",
    "count_view": 0
  },
  {
    "link_thumb": "https://live.staticflickr.com/65535/48123235266_b2efa9719c_n.jpg",
    "id_album": "-360260466",
    "description": "Yamaha_545882",
    "title": "Yamaha_545882",
    "link_img": "https://live.staticflickr.com/65535/48123235266_18d887b910_o.jpg",
    "id_image": "Yamaha_545882",
    "count_view": 0
  },
  {
    "link_thumb": "https://live.staticflickr.com/65535/48115894556_7cfa30d00a_n.jpg",
    "id_album": "1364506720",
    "description": "Ferrari_366873",
    "title": "Ferrari_366873",
    "link_img": "https://live.staticflickr.com/65535/48115894556_c1f42edb6a_o.jpg",
    "id_image": "Ferrari_366873",
    "count_view": 0
  },
  {
    "link_thumb": "https://live.staticflickr.com/65535/48112855041_8646c57d5b_n.jpg",
    "id_album": "727633301",
    "description": "BMW_482631",
    "title": "BMW_482631",
    "link_img": "https://live.staticflickr.com/65535/48112855041_fa319f1424_o.jpg",
    "id_image": "BMW_482631",
    "count_view": 0
  },
  {
    "link_thumb": "https://live.staticflickr.com/65535/49888883883_0d82300f50_n.jpg",
    "id_album": "-835450558",
    "description": "2019_rv_Formula1_rv_Renault_rv_RS19_rv_V5_rv_2160",
    "title": "2019_rv_Formula1_rv_Renault_rv_RS19_rv_V5_rv_2160",
    "link_img": "https://live.staticflickr.com/65535/49888883883_c1fbba515b_o.jpg",
    "id_image": "2019_rv_Formula1_rv_Renault_rv_RS19_rv_V5_rv_2160",
    "count_view": 0
  },
  {
    "link_thumb": "https://live.staticflickr.com/65535/49889735281_1f41f73cfa_n.jpg",
    "id_album": "-1031394602",
    "description": "2007_rv_Ford_rv_Mondeo_rv_XR5_rv_V4_rv_1440",
    "title": "2007_rv_Ford_rv_Mondeo_rv_XR5_rv_V4_rv_1440",
    "link_img": "https://live.staticflickr.com/65535/49889735281_4506980743_o.jpg",
    "id_image": "2007_rv_Ford_rv_Mondeo_rv_XR5_rv_V4_rv_1440",
    "count_view": 0
  },
  {
    "link_thumb": "https://live.staticflickr.com/65535/49890068817_556d1b5e41_n.jpg",
    "id_album": "1370790237",
    "description": "2009_rv_Dodge_rv_Challenger_rv_RT_rv_V5_rv_1440",
    "title": "2009_rv_Dodge_rv_Challenger_rv_RT_rv_V5_rv_1440",
    "link_img": "https://live.staticflickr.com/65535/49890068817_a3983fa54e_o.jpg",
    "id_image": "2009_rv_Dodge_rv_Challenger_rv_RT_rv_V5_rv_1440",
    "count_view": 0
  },
  {
    "link_thumb": "https://live.staticflickr.com/65535/48113263863_317c0e36a6_n.jpg",
    "id_album": "727633301",
    "description": "BMW_922903",
    "title": "BMW_922903",
    "link_img": "https://live.staticflickr.com/65535/48113263863_0c9a9509de_o.jpg",
    "id_image": "BMW_922903",
    "count_view": 0
  },
  {
    "link_thumb": "https://live.staticflickr.com/65535/48115870432_2df03bbefb_n.jpg",
    "id_album": "1364506720",
    "description": "Ferrari_317709",
    "title": "Ferrari_317709",
    "link_img": "https://live.staticflickr.com/65535/48115870432_3d8744b82a_o.jpg",
    "id_image": "Ferrari_317709",
    "count_view": 0
  },
  {
    "link_thumb": "https://live.staticflickr.com/65535/48112989826_7d664c1bca_n.jpg",
    "id_album": "727633301",
    "description": "BMW_612394",
    "title": "BMW_612394",
    "link_img": "https://live.staticflickr.com/65535/48112989826_a10df9a36e_o.jpg",
    "id_image": "BMW_612394",
    "count_view": 0
  },
  {
    "link_thumb": "https://live.staticflickr.com/65535/49892296591_96740a32c4_n.jpg",
    "id_album": "1486499240",
    "description": "2014_rv_Rolls_rv_Royce_rv_Wraith_rv_V2_rv_1600",
    "title": "2014_rv_Rolls_rv_Royce_rv_Wraith_rv_V2_rv_1600",
    "link_img": "https://live.staticflickr.com/65535/49892296591_db3672b969_o.jpg",
    "id_image": "2014_rv_Rolls_rv_Royce_rv_Wraith_rv_V2_rv_1600",
    "count_view": 0
  },
  {
    "link_thumb": "https://live.staticflickr.com/65535/49889725062_bee26cf576_n.jpg",
    "id_album": "-1783171482",
    "description": "2014_rv_Formula1_rv_Williams_rv_FW36_rv_V6_rv_1600",
    "title": "2014_rv_Formula1_rv_Williams_rv_FW36_rv_V6_rv_1600",
    "link_img": "https://live.staticflickr.com/65535/49889725062_68e8573bb8_o.jpg",
    "id_image": "2014_rv_Formula1_rv_Williams_rv_FW36_rv_V6_rv_1600",
    "count_view": 0
  },
  {
    "link_thumb": "https://live.staticflickr.com/65535/48114949448_aa7178b359_n.jpg",
    "id_album": "2072464184",
    "description": "Citroen_510117",
    "title": "Citroen_510117",
    "link_img": "https://live.staticflickr.com/65535/48114949448_a8f6afee4d_o.jpg",
    "id_image": "Citroen_510117",
    "count_view": 0
  },
  {
    "link_thumb": "https://live.staticflickr.com/65535/48119899838_de94044034_n.jpg",
    "id_album": "-731054311",
    "description": "MercedesBenz_921735",
    "title": "MercedesBenz_921735",
    "link_img": "https://live.staticflickr.com/65535/48119899838_8cebffabf6_o.jpg",
    "id_image": "MercedesBenz_921735",
    "count_view": 0
  },
  {
    "link_thumb": "https://live.staticflickr.com/65535/49889932733_d8208f9990_n.jpg",
    "id_album": "-1283634575",
    "description": "1959_rv_Maserati_rv_Tipo_rv_61_rv_Birdcage_rv_V2_rv_1440",
    "title": "1959_rv_Maserati_rv_Tipo_rv_61_rv_Birdcage_rv_V2_rv_1440",
    "link_img": "https://live.staticflickr.com/65535/49889932733_4c2a26ff05_o.jpg",
    "id_image": "1959_rv_Maserati_rv_Tipo_rv_61_rv_Birdcage_rv_V2_rv_1440",
    "count_view": 0
  },
  {
    "link_thumb": "https://live.staticflickr.com/65535/48123173857_0f3815e78e_n.jpg",
    "id_album": "-150952028",
    "description": "Volkswagen_946563",
    "title": "Volkswagen_946563",
    "link_img": "https://live.staticflickr.com/65535/48123173857_f35a5967b2_o.jpg",
    "id_image": "Volkswagen_946563",
    "count_view": 0
  },
  {
    "link_thumb": "https://live.staticflickr.com/65535/49891696108_4e0ba7f09d_n.jpg",
    "id_album": "-461005169",
    "description": "2018_rv_Nissan_rv_GT_rv_R50_rv_by_rv_Italdesign_rv_Concept_rv_V7_rv_2000",
    "title": "2018_rv_Nissan_rv_GT_rv_R50_rv_by_rv_Italdesign_rv_Concept_rv_V7_rv_2000",
    "link_img": "https://live.staticflickr.com/65535/49891696108_7c7f7f6e78_o.jpg",
    "id_image": "2018_rv_Nissan_rv_GT_rv_R50_rv_by_rv_Italdesign_rv_Concept_rv_V7_rv_2000",
    "count_view": 0
  },
  {
    "link_thumb": "https://live.staticflickr.com/65535/48115522742_ceb78c9048_n.jpg",
    "id_album": "413141323",
    "description": "Dodge_588113",
    "title": "Dodge_588113",
    "link_img": "https://live.staticflickr.com/65535/48115522742_0e9d868e63_o.jpg",
    "id_image": "Dodge_588113",
    "count_view": 0
  },
  {
    "link_thumb": "https://live.staticflickr.com/65535/48112741056_089f51ce11_n.jpg",
    "id_album": "727633301",
    "description": "BMW_402061",
    "title": "BMW_402061",
    "link_img": "https://live.staticflickr.com/65535/48112741056_98903450b4_o.jpg",
    "id_image": "BMW_402061",
    "count_view": 0
  },
  {
    "link_thumb": "https://live.staticflickr.com/65535/49890820428_4bff92e636_n.jpg",
    "id_album": "-923669998",
    "description": "1965_rv_Pontiac_rv_Tempest_rv_LeMans_rv_GTO_rv_V9_rv_1536",
    "title": "1965_rv_Pontiac_rv_Tempest_rv_LeMans_rv_GTO_rv_V9_rv_1536",
    "link_img": "https://live.staticflickr.com/65535/49890820428_8db266e7a7_o.jpg",
    "id_image": "1965_rv_Pontiac_rv_Tempest_rv_LeMans_rv_GTO_rv_V9_rv_1536",
    "count_view": 0
  },
  {
    "link_thumb": "https://live.staticflickr.com/65535/49890832792_a8e8a51efc_n.jpg",
    "id_album": "819163142",
    "description": "2018_rv_McLaren_rv_570S_rv_Spider_rv_V1_rv_2000",
    "title": "2018_rv_McLaren_rv_570S_rv_Spider_rv_V1_rv_2000",
    "link_img": "https://live.staticflickr.com/65535/49890832792_b179cd42ef_o.jpg",
    "id_image": "2018_rv_McLaren_rv_570S_rv_Spider_rv_V1_rv_2000",
    "count_view": 0
  },
  {
    "link_thumb": "https://live.staticflickr.com/65535/48119397827_a0ae6e1f9d_n.jpg",
    "id_album": "990865885",
    "description": "McLaren_541177",
    "title": "McLaren_541177",
    "link_img": "https://live.staticflickr.com/65535/48119397827_2f35ebda08_o.jpg",
    "id_image": "McLaren_541177",
    "count_view": 0
  },
  {
    "link_thumb": "https://live.staticflickr.com/65535/48120163431_6f386ee680_n.jpg",
    "id_album": "666438681",
    "description": "Motorcycles_219528",
    "title": "Motorcycles_219528",
    "link_img": "https://live.staticflickr.com/65535/48120163431_a89df23b0b_o.jpg",
    "id_image": "Motorcycles_219528",
    "count_view": 0
  },
  {
    "link_thumb": "https://live.staticflickr.com/65535/49892108213_921ebf2fac_n.jpg",
    "id_album": "1199209564",
    "description": "2015_rv_Vauxhall_rv_Astra_rv_VXR_rv_Extreme_rv_V2_rv_1600",
    "title": "2015_rv_Vauxhall_rv_Astra_rv_VXR_rv_Extreme_rv_V2_rv_1600",
    "link_img": "https://live.staticflickr.com/65535/49892108213_f757cd96a1_o.jpg",
    "id_image": "2015_rv_Vauxhall_rv_Astra_rv_VXR_rv_Extreme_rv_V2_rv_1600",
    "count_view": 0
  },
  {
    "link_thumb": "https://live.staticflickr.com/65535/49889456467_a5b06dd63f_n.jpg",
    "id_album": "357418516",
    "description": "2019_rv_Alpina_rv_B3_rv_Touring_rv_V3_rv_2160",
    "title": "2019_rv_Alpina_rv_B3_rv_Touring_rv_V3_rv_2160",
    "link_img": "https://live.staticflickr.com/65535/49889456467_cc95c06990_o.jpg",
    "id_image": "2019_rv_Alpina_rv_B3_rv_Touring_rv_V3_rv_2160",
    "count_view": 0
  },
  {
    "link_thumb": "https://live.staticflickr.com/65535/48113105907_ae468fea28_n.jpg",
    "id_album": "727633301",
    "description": "BMW_687522",
    "title": "BMW_687522",
    "link_img": "https://live.staticflickr.com/65535/48113105907_f7aaa3a6a1_o.jpg",
    "id_image": "BMW_687522",
    "count_view": 0
  },
  {
    "link_thumb": "https://live.staticflickr.com/65535/49889305766_1ac2eb3030_n.jpg",
    "id_album": "91016594",
    "description": "2003_rv_Chrysler_rv_300C_rv_Concept_rv_V5_rv_1536",
    "title": "2003_rv_Chrysler_rv_300C_rv_Concept_rv_V5_rv_1536",
    "link_img": "https://live.staticflickr.com/65535/49889305766_06f1beda52_o.jpg",
    "id_image": "2003_rv_Chrysler_rv_300C_rv_Concept_rv_V5_rv_1536",
    "count_view": 0
  },
  {
    "link_thumb": "https://live.staticflickr.com/65535/49890479067_d25c5dd128_n.jpg",
    "id_album": "-936716449",
    "description": "2019_rv_Lamborghini_rv_Huracan_rv_Performante_rv_Spyder_rv_V11_rv_2000",
    "title": "2019_rv_Lamborghini_rv_Huracan_rv_Performante_rv_Spyder_rv_V11_rv_2000",
    "link_img": "https://live.staticflickr.com/65535/49890479067_817b5442ca_o.jpg",
    "id_image": "2019_rv_Lamborghini_rv_Huracan_rv_Performante_rv_Spyder_rv_V11_rv_2000",
    "count_view": 0
  },
  {
    "link_thumb": "https://live.staticflickr.com/65535/48117740731_1239763942_n.jpg",
    "id_album": "249743491",
    "description": "HarleyDavidson_758486",
    "title": "HarleyDavidson_758486",
    "link_img": "https://live.staticflickr.com/65535/48117740731_0210935403_o.jpg",
    "id_image": "HarleyDavidson_758486",
    "count_view": 0
  },
  {
    "link_thumb": "https://live.staticflickr.com/65535/49889874932_4d20976f4e_n.jpg",
    "id_album": "-1150105315",
    "description": "2008_rv_Formula1_rv_Ferrari_rv_F2008_rv_V3_rv_1440",
    "title": "2008_rv_Formula1_rv_Ferrari_rv_F2008_rv_V3_rv_1440",
    "link_img": "https://live.staticflickr.com/65535/49889874932_dcc10f6cc9_o.jpg",
    "id_image": "2008_rv_Formula1_rv_Ferrari_rv_F2008_rv_V3_rv_1440",
    "count_view": 0
  },
  {
    "link_thumb": "https://live.staticflickr.com/65535/48118674798_92d7c0d799_n.jpg",
    "id_album": "-2100339805",
    "description": "Lamborghini_886866",
    "title": "Lamborghini_886866",
    "link_img": "https://live.staticflickr.com/65535/48118674798_eefb970306_o.jpg",
    "id_image": "Lamborghini_886866",
    "count_view": 0
  },
  {
    "link_thumb": "https://live.staticflickr.com/65535/48121268933_cb2fff2b45_n.jpg",
    "id_album": "-1178450892",
    "description": "Porsche_245271",
    "title": "Porsche_245271",
    "link_img": "https://live.staticflickr.com/65535/48121268933_817889542f_o.jpg",
    "id_image": "Porsche_245271",
    "count_view": 0
  },
  {
    "link_thumb": "https://live.staticflickr.com/65535/48122625613_9f546fcc7a_n.jpg",
    "id_album": "1822826527",
    "description": "TeslaMotors_942388",
    "title": "TeslaMotors_942388",
    "link_img": "https://live.staticflickr.com/65535/48122625613_223d061fd1_o.jpg",
    "id_image": "TeslaMotors_942388",
    "count_view": 0
  },
  {
    "link_thumb": "https://live.staticflickr.com/65535/48117806312_e43cd249e1_n.jpg",
    "id_album": "249743491",
    "description": "HarleyDavidson_541777",
    "title": "HarleyDavidson_541777",
    "link_img": "https://live.staticflickr.com/65535/48117806312_651d65bca5_o.jpg",
    "id_image": "HarleyDavidson_541777",
    "count_view": 0
  },
  {
    "link_thumb": "https://live.staticflickr.com/65535/49889072207_07f7ba7144_n.jpg",
    "id_album": "1600499504",
    "description": "2012_rv_Alfa_rv_Romeo_rv_Disco_rv_Volante_rv_Touring_rv_Concept_rv_V5_rv_1440",
    "title": "2012_rv_Alfa_rv_Romeo_rv_Disco_rv_Volante_rv_Touring_rv_Concept_rv_V5_rv_1440",
    "link_img": "https://live.staticflickr.com/65535/49889072207_1bf5825662_o.jpg",
    "id_image": "2012_rv_Alfa_rv_Romeo_rv_Disco_rv_Volante_rv_Touring_rv_Concept_rv_V5_rv_1440",
    "count_view": 0
  },
  {
    "link_thumb": "https://live.staticflickr.com/65535/48121093731_2fdc8f4acd_n.jpg",
    "id_album": "-2099496752",
    "description": "Pontiac_242982",
    "title": "Pontiac_242982",
    "link_img": "https://live.staticflickr.com/65535/48121093731_46476ab41e_o.jpg",
    "id_image": "Pontiac_242982",
    "count_view": 0
  },
  {
    "link_thumb": "https://live.staticflickr.com/65535/49890234662_329e69ce27_n.jpg",
    "id_album": "-2000594684",
    "description": "2009_rv_Holden_rv_HSV_rv_W427_rv_V2_rv_1440",
    "title": "2009_rv_Holden_rv_HSV_rv_W427_rv_V2_rv_1440",
    "link_img": "https://live.staticflickr.com/65535/49890234662_c5464a2db2_o.jpg",
    "id_image": "2009_rv_Holden_rv_HSV_rv_W427_rv_V2_rv_1440",
    "count_view": 0
  },
  {
    "link_thumb": "https://live.staticflickr.com/65535/48113671456_380b5f4b79_n.jpg",
    "id_album": "-1721545051",
    "description": "Chevrolet_159062",
    "title": "Chevrolet_159062",
    "link_img": "https://live.staticflickr.com/65535/48113671456_becf054292_o.jpg",
    "id_image": "Chevrolet_159062",
    "count_view": 0
  },
  {
    "link_thumb": "https://live.staticflickr.com/65535/49888548883_e51b7479fb_n.jpg",
    "id_album": "-1839908199",
    "description": "2016_rv_BMW_rv_M2_rv_Coupe_rv_V8_rv_1600",
    "title": "2016_rv_BMW_rv_M2_rv_Coupe_rv_V8_rv_1600",
    "link_img": "https://live.staticflickr.com/65535/49888548883_abecdd7fbf_o.jpg",
    "id_image": "2016_rv_BMW_rv_M2_rv_Coupe_rv_V8_rv_1600",
    "count_view": 0
  },
  {
    "link_thumb": "https://live.staticflickr.com/65535/48117748121_034e6db674_n.jpg",
    "id_album": "249743491",
    "description": "HarleyDavidson_923517",
    "title": "HarleyDavidson_923517",
    "link_img": "https://live.staticflickr.com/65535/48117748121_ea0cce0218_o.jpg",
    "id_image": "HarleyDavidson_923517",
    "count_view": 0
  },
  {
    "link_thumb": "https://live.staticflickr.com/65535/48119613632_2cf7274018_n.jpg",
    "id_album": "-731054311",
    "description": "MercedesBenz_257180",
    "title": "MercedesBenz_257180",
    "link_img": "https://live.staticflickr.com/65535/48119613632_83796d9959_o.jpg",
    "id_image": "MercedesBenz_257180",
    "count_view": 0
  },
  {
    "link_thumb": "https://live.staticflickr.com/65535/49891379801_696f9f7cef_n.jpg",
    "id_album": "-857328710",
    "description": "2009_rv_Porsche_rv_Boxster_rv_S_rv_V2_rv_1440",
    "title": "2009_rv_Porsche_rv_Boxster_rv_S_rv_V2_rv_1440",
    "link_img": "https://live.staticflickr.com/65535/49891379801_a7ec13986c_o.jpg",
    "id_image": "2009_rv_Porsche_rv_Boxster_rv_S_rv_V2_rv_1440",
    "count_view": 0
  },
  {
    "link_thumb": "https://live.staticflickr.com/65535/48115893523_9f247cb781_n.jpg",
    "id_album": "1364506720",
    "description": "Ferrari_354803",
    "title": "Ferrari_354803",
    "link_img": "https://live.staticflickr.com/65535/48115893523_61093b242b_o.jpg",
    "id_image": "Ferrari_354803",
    "count_view": 0
  },
  {
    "link_thumb": "https://live.staticflickr.com/65535/49889719782_a0945dff6f_n.jpg",
    "id_album": "122559614",
    "description": "2009_rv_Formula1_rv_Toyota_rv_TF109_rv_V5_rv_1200",
    "title": "2009_rv_Formula1_rv_Toyota_rv_TF109_rv_V5_rv_1200",
    "link_img": "https://live.staticflickr.com/65535/49889719782_8ef976bccb_o.jpg",
    "id_image": "2009_rv_Formula1_rv_Toyota_rv_TF109_rv_V5_rv_1200",
    "count_view": 0
  },
  {
    "link_thumb": "https://live.staticflickr.com/65535/48113554161_570114d7bd_n.jpg",
    "id_album": "-680120434",
    "description": "Cadillac_391869",
    "title": "Cadillac_391869",
    "link_img": "https://live.staticflickr.com/65535/48113554161_d5944fa68a_o.jpg",
    "id_image": "Cadillac_391869",
    "count_view": 0
  },
  {
    "link_thumb": "https://live.staticflickr.com/65535/48112929736_883d4676aa_n.jpg",
    "id_album": "727633301",
    "description": "BMW_492685",
    "title": "BMW_492685",
    "link_img": "https://live.staticflickr.com/65535/48112929736_3a43e47059_o.jpg",
    "id_image": "BMW_492685",
    "count_view": 0
  },
  {
    "link_thumb": "https://live.staticflickr.com/65535/48119631731_b27fe1eece_n.jpg",
    "id_album": "-731054311",
    "description": "MercedesBenz_350278",
    "title": "MercedesBenz_350278",
    "link_img": "https://live.staticflickr.com/65535/48119631731_67e414f482_o.jpg",
    "id_image": "MercedesBenz_350278",
    "count_view": 0
  },
  {
    "link_thumb": "https://live.staticflickr.com/65535/48112965243_3554d80e2a_n.jpg",
    "id_album": "727633301",
    "description": "BMW_491811",
    "title": "BMW_491811",
    "link_img": "https://live.staticflickr.com/65535/48112965243_6045d6d227_o.jpg",
    "id_image": "BMW_491811",
    "count_view": 0
  },
  {
    "link_thumb": "https://live.staticflickr.com/65535/49890907276_636a5e3edc_n.jpg",
    "id_album": "-173102747",
    "description": "1999_rv_Mercedes_rv_Benz_rv_Vision_rv_SLR_rv_Roadster_rv_Concept_rv_V3_rv_1440",
    "title": "1999_rv_Mercedes_rv_Benz_rv_Vision_rv_SLR_rv_Roadster_rv_Concept_rv_V3_rv_1440",
    "link_img": "https://live.staticflickr.com/65535/49890907276_e2e45263c2_o.jpg",
    "id_image": "1999_rv_Mercedes_rv_Benz_rv_Vision_rv_SLR_rv_Roadster_rv_Concept_rv_V3_rv_1440",
    "count_view": 0
  },
  {
    "link_thumb": "https://live.staticflickr.com/65535/48118533361_ccc4f79cee_n.jpg",
    "id_album": "-2100339805",
    "description": "Lamborghini_554920",
    "title": "Lamborghini_554920",
    "link_img": "https://live.staticflickr.com/65535/48118533361_53e91de553_o.jpg",
    "id_image": "Lamborghini_554920",
    "count_view": 0
  },
  {
    "link_thumb": "https://live.staticflickr.com/65535/49891086932_a6316e7943_n.jpg",
    "id_album": "-534151904",
    "description": "2017_rv_Mercedes_rv_Benz_rv_E63_rv_AMG_rv_V4_rv_2000",
    "title": "2017_rv_Mercedes_rv_Benz_rv_E63_rv_AMG_rv_V4_rv_2000",
    "link_img": "https://live.staticflickr.com/65535/49891086932_c79f60576a_o.jpg",
    "id_image": "2017_rv_Mercedes_rv_Benz_rv_E63_rv_AMG_rv_V4_rv_2000",
    "count_view": 0
  },
  {
    "link_thumb": "https://live.staticflickr.com/65535/48119641893_e5d0ddf3c1_n.jpg",
    "id_album": "-731054311",
    "description": "MercedesBenz_319059",
    "title": "MercedesBenz_319059",
    "link_img": "https://live.staticflickr.com/65535/48119641893_4d190281b7_o.jpg",
    "id_image": "MercedesBenz_319059",
    "count_view": 0
  },
  {
    "link_thumb": "https://live.staticflickr.com/65535/49892856912_aea537df75_n.jpg",
    "id_album": "1662834735",
    "description": "2014_rv_Porsche_rv_911_rv_Turbo_rv_V2_rv_1600",
    "title": "2014_rv_Porsche_rv_911_rv_Turbo_rv_V2_rv_1600",
    "link_img": "https://live.staticflickr.com/65535/49892856912_4bbef1a496_o.jpg",
    "id_image": "2014_rv_Porsche_rv_911_rv_Turbo_rv_V2_rv_1600",
    "count_view": 0
  },
  {
    "link_thumb": "https://live.staticflickr.com/65535/49890540556_b2016d4be7_n.jpg",
    "id_album": "1806856197",
    "description": "2015_rv_McLaren_rv_650S_rv_GT3_rv_V11_rv_1600",
    "title": "2015_rv_McLaren_rv_650S_rv_GT3_rv_V11_rv_1600",
    "link_img": "https://live.staticflickr.com/65535/49890540556_71cc62da2b_o.jpg",
    "id_image": "2015_rv_McLaren_rv_650S_rv_GT3_rv_V11_rv_1600",
    "count_view": 0
  },
  {
    "link_thumb": "https://live.staticflickr.com/65535/49891959618_08ceba8ba8_n.jpg",
    "id_album": "746165216",
    "description": "2014_rv_Toyota_rv_GT86_rv_TRD_rv_V7_rv_1600",
    "title": "2014_rv_Toyota_rv_GT86_rv_TRD_rv_V7_rv_1600",
    "link_img": "https://live.staticflickr.com/65535/49891959618_c7ea661925_o.jpg",
    "id_image": "2014_rv_Toyota_rv_GT86_rv_TRD_rv_V7_rv_1600",
    "count_view": 0
  },
  {
    "link_thumb": "https://live.staticflickr.com/65535/48119934053_5c727a93d0_n.jpg",
    "id_album": "-731054311",
    "description": "MercedesBenz_926604",
    "title": "MercedesBenz_926604",
    "link_img": "https://live.staticflickr.com/65535/48119934053_8f7c0dc105_o.jpg",
    "id_image": "MercedesBenz_926604",
    "count_view": 0
  },
  {
    "link_thumb": "https://live.staticflickr.com/65535/48119144586_5bb3e42c0d_n.jpg",
    "id_album": "697984456",
    "description": "Maserati_895918",
    "title": "Maserati_895918",
    "link_img": "https://live.staticflickr.com/65535/48119144586_4b54430d8a_o.jpg",
    "id_image": "Maserati_895918",
    "count_view": 0
  },
  {
    "link_thumb": "https://live.staticflickr.com/65535/49890053161_637fd61b55_n.jpg",
    "id_album": "-1833334379",
    "description": "2010_rv_Koenigsegg_rv_Agera_rv_Prototype_rv_V3_rv_1600",
    "title": "2010_rv_Koenigsegg_rv_Agera_rv_Prototype_rv_V3_rv_1600",
    "link_img": "https://live.staticflickr.com/65535/49890053161_ee330c866e_o.jpg",
    "id_image": "2010_rv_Koenigsegg_rv_Agera_rv_Prototype_rv_V3_rv_1600",
    "count_view": 0
  },
  {
    "link_thumb": "https://live.staticflickr.com/65535/49889806193_032fbb32ef_n.jpg",
    "id_album": "-169526099",
    "description": "2014_rv_Audi_rv_R18_rv_E_rv_Tron_rv_Quattro_rv_LMP1_rv_V1_rv_1600",
    "title": "2014_rv_Audi_rv_R18_rv_E_rv_Tron_rv_Quattro_rv_LMP1_rv_V1_rv_1600",
    "link_img": "https://live.staticflickr.com/65535/49889806193_9373aa14f6_o.jpg",
    "id_image": "2014_rv_Audi_rv_R18_rv_E_rv_Tron_rv_Quattro_rv_LMP1_rv_V1_rv_1600",
    "count_view": 0
  },
  {
    "link_thumb": "https://live.staticflickr.com/65535/49890121297_46b33ecd53_n.jpg",
    "id_album": "-1617578684",
    "description": "2010_rv_Porsche_rv_911_rv_GT3_rv_R_rv_Hybrid_rv_V5_rv_1440",
    "title": "2010_rv_Porsche_rv_911_rv_GT3_rv_R_rv_Hybrid_rv_V5_rv_1440",
    "link_img": "https://live.staticflickr.com/65535/49890121297_03c09feb40_o.jpg",
    "id_image": "2010_rv_Porsche_rv_911_rv_GT3_rv_R_rv_Hybrid_rv_V5_rv_1440",
    "count_view": 0
  },
  {
    "link_thumb": "https://live.staticflickr.com/65535/49892985252_865480c548_n.jpg",
    "id_album": "-393114754",
    "description": "2019_rv_Volkswagen_rv_T_rv_Roc_rv_R_rv_V1_rv_2160",
    "title": "2019_rv_Volkswagen_rv_T_rv_Roc_rv_R_rv_V1_rv_2160",
    "link_img": "https://live.staticflickr.com/65535/49892985252_a79c2b13fa_o.jpg",
    "id_image": "2019_rv_Volkswagen_rv_T_rv_Roc_rv_R_rv_V1_rv_2160",
    "count_view": 0
  },
  {
    "link_thumb": "https://live.staticflickr.com/65535/48119129677_1fb58393e5_n.jpg",
    "id_album": "-1153253263",
    "description": "Lotus_918725",
    "title": "Lotus_918725",
    "link_img": "https://live.staticflickr.com/65535/48119129677_30b1848432_o.jpg",
    "id_image": "Lotus_918725",
    "count_view": 0
  },
  {
    "link_thumb": "https://live.staticflickr.com/65535/49889122841_c54c2b2f2e_n.jpg",
    "id_album": "-1839908036",
    "description": "2020_rv_BMW_rv_7_rv_Series_rv_V5_rv_2160",
    "title": "2020_rv_BMW_rv_7_rv_Series_rv_V5_rv_2160",
    "link_img": "https://live.staticflickr.com/65535/49889122841_30e71d0ca3_o.jpg",
    "id_image": "2020_rv_BMW_rv_7_rv_Series_rv_V5_rv_2160",
    "count_view": 0
  },
  {
    "link_thumb": "https://live.staticflickr.com/65535/48119981766_8a283321c6_n.jpg",
    "id_album": "-1366790033",
    "description": "Mercury_194026",
    "title": "Mercury_194026",
    "link_img": "https://live.staticflickr.com/65535/48119981766_cc0c6631d9_o.jpg",
    "id_image": "Mercury_194026",
    "count_view": 0
  },
  {
    "link_thumb": "https://live.staticflickr.com/65535/48118352798_699e4d245d_n.jpg",
    "id_album": "-2100339805",
    "description": "Lamborghini_318549",
    "title": "Lamborghini_318549",
    "link_img": "https://live.staticflickr.com/65535/48118352798_1d0152d907_o.jpg",
    "id_image": "Lamborghini_318549",
    "count_view": 0
  },
  {
    "link_thumb": "https://live.staticflickr.com/65535/48114326706_9e7dc8a9a3_n.jpg",
    "id_album": "-1721545051",
    "description": "Chevrolet_501173",
    "title": "Chevrolet_501173",
    "link_img": "https://live.staticflickr.com/65535/48114326706_e740a4d85c_o.jpg",
    "id_image": "Chevrolet_501173",
    "count_view": 0
  },
  {
    "link_thumb": "https://live.staticflickr.com/65535/49889927531_dbb23de0ca_n.jpg",
    "id_album": "-2000594684",
    "description": "2015_rv_HSV_rv_Senator_rv_SV_rv_V1_rv_1600",
    "title": "2015_rv_HSV_rv_Senator_rv_SV_rv_V1_rv_1600",
    "link_img": "https://live.staticflickr.com/65535/49889927531_965d528a6d_o.jpg",
    "id_image": "2015_rv_HSV_rv_Senator_rv_SV_rv_V1_rv_1600",
    "count_view": 0
  },
  {
    "link_thumb": "https://live.staticflickr.com/65535/49892857972_4761366276_n.jpg",
    "id_album": "1662834735",
    "description": "2015_rv_Porsche_rv_911_rv_Turbo_rv_Aerokit_rv_V3_rv_1600",
    "title": "2015_rv_Porsche_rv_911_rv_Turbo_rv_Aerokit_rv_V3_rv_1600",
    "link_img": "https://live.staticflickr.com/65535/49892857972_e83d8c54b4_o.jpg",
    "id_image": "2015_rv_Porsche_rv_911_rv_Turbo_rv_Aerokit_rv_V3_rv_1600",
    "count_view": 0
  },
  {
    "link_thumb": "https://live.staticflickr.com/65535/49890191702_fab5ed369b_n.jpg",
    "id_album": "-659575064",
    "description": "2013_rv_Hennessey_rv_Venom_rv_GT_rv_V1_rv_1600",
    "title": "2013_rv_Hennessey_rv_Venom_rv_GT_rv_V1_rv_1600",
    "link_img": "https://live.staticflickr.com/65535/49890191702_d0923cec99_o.jpg",
    "id_image": "2013_rv_Hennessey_rv_Venom_rv_GT_rv_V1_rv_1600",
    "count_view": 0
  },
  {
    "link_thumb": "https://live.staticflickr.com/65535/49889933478_b1c984516c_n.jpg",
    "id_album": "-1283634575",
    "description": "1963_rv_Maserati_rv_Tipo_rv_151_rv_3_rv_V3_rv_1440",
    "title": "1963_rv_Maserati_rv_Tipo_rv_151_rv_3_rv_V3_rv_1440",
    "link_img": "https://live.staticflickr.com/65535/49889933478_9b983ff224_o.jpg",
    "id_image": "1963_rv_Maserati_rv_Tipo_rv_151_rv_3_rv_V3_rv_1440",
    "count_view": 0
  },
  {
    "link_thumb": "https://live.staticflickr.com/65535/49890204426_d60b8bdcc2_n.jpg",
    "id_album": "1957300237",
    "description": "2019_rv_Novitec_rv_Lamborghini_rv_Aventador_rv_SVJ_rv_V3_rv_2160",
    "title": "2019_rv_Novitec_rv_Lamborghini_rv_Aventador_rv_SVJ_rv_V3_rv_2160",
    "link_img": "https://live.staticflickr.com/65535/49890204426_c92454db73_o.jpg",
    "id_image": "2019_rv_Novitec_rv_Lamborghini_rv_Aventador_rv_SVJ_rv_V3_rv_2160",
    "count_view": 0
  },
  {
    "link_thumb": "https://live.staticflickr.com/65535/48115639497_4c9eaa8ce1_n.jpg",
    "id_album": "413141323",
    "description": "Dodge_982078",
    "title": "Dodge_982078",
    "link_img": "https://live.staticflickr.com/65535/48115639497_310cd88b08_o.jpg",
    "id_image": "Dodge_982078",
    "count_view": 0
  },
  {
    "link_thumb": "https://live.staticflickr.com/65535/48114553316_270fcd81a4_n.jpg",
    "id_album": "-1721545051",
    "description": "Chevrolet_805355",
    "title": "Chevrolet_805355",
    "link_img": "https://live.staticflickr.com/65535/48114553316_0ff1f63f12_o.jpg",
    "id_image": "Chevrolet_805355",
    "count_view": 0
  },
  {
    "link_thumb": "https://live.staticflickr.com/65535/48114416646_4558d3b0ee_n.jpg",
    "id_album": "-1721545051",
    "description": "Chevrolet_611928",
    "title": "Chevrolet_611928",
    "link_img": "https://live.staticflickr.com/65535/48114416646_e9889de5e8_o.jpg",
    "id_image": "Chevrolet_611928",
    "count_view": 0
  },
  {
    "link_thumb": "https://live.staticflickr.com/65535/48117410086_84143caacf_n.jpg",
    "id_album": "-1846404630",
    "description": "Ford_740724",
    "title": "Ford_740724",
    "link_img": "https://live.staticflickr.com/65535/48117410086_5a96fa3d9f_o.jpg",
    "id_image": "Ford_740724",
    "count_view": 0
  },
  {
    "link_thumb": "https://live.staticflickr.com/65535/48120637698_d9a7c13e87_n.jpg",
    "id_album": "810634050",
    "description": "Nissan_929300",
    "title": "Nissan_929300",
    "link_img": "https://live.staticflickr.com/65535/48120637698_dfb84061dd_o.jpg",
    "id_image": "Nissan_929300",
    "count_view": 0
  },
  {
    "link_thumb": "https://live.staticflickr.com/65535/49889887656_32a448e061_n.jpg",
    "id_album": "1463562406",
    "description": "2000_rv_Holden_rv_Commodore_rv_SS_rv_V1_rv_1440",
    "title": "2000_rv_Holden_rv_Commodore_rv_SS_rv_V1_rv_1440",
    "link_img": "https://live.staticflickr.com/65535/49889887656_bcc0f1f5b7_o.jpg",
    "id_image": "2000_rv_Holden_rv_Commodore_rv_SS_rv_V1_rv_1440",
    "count_view": 0
  },
  {
    "link_thumb": "https://live.staticflickr.com/65535/49889901608_695cc846bd_n.jpg",
    "id_album": "-544969959",
    "description": "2014_rv_Maserati_rv_Ghibli_rv_V8_rv_1600",
    "title": "2014_rv_Maserati_rv_Ghibli_rv_V8_rv_1600",
    "link_img": "https://live.staticflickr.com/65535/49889901608_d597a119cb_o.jpg",
    "id_image": "2014_rv_Maserati_rv_Ghibli_rv_V8_rv_1600",
    "count_view": 0
  },
  {
    "link_thumb": "https://live.staticflickr.com/65535/48113616151_07d3cc89db_n.jpg",
    "id_album": "-1721545051",
    "description": "Chevrolet_113981",
    "title": "Chevrolet_113981",
    "link_img": "https://live.staticflickr.com/65535/48113616151_510121f071_o.jpg",
    "id_image": "Chevrolet_113981",
    "count_view": 0
  },
  {
    "link_thumb": "https://live.staticflickr.com/65535/48122679092_5e3d9b1802_n.jpg",
    "id_album": "1822826527",
    "description": "TeslaMotors_942372",
    "title": "TeslaMotors_942372",
    "link_img": "https://live.staticflickr.com/65535/48122679092_7467ff8f4d_o.jpg",
    "id_image": "TeslaMotors_942372",
    "count_view": 0
  },
  {
    "link_thumb": "https://live.staticflickr.com/65535/48117858223_133bcba8a5_n.jpg",
    "id_album": "-354267407",
    "description": "Honda_582810",
    "title": "Honda_582810",
    "link_img": "https://live.staticflickr.com/65535/48117858223_84f4b1e7e5_o.jpg",
    "id_image": "Honda_582810",
    "count_view": 0
  },
  {
    "link_thumb": "https://live.staticflickr.com/65535/49889626616_d484c315de_n.jpg",
    "id_album": "-1929184963",
    "description": "2011_rv_Fiat_rv_Abarth_rv_Punto_rv_Evo_rv_Esseesse_rv_V2_rv_1440",
    "title": "2011_rv_Fiat_rv_Abarth_rv_Punto_rv_Evo_rv_Esseesse_rv_V2_rv_1440",
    "link_img": "https://live.staticflickr.com/65535/49889626616_ee99884d87_o.jpg",
    "id_image": "2011_rv_Fiat_rv_Abarth_rv_Punto_rv_Evo_rv_Esseesse_rv_V2_rv_1440",
    "count_view": 0
  },
  {
    "link_thumb": "https://live.staticflickr.com/65535/48114705048_96fbf44b6c_n.jpg",
    "id_album": "-1721545051",
    "description": "Chevrolet_936439",
    "title": "Chevrolet_936439",
    "link_img": "https://live.staticflickr.com/65535/48114705048_eecf02837f_o.jpg",
    "id_image": "Chevrolet_936439",
    "count_view": 0
  },
  {
    "link_thumb": "https://live.staticflickr.com/65535/48122130128_d98c56df98_n.jpg",
    "id_album": "1536700661",
    "description": "RollsRoyce_257774",
    "title": "RollsRoyce_257774",
    "link_img": "https://live.staticflickr.com/65535/48122130128_219ff1bdae_o.jpg",
    "id_image": "RollsRoyce_257774",
    "count_view": 0
  },
  {
    "link_thumb": "https://live.staticflickr.com/65535/48112288057_549cee0265_n.jpg",
    "id_album": "996272974",
    "description": "AstonMartin_885847",
    "title": "AstonMartin_885847",
    "link_img": "https://live.staticflickr.com/65535/48112288057_ac94d66d3b_o.jpg",
    "id_image": "AstonMartin_885847",
    "count_view": 0
  },
  {
    "link_thumb": "https://live.staticflickr.com/65535/49889080913_0960d91d03_n.jpg",
    "id_album": "1444834859",
    "description": "2018_rv_Ferrari_rv_Portofino_rv_V9_rv_2000",
    "title": "2018_rv_Ferrari_rv_Portofino_rv_V9_rv_2000",
    "link_img": "https://live.staticflickr.com/65535/49889080913_fb2e0e951f_o.jpg",
    "id_image": "2018_rv_Ferrari_rv_Portofino_rv_V9_rv_2000",
    "count_view": 0
  },
  {
    "link_thumb": "https://live.staticflickr.com/65535/48114851506_ac6e2ef5a1_n.jpg",
    "id_album": "2072464184",
    "description": "Citroen_291695",
    "title": "Citroen_291695",
    "link_img": "https://live.staticflickr.com/65535/48114851506_a513fa80b8_o.jpg",
    "id_image": "Citroen_291695",
    "count_view": 0
  },
  {
    "link_thumb": "https://live.staticflickr.com/65535/49889914677_184b55c9b0_n.jpg",
    "id_album": "-1205186403",
    "description": "2017_rv_Fiat_rv_124_rv_Spider_rv_Abarth_rv_V4_rv_2000",
    "title": "2017_rv_Fiat_rv_124_rv_Spider_rv_Abarth_rv_V4_rv_2000",
    "link_img": "https://live.staticflickr.com/65535/49889914677_300da90f8a_o.jpg",
    "id_image": "2017_rv_Fiat_rv_124_rv_Spider_rv_Abarth_rv_V4_rv_2000",
    "count_view": 0
  },
  {
    "link_thumb": "https://live.staticflickr.com/65535/49889909021_cbb4aac4b5_n.jpg",
    "id_album": "1134182312",
    "description": "2015_rv_Honda_rv_CR_rv_Z_rv_V4_rv_1600",
    "title": "2015_rv_Honda_rv_CR_rv_Z_rv_V4_rv_1600",
    "link_img": "https://live.staticflickr.com/65535/49889909021_8214846101_o.jpg",
    "id_image": "2015_rv_Honda_rv_CR_rv_Z_rv_V4_rv_1600",
    "count_view": 0
  },
  {
    "link_thumb": "https://live.staticflickr.com/65535/48117137538_090aab9202_n.jpg",
    "id_album": "-1846404630",
    "description": "Ford_400160",
    "title": "Ford_400160",
    "link_img": "https://live.staticflickr.com/65535/48117137538_14327a22b2_o.jpg",
    "id_image": "Ford_400160",
    "count_view": 0
  },
  {
    "link_thumb": "https://live.staticflickr.com/65535/49892400931_415312e133_n.jpg",
    "id_album": "2011336144",
    "description": "2007_rv_Spyker_rv_C12_rv_Zagato_rv_V3_rv_1440",
    "title": "2007_rv_Spyker_rv_C12_rv_Zagato_rv_V3_rv_1440",
    "link_img": "https://live.staticflickr.com/65535/49892400931_21fb34643c_o.jpg",
    "id_image": "2007_rv_Spyker_rv_C12_rv_Zagato_rv_V3_rv_1440",
    "count_view": 0
  },
  {
    "link_thumb": "https://live.staticflickr.com/65535/48112342733_1c2406ed97_n.jpg",
    "id_album": "-15119147",
    "description": "Audi_466411",
    "title": "Audi_466411",
    "link_img": "https://live.staticflickr.com/65535/48112342733_ca4df6ddd4_o.jpg",
    "id_image": "Audi_466411",
    "count_view": 0
  },
  {
    "link_thumb": "https://live.staticflickr.com/65535/48119491762_de1c3e3bf4_n.jpg",
    "id_album": "990865885",
    "description": "McLaren_939486",
    "title": "McLaren_939486",
    "link_img": "https://live.staticflickr.com/65535/48119491762_4d254f201f_o.jpg",
    "id_image": "McLaren_939486",
    "count_view": 0
  },
  {
    "link_thumb": "https://live.staticflickr.com/65535/49888773378_ea70df6546_n.jpg",
    "id_album": "1016927281",
    "description": "2017_rv_Porsche_rv_911_rv_Carrera_rv_V5_rv_1600",
    "title": "2017_rv_Porsche_rv_911_rv_Carrera_rv_V5_rv_1600",
    "link_img": "https://live.staticflickr.com/65535/49888773378_0058024b72_o.jpg",
    "id_image": "2017_rv_Porsche_rv_911_rv_Carrera_rv_V5_rv_1600",
    "count_view": 0
  },
  {
    "link_thumb": "https://live.staticflickr.com/65535/49889578177_4e3b2338b4_n.jpg",
    "id_album": "-10315880",
    "description": "2013_rv_Cadillac_rv_ATS_rv_V1_rv_1440",
    "title": "2013_rv_Cadillac_rv_ATS_rv_V1_rv_1440",
    "link_img": "https://live.staticflickr.com/65535/49889578177_1d9174918d_o.jpg",
    "id_image": "2013_rv_Cadillac_rv_ATS_rv_V1_rv_1440",
    "count_view": 0
  },
  {
    "link_thumb": "https://live.staticflickr.com/65535/49889552758_0b5a52ba0f_n.jpg",
    "id_album": "734896906",
    "description": "2020_rv_Koenigsegg_rv_Jesko_rv_V1_rv_2160",
    "title": "2020_rv_Koenigsegg_rv_Jesko_rv_V1_rv_2160",
    "link_img": "https://live.staticflickr.com/65535/49889552758_9e96ef6676_o.jpg",
    "id_image": "2020_rv_Koenigsegg_rv_Jesko_rv_V1_rv_2160",
    "count_view": 0
  },
  {
    "link_thumb": "https://live.staticflickr.com/65535/48116772661_9b42ebb420_n.jpg",
    "id_album": "-1846404630",
    "description": "Ford_223074",
    "title": "Ford_223074",
    "link_img": "https://live.staticflickr.com/65535/48116772661_0c90f37511_o.jpg",
    "id_image": "Ford_223074",
    "count_view": 0
  },
  {
    "link_thumb": "https://live.staticflickr.com/65535/48119955037_ff4bd9b7fa_n.jpg",
    "id_album": "-731054311",
    "description": "MercedesBenz_919832",
    "title": "MercedesBenz_919832",
    "link_img": "https://live.staticflickr.com/65535/48119955037_a146673a3e_o.jpg",
    "id_image": "MercedesBenz_919832",
    "count_view": 0
  },
  {
    "link_thumb": "https://live.staticflickr.com/65535/49891393502_54f9b66fa2_n.jpg",
    "id_album": "511911558",
    "description": "2010_rv_Nissan_rv_370Z_rv_40th_rv_Anniversary_rv_Edition_rv_V1_rv_1440",
    "title": "2010_rv_Nissan_rv_370Z_rv_40th_rv_Anniversary_rv_Edition_rv_V1_rv_1440",
    "link_img": "https://live.staticflickr.com/65535/49891393502_f55f67d8fc_o.jpg",
    "id_image": "2010_rv_Nissan_rv_370Z_rv_40th_rv_Anniversary_rv_Edition_rv_V1_rv_1440",
    "count_view": 0
  },
  {
    "link_thumb": "https://live.staticflickr.com/65535/48116640913_50557256ed_n.jpg",
    "id_album": "-1846404630",
    "description": "Ford_161018",
    "title": "Ford_161018",
    "link_img": "https://live.staticflickr.com/65535/48116640913_ed2fae68b5_o.jpg",
    "id_image": "Ford_161018",
    "count_view": 0
  },
  {
    "link_thumb": "https://live.staticflickr.com/65535/49892478817_6e46616ff3_n.jpg",
    "id_album": "-842352658",
    "description": "2010_rv_Volkswagen_rv_Golf_rv_R_rv_V8_rv_1440",
    "title": "2010_rv_Volkswagen_rv_Golf_rv_R_rv_V8_rv_1440",
    "link_img": "https://live.staticflickr.com/65535/49892478817_77c879b2cc_o.jpg",
    "id_image": "2010_rv_Volkswagen_rv_Golf_rv_R_rv_V8_rv_1440",
    "count_view": 0
  },
  {
    "link_thumb": "https://live.staticflickr.com/65535/48115476782_52a1f924c9_n.jpg",
    "id_album": "413141323",
    "description": "Dodge_512411",
    "title": "Dodge_512411",
    "link_img": "https://live.staticflickr.com/65535/48115476782_0238b15bf6_o.jpg",
    "id_image": "Dodge_512411",
    "count_view": 0
  },
  {
    "link_thumb": "https://live.staticflickr.com/65535/48118066518_76e19d5ba9_n.jpg",
    "id_album": "-843028318",
    "description": "Jaguar_917694",
    "title": "Jaguar_917694",
    "link_img": "https://live.staticflickr.com/65535/48118066518_278800d183_o.jpg",
    "id_image": "Jaguar_917694",
    "count_view": 0
  },
  {
    "link_thumb": "https://live.staticflickr.com/65535/49889461126_fd39573bdd_n.jpg",
    "id_album": "1069339433",
    "description": "1968_rv_Ferrari_rv_365_rv_GTB4_rv_Daytona_rv_V1_rv_1536",
    "title": "1968_rv_Ferrari_rv_365_rv_GTB4_rv_Daytona_rv_V1_rv_1536",
    "link_img": "https://live.staticflickr.com/65535/49889461126_b181fd68d8_o.jpg",
    "id_image": "1968_rv_Ferrari_rv_365_rv_GTB4_rv_Daytona_rv_V1_rv_1536",
    "count_view": 0
  },
  {
    "link_thumb": "https://live.staticflickr.com/65535/49888762873_2bffaa88d8_n.jpg",
    "id_album": "-1994245008",
    "description": "2009_rv_Cadillac_rv_XLR_rv_V_rv_V3_rv_1536",
    "title": "2009_rv_Cadillac_rv_XLR_rv_V_rv_V3_rv_1536",
    "link_img": "https://live.staticflickr.com/65535/49888762873_e93979afec_o.jpg",
    "id_image": "2009_rv_Cadillac_rv_XLR_rv_V_rv_V3_rv_1536",
    "count_view": 0
  },
  {
    "link_thumb": "https://live.staticflickr.com/65535/48112178358_35b06f4513_n.jpg",
    "id_album": "-1072797263",
    "description": "AstonMartin_470286",
    "title": "AstonMartin_470286",
    "link_img": "https://live.staticflickr.com/65535/48112178358_5df6a9ac3e_o.jpg",
    "id_image": "AstonMartin_470286",
    "count_view": 0
  },
  {
    "link_thumb": "https://live.staticflickr.com/65535/48119287227_2d433361a1_n.jpg",
    "id_album": "898314866",
    "description": "Mazda_257076",
    "title": "Mazda_257076",
    "link_img": "https://live.staticflickr.com/65535/48119287227_c2672814f0_o.jpg",
    "id_image": "Mazda_257076",
    "count_view": 0
  },
  {
    "link_thumb": "https://live.staticflickr.com/65535/49890169787_6d25607a81_n.jpg",
    "id_album": "1891022534",
    "description": "2009_rv_Volkswagen_rv_Golf_rv_GTI_rv_V4_rv_1440",
    "title": "2009_rv_Volkswagen_rv_Golf_rv_GTI_rv_V4_rv_1440",
    "link_img": "https://live.staticflickr.com/65535/49890169787_87092c8042_o.jpg",
    "id_image": "2009_rv_Volkswagen_rv_Golf_rv_GTI_rv_V4_rv_1440",
    "count_view": 0
  },
  {
    "link_thumb": "https://live.staticflickr.com/65535/48112853813_033d00cff7_n.jpg",
    "id_album": "727633301",
    "description": "BMW_470900",
    "title": "BMW_470900",
    "link_img": "https://live.staticflickr.com/65535/48112853813_283d71b84a_o.jpg",
    "id_image": "BMW_470900",
    "count_view": 0
  },
  {
    "link_thumb": "https://live.staticflickr.com/65535/48118264351_9efaaec79c_n.jpg",
    "id_album": "-2100339805",
    "description": "Lamborghini_256284",
    "title": "Lamborghini_256284",
    "link_img": "https://live.staticflickr.com/65535/48118264351_210f500222_o.jpg",
    "id_image": "Lamborghini_256284",
    "count_view": 0
  },
  {
    "link_thumb": "https://live.staticflickr.com/65535/49889326263_8fd81774c6_n.jpg",
    "id_album": "-318023040",
    "description": "2008_rv_Ford_rv_Shelby_rv_Mustang_rv_GT500KR_rv_V8_rv_1440",
    "title": "2008_rv_Ford_rv_Shelby_rv_Mustang_rv_GT500KR_rv_V8_rv_1440",
    "link_img": "https://live.staticflickr.com/65535/49889326263_cbb0001093_o.jpg",
    "id_image": "2008_rv_Ford_rv_Shelby_rv_Mustang_rv_GT500KR_rv_V8_rv_1440",
    "count_view": 0
  },
  {
    "link_thumb": "https://live.staticflickr.com/65535/48111735608_2b485d79a2_n.jpg",
    "id_album": "-1196094796",
    "description": "Indian_167778",
    "title": "Indian_167778",
    "link_img": "https://live.staticflickr.com/65535/48111735608_7818990718_o.jpg",
    "id_image": "Indian_167778",
    "count_view": 0
  },
  {
    "link_thumb": "https://live.staticflickr.com/65535/49891348956_a604a9bffc_n.jpg",
    "id_album": "654772634",
    "description": "1964_rv_Porsche_rv_356C_rv_V6_rv_1536",
    "title": "1964_rv_Porsche_rv_356C_rv_V6_rv_1536",
    "link_img": "https://live.staticflickr.com/65535/49891348956_73754c0c10_o.jpg",
    "id_image": "1964_rv_Porsche_rv_356C_rv_V6_rv_1536",
    "count_view": 0
  },
  {
    "link_thumb": "https://live.staticflickr.com/65535/48118354016_a876c07396_n.jpg",
    "id_album": "-2100339805",
    "description": "Lamborghini_339197",
    "title": "Lamborghini_339197",
    "link_img": "https://live.staticflickr.com/65535/48118354016_35bd00858a_o.jpg",
    "id_image": "Lamborghini_339197",
    "count_view": 0
  },
  {
    "link_thumb": "https://live.staticflickr.com/65535/49891797118_4574fee2ed_n.jpg",
    "id_album": "1439700820",
    "description": "2015_rv_SCG_rv_003_rv_Stradale_rv_V3_rv_1600",
    "title": "2015_rv_SCG_rv_003_rv_Stradale_rv_V3_rv_1600",
    "link_img": "https://live.staticflickr.com/65535/49891797118_43a7f761cc_o.jpg",
    "id_image": "2015_rv_SCG_rv_003_rv_Stradale_rv_V3_rv_1600",
    "count_view": 0
  },
  {
    "link_thumb": "https://live.staticflickr.com/65535/48119405683_f4859a3844_n.jpg",
    "id_album": "990865885",
    "description": "McLaren_896846",
    "title": "McLaren_896846",
    "link_img": "https://live.staticflickr.com/65535/48119405683_9bf11307f0_o.jpg",
    "id_image": "McLaren_896846",
    "count_view": 0
  },
  {
    "link_thumb": "https://live.staticflickr.com/65535/48121045808_f8a3381d89_n.jpg",
    "id_album": "-1123679742",
    "description": "Plymouth_445419",
    "title": "Plymouth_445419",
    "link_img": "https://live.staticflickr.com/65535/48121045808_579cba3a9d_o.jpg",
    "id_image": "Plymouth_445419",
    "count_view": 0
  },
  {
    "link_thumb": "https://live.staticflickr.com/65535/48114381153_c915627db2_n.jpg",
    "id_album": "-1721545051",
    "description": "Chevrolet_503020",
    "title": "Chevrolet_503020",
    "link_img": "https://live.staticflickr.com/65535/48114381153_dfc4116035_o.jpg",
    "id_image": "Chevrolet_503020",
    "count_view": 0
  },
  {
    "link_thumb": "https://live.staticflickr.com/65535/48122800101_9723c95953_n.jpg",
    "id_album": "1274920659",
    "description": "Toyota_919012",
    "title": "Toyota_919012",
    "link_img": "https://live.staticflickr.com/65535/48122800101_afb4a3719c_o.jpg",
    "id_image": "Toyota_919012",
    "count_view": 0
  },
  {
    "link_thumb": "https://live.staticflickr.com/65535/48122504887_f2a301c61f_n.jpg",
    "id_album": "422322641",
    "description": "Subaru_273821",
    "title": "Subaru_273821",
    "link_img": "https://live.staticflickr.com/65535/48122504887_e149fa1b08_o.jpg",
    "id_image": "Subaru_273821",
    "count_view": 0
  },
  {
    "link_thumb": "https://live.staticflickr.com/65535/49889238228_96ac50265c_n.jpg",
    "id_album": "1370790237",
    "description": "2008_rv_Dodge_rv_Challenger_rv_SRT8_rv_V4_rv_1440",
    "title": "2008_rv_Dodge_rv_Challenger_rv_SRT8_rv_V4_rv_1440",
    "link_img": "https://live.staticflickr.com/65535/49889238228_90b50d00ba_o.jpg",
    "id_image": "2008_rv_Dodge_rv_Challenger_rv_SRT8_rv_V4_rv_1440",
    "count_view": 0
  },
  {
    "link_thumb": "https://live.staticflickr.com/65535/49954688277_7e14faa9bc_n.jpg",
    "id_album": "-924016578",
    "description": "2008_rv_Renault_rv_Megane_rv_RS_rv_R26.R_rv_V4_rv_1536",
    "title": "2008_rv_Renault_rv_Megane_rv_RS_rv_R26.R_rv_V4_rv_1536",
    "link_img": "https://live.staticflickr.com/65535/49954688277_df6b88f1a5_o.jpg",
    "id_image": "2008_rv_Renault_rv_Megane_rv_RS_rv_R26.R_rv_V4_rv_1536",
    "count_view": 0
  },
  {
    "link_thumb": "https://live.staticflickr.com/65535/48119610608_40ec7d33e5_n.jpg",
    "id_album": "-731054311",
    "description": "MercedesBenz_315271",
    "title": "MercedesBenz_315271",
    "link_img": "https://live.staticflickr.com/65535/48119610608_567973fe6c_o.jpg",
    "id_image": "MercedesBenz_315271",
    "count_view": 0
  },
  {
    "link_thumb": "https://live.staticflickr.com/65535/49891549882_825177fcf4_n.jpg",
    "id_album": "737299453",
    "description": "2006_rv_Peugeot_rv_207_rv_Spider_rv_V3_rv_1440",
    "title": "2006_rv_Peugeot_rv_207_rv_Spider_rv_V3_rv_1440",
    "link_img": "https://live.staticflickr.com/65535/49891549882_8d950cd8ca_o.jpg",
    "id_image": "2006_rv_Peugeot_rv_207_rv_Spider_rv_V3_rv_1440",
    "count_view": 0
  },
  {
    "link_thumb": "https://live.staticflickr.com/65535/48119498017_b4d71f29a1_n.jpg",
    "id_album": "990865885",
    "description": "McLaren_943617",
    "title": "McLaren_943617",
    "link_img": "https://live.staticflickr.com/65535/48119498017_3694b18ce3_o.jpg",
    "id_image": "McLaren_943617",
    "count_view": 0
  },
  {
    "link_thumb": "https://live.staticflickr.com/65535/48118617102_f5a86056c9_n.jpg",
    "id_album": "-2100339805",
    "description": "Lamborghini_548353",
    "title": "Lamborghini_548353",
    "link_img": "https://live.staticflickr.com/65535/48118617102_cd9485e426_o.jpg",
    "id_image": "Lamborghini_548353",
    "count_view": 0
  },
  {
    "link_thumb": "https://live.staticflickr.com/65535/48121778288_64e9862f21_n.jpg",
    "id_album": "-1178450892",
    "description": "Porsche_929503",
    "title": "Porsche_929503",
    "link_img": "https://live.staticflickr.com/65535/48121778288_82876ecfed_o.jpg",
    "id_image": "Porsche_929503",
    "count_view": 0
  },
  {
    "link_thumb": "https://live.staticflickr.com/65535/48120046313_965fa34306_n.jpg",
    "id_album": "-1116477526",
    "description": "Mitsubishi_257404",
    "title": "Mitsubishi_257404",
    "link_img": "https://live.staticflickr.com/65535/48120046313_b0b947a28f_o.jpg",
    "id_image": "Mitsubishi_257404",
    "count_view": 0
  },
  {
    "link_thumb": "https://live.staticflickr.com/65535/48113841252_6ed751b5da_n.jpg",
    "id_album": "-1721545051",
    "description": "Chevrolet_183684",
    "title": "Chevrolet_183684",
    "link_img": "https://live.staticflickr.com/65535/48113841252_4831928957_o.jpg",
    "id_image": "Chevrolet_183684",
    "count_view": 0
  },
  {
    "link_thumb": "https://live.staticflickr.com/65535/48120748913_128f98e4f1_n.jpg",
    "id_album": "1952909762",
    "description": "Packard_741072",
    "title": "Packard_741072",
    "link_img": "https://live.staticflickr.com/65535/48120748913_6e5cc1667e_o.jpg",
    "id_image": "Packard_741072",
    "count_view": 0
  },
  {
    "link_thumb": "https://live.staticflickr.com/65535/48113939511_8e1136d7c9_n.jpg",
    "id_album": "-1721545051",
    "description": "Chevrolet_272878",
    "title": "Chevrolet_272878",
    "link_img": "https://live.staticflickr.com/65535/48113939511_84993d0f9d_o.jpg",
    "id_image": "Chevrolet_272878",
    "count_view": 0
  },
  {
    "link_thumb": "https://live.staticflickr.com/65535/49888552763_d89d6039f4_n.jpg",
    "id_album": "-1839908199",
    "description": "2020_rv_BMW_rv_M2_rv_CS_rv_V3_rv_2160",
    "title": "2020_rv_BMW_rv_M2_rv_CS_rv_V3_rv_2160",
    "link_img": "https://live.staticflickr.com/65535/49888552763_ba4f59012d_o.jpg",
    "id_image": "2020_rv_BMW_rv_M2_rv_CS_rv_V3_rv_2160",
    "count_view": 0
  },
  {
    "link_thumb": "https://live.staticflickr.com/65535/48118379852_e02177b5b6_n.jpg",
    "id_album": "-2100339805",
    "description": "Lamborghini_282983",
    "title": "Lamborghini_282983",
    "link_img": "https://live.staticflickr.com/65535/48118379852_7012e115c3_o.jpg",
    "id_image": "Lamborghini_282983",
    "count_view": 0
  },
  {
    "link_thumb": "https://live.staticflickr.com/65535/48121466078_22156f59a2_n.jpg",
    "id_album": "-1178450892",
    "description": "Porsche_521719",
    "title": "Porsche_521719",
    "link_img": "https://live.staticflickr.com/65535/48121466078_34a63e3d29_o.jpg",
    "id_image": "Porsche_521719",
    "count_view": 0
  },
  {
    "link_thumb": "https://live.staticflickr.com/65535/48118730583_b37b8171c8_n.jpg",
    "id_album": "-2100339805",
    "description": "Lamborghini_948993",
    "title": "Lamborghini_948993",
    "link_img": "https://live.staticflickr.com/65535/48118730583_52c25b7f3f_o.jpg",
    "id_image": "Lamborghini_948993",
    "count_view": 0
  },
  {
    "link_thumb": "https://live.staticflickr.com/65535/48114291893_a0dd73219d_n.jpg",
    "id_album": "-1721545051",
    "description": "Chevrolet_447695",
    "title": "Chevrolet_447695",
    "link_img": "https://live.staticflickr.com/65535/48114291893_ba4d695c25_o.jpg",
    "id_image": "Chevrolet_447695",
    "count_view": 0
  },
  {
    "link_thumb": "https://live.staticflickr.com/65535/48113764678_676e880a3e_n.jpg",
    "id_album": "-1721545051",
    "description": "Chevrolet_176699",
    "title": "Chevrolet_176699",
    "link_img": "https://live.staticflickr.com/65535/48113764678_5f0e2c1e19_o.jpg",
    "id_image": "Chevrolet_176699",
    "count_view": 0
  },
  {
    "link_thumb": "https://live.staticflickr.com/65535/49890381112_ba8d1de93c_n.jpg",
    "id_album": "734896906",
    "description": "2020_rv_Koenigsegg_rv_Jesko_rv_V5_rv_2160",
    "title": "2020_rv_Koenigsegg_rv_Jesko_rv_V5_rv_2160",
    "link_img": "https://live.staticflickr.com/65535/49890381112_d17a7577bd_o.jpg",
    "id_image": "2020_rv_Koenigsegg_rv_Jesko_rv_V5_rv_2160",
    "count_view": 0
  },
  {
    "link_thumb": "https://live.staticflickr.com/65535/49890004206_4fe07d370b_n.jpg",
    "id_album": "1773051543",
    "description": "2013_rv_Jaguar_rv_XF_rv_Sportbrake_rv_V2_rv_1440",
    "title": "2013_rv_Jaguar_rv_XF_rv_Sportbrake_rv_V2_rv_1440",
    "link_img": "https://live.staticflickr.com/65535/49890004206_afc40f0fde_o.jpg",
    "id_image": "2013_rv_Jaguar_rv_XF_rv_Sportbrake_rv_V2_rv_1440",
    "count_view": 0
  },
  {
    "link_thumb": "https://live.staticflickr.com/65535/49889614377_5fc263e444_n.jpg",
    "id_album": "1089104069",
    "description": "2016_rv_Chevrolet_rv_Volt_rv_V4_rv_1600",
    "title": "2016_rv_Chevrolet_rv_Volt_rv_V4_rv_1600",
    "link_img": "https://live.staticflickr.com/65535/49889614377_e0c5fe88fc_o.jpg",
    "id_image": "2016_rv_Chevrolet_rv_Volt_rv_V4_rv_1600",
    "count_view": 0
  },
  {
    "link_thumb": "https://live.staticflickr.com/65535/48116088691_ca1723dd0d_n.jpg",
    "id_album": "1364506720",
    "description": "Ferrari_529477",
    "title": "Ferrari_529477",
    "link_img": "https://live.staticflickr.com/65535/48116088691_0755c795df_o.jpg",
    "id_image": "Ferrari_529477",
    "count_view": 0
  },
  {
    "link_thumb": "https://live.staticflickr.com/65535/49889188482_f0002cc616_n.jpg",
    "id_album": "-31825570",
    "description": "2019_rv_Aston_rv_Martin_rv_Rapide_rv_AMR_rv_V5_rv_2160",
    "title": "2019_rv_Aston_rv_Martin_rv_Rapide_rv_AMR_rv_V5_rv_2160",
    "link_img": "https://live.staticflickr.com/65535/49889188482_2800c69b78_o.jpg",
    "id_image": "2019_rv_Aston_rv_Martin_rv_Rapide_rv_AMR_rv_V5_rv_2160",
    "count_view": 0
  },
  {
    "link_thumb": "https://live.staticflickr.com/65535/48113206693_0659e536e2_n.jpg",
    "id_album": "727633301",
    "description": "BMW_904499",
    "title": "BMW_904499",
    "link_img": "https://live.staticflickr.com/65535/48113206693_8efb4e0b16_o.jpg",
    "id_image": "BMW_904499",
    "count_view": 0
  },
  {
    "link_thumb": "https://live.staticflickr.com/65535/48116536158_ba25aa25cc_n.jpg",
    "id_album": "-803737857",
    "description": "Fiat_959405",
    "title": "Fiat_959405",
    "link_img": "https://live.staticflickr.com/65535/48116536158_a8ec70008a_o.jpg",
    "id_image": "Fiat_959405",
    "count_view": 0
  },
  {
    "link_thumb": "https://live.staticflickr.com/65535/48116335637_3fcb9c011b_n.jpg",
    "id_album": "1364506720",
    "description": "Ferrari_757791",
    "title": "Ferrari_757791",
    "link_img": "https://live.staticflickr.com/65535/48116335637_247bc42b8a_o.jpg",
    "id_image": "Ferrari_757791",
    "count_view": 0
  },
  {
    "link_thumb": "https://live.staticflickr.com/65535/48121922052_d27c0fb63d_n.jpg",
    "id_album": "-1178450892",
    "description": "Porsche_989950",
    "title": "Porsche_989950",
    "link_img": "https://live.staticflickr.com/65535/48121922052_fb47b5f0cd_o.jpg",
    "id_image": "Porsche_989950",
    "count_view": 0
  },
  {
    "link_thumb": "https://live.staticflickr.com/65535/48114625048_9f863f5f7a_n.jpg",
    "id_album": "-1721545051",
    "description": "Chevrolet_855784",
    "title": "Chevrolet_855784",
    "link_img": "https://live.staticflickr.com/65535/48114625048_ae547d70e2_o.jpg",
    "id_image": "Chevrolet_855784",
    "count_view": 0
  },
  {
    "link_thumb": "https://live.staticflickr.com/65535/48120853292_3a3e5deb1c_n.jpg",
    "id_album": "1952909762",
    "description": "Packard_741859",
    "title": "Packard_741859",
    "link_img": "https://live.staticflickr.com/65535/48120853292_e4e82f0c9a_o.jpg",
    "id_image": "Packard_741859",
    "count_view": 0
  },
  {
    "link_thumb": "https://live.staticflickr.com/65535/49888723503_a051366226_n.jpg",
    "id_album": "-843597859",
    "description": "1968_rv_1982_rv_Chevrolet_rv_C3_rv_Corvette_rv_V2_rv_1440",
    "title": "1968_rv_1982_rv_Chevrolet_rv_C3_rv_Corvette_rv_V2_rv_1440",
    "link_img": "https://live.staticflickr.com/65535/49888723503_6360ecf808_o.jpg",
    "id_image": "1968_rv_1982_rv_Chevrolet_rv_C3_rv_Corvette_rv_V2_rv_1440",
    "count_view": 0
  },
  {
    "link_thumb": "https://live.staticflickr.com/65535/48115634426_02fa2308f0_n.jpg",
    "id_album": "1364506720",
    "description": "Ferrari_187049",
    "title": "Ferrari_187049",
    "link_img": "https://live.staticflickr.com/65535/48115634426_b0e87407a1_o.jpg",
    "id_image": "Ferrari_187049",
    "count_view": 0
  },
  {
    "link_thumb": "https://live.staticflickr.com/65535/48112512951_60cd514b10_n.jpg",
    "id_album": "2097036181",
    "description": "Bentley_352125",
    "title": "Bentley_352125",
    "link_img": "https://live.staticflickr.com/65535/48112512951_530ec8489c_o.jpg",
    "id_image": "Bentley_352125",
    "count_view": 0
  },
  {
    "link_thumb": "https://live.staticflickr.com/65535/48119655152_007cd3b74f_n.jpg",
    "id_album": "-731054311",
    "description": "MercedesBenz_273665",
    "title": "MercedesBenz_273665",
    "link_img": "https://live.staticflickr.com/65535/48119655152_be79569b86_o.jpg",
    "id_image": "MercedesBenz_273665",
    "count_view": 0
  },
  {
    "link_thumb": "https://live.staticflickr.com/65535/48121044238_0bf2ee45f8_n.jpg",
    "id_album": "-1123679742",
    "description": "Plymouth_436657",
    "title": "Plymouth_436657",
    "link_img": "https://live.staticflickr.com/65535/48121044238_98d469d16a_o.jpg",
    "id_image": "Plymouth_436657",
    "count_view": 0
  },
  {
    "link_thumb": "https://live.staticflickr.com/65535/48115255612_2f28b8f5cb_n.jpg",
    "id_album": "413141323",
    "description": "Dodge_30605",
    "title": "Dodge_30605",
    "link_img": "https://live.staticflickr.com/65535/48115255612_b34782566b_o.jpg",
    "id_image": "Dodge_30605",
    "count_view": 0
  },
  {
    "link_thumb": "https://live.staticflickr.com/65535/48121533327_cc5f8e3915_n.jpg",
    "id_album": "-1178450892",
    "description": "Porsche_550376",
    "title": "Porsche_550376",
    "link_img": "https://live.staticflickr.com/65535/48121533327_6f1da74934_o.jpg",
    "id_image": "Porsche_550376",
    "count_view": 0
  },
  {
    "link_thumb": "https://live.staticflickr.com/65535/49892081003_dcd21ce44f_n.jpg",
    "id_album": "-57589574",
    "description": "2018_rv_Aston_rv_Martin_rv_V12_rv_Vantage_rv_V600_rv_V4_rv_2000",
    "title": "2018_rv_Aston_rv_Martin_rv_V12_rv_Vantage_rv_V600_rv_V4_rv_2000",
    "link_img": "https://live.staticflickr.com/65535/49892081003_e8a60c3a26_o.jpg",
    "id_image": "2018_rv_Aston_rv_Martin_rv_V12_rv_Vantage_rv_V600_rv_V4_rv_2000",
    "count_view": 0
  },
  {
    "link_thumb": "https://live.staticflickr.com/65535/48118742318_62d786116b_n.jpg",
    "id_album": "-2100339805",
    "description": "Lamborghini_964053",
    "title": "Lamborghini_964053",
    "link_img": "https://live.staticflickr.com/65535/48118742318_54c9086739_o.jpg",
    "id_image": "Lamborghini_964053",
    "count_view": 0
  },
  {
    "link_thumb": "https://live.staticflickr.com/65535/48116544626_7783e61a73_n.jpg",
    "id_album": "-1846404630",
    "description": "Ford_142093",
    "title": "Ford_142093",
    "link_img": "https://live.staticflickr.com/65535/48116544626_715718c5b7_o.jpg",
    "id_image": "Ford_142093",
    "count_view": 0
  },
  {
    "link_thumb": "https://live.staticflickr.com/65535/48118508863_f302a1b05c_n.jpg",
    "id_album": "-2100339805",
    "description": "Lamborghini_454609",
    "title": "Lamborghini_454609",
    "link_img": "https://live.staticflickr.com/65535/48118508863_cbaa6cd52d_o.jpg",
    "id_image": "Lamborghini_454609",
    "count_view": 0
  },
  {
    "link_thumb": "https://live.staticflickr.com/65535/49890035712_0a976ac931_n.jpg",
    "id_album": "524349362",
    "description": "2017_rv_Ford_rv_GT_rv_66_rv_Heritage_rv_Edition_rv_V2_rv_1600",
    "title": "2017_rv_Ford_rv_GT_rv_66_rv_Heritage_rv_Edition_rv_V2_rv_1600",
    "link_img": "https://live.staticflickr.com/65535/49890035712_4fc13ac8ef_o.jpg",
    "id_image": "2017_rv_Ford_rv_GT_rv_66_rv_Heritage_rv_Edition_rv_V2_rv_1600",
    "count_view": 0
  },
  {
    "link_thumb": "https://live.staticflickr.com/65535/48115838156_1a09665cc2_n.jpg",
    "id_album": "1364506720",
    "description": "Ferrari_317904",
    "title": "Ferrari_317904",
    "link_img": "https://live.staticflickr.com/65535/48115838156_fa93d3af10_o.jpg",
    "id_image": "Ferrari_317904",
    "count_view": 0
  },
  {
    "link_thumb": "https://live.staticflickr.com/65535/49889945047_5696940370_n.jpg",
    "id_album": "1558646706",
    "description": "2013_rv_Chevrolet_rv_Camaro_rv_ZL1_rv_Convertible_rv_V12_rv_1440",
    "title": "2013_rv_Chevrolet_rv_Camaro_rv_ZL1_rv_Convertible_rv_V12_rv_1440",
    "link_img": "https://live.staticflickr.com/65535/49889945047_0f1d4500ea_o.jpg",
    "id_image": "2013_rv_Chevrolet_rv_Camaro_rv_ZL1_rv_Convertible_rv_V12_rv_1440",
    "count_view": 0
  },
  {
    "link_thumb": "https://live.staticflickr.com/65535/48114579763_5175d5c866_n.jpg",
    "id_album": "-1721545051",
    "description": "Chevrolet_776160",
    "title": "Chevrolet_776160",
    "link_img": "https://live.staticflickr.com/65535/48114579763_6fa46b93ab_o.jpg",
    "id_image": "Chevrolet_776160",
    "count_view": 0
  },
  {
    "link_thumb": "https://live.staticflickr.com/65535/48117544907_5b87f3d0c0_n.jpg",
    "id_album": "-1846404630",
    "description": "Ford_778773",
    "title": "Ford_778773",
    "link_img": "https://live.staticflickr.com/65535/48117544907_a41466da7d_o.jpg",
    "id_image": "Ford_778773",
    "count_view": 0
  },
  {
    "link_thumb": "https://live.staticflickr.com/65535/48113695751_a12eed5f32_n.jpg",
    "id_album": "-1721545051",
    "description": "Chevrolet_166260",
    "title": "Chevrolet_166260",
    "link_img": "https://live.staticflickr.com/65535/48113695751_611f33fdf6_o.jpg",
    "id_image": "Chevrolet_166260",
    "count_view": 0
  },
  {
    "link_thumb": "https://live.staticflickr.com/65535/49890238508_1b7034e953_n.jpg",
    "id_album": "-1036470022",
    "description": "2017_rv_Mercedes_rv_Benz_rv_A_rv_Sedan_rv_Concept_rv_V2_rv_2000",
    "title": "2017_rv_Mercedes_rv_Benz_rv_A_rv_Sedan_rv_Concept_rv_V2_rv_2000",
    "link_img": "https://live.staticflickr.com/65535/49890238508_d96a4b22fe_o.jpg",
    "id_image": "2017_rv_Mercedes_rv_Benz_rv_A_rv_Sedan_rv_Concept_rv_V2_rv_2000",
    "count_view": 0
  },
  {
    "link_thumb": "https://live.staticflickr.com/65535/48117897678_e265c207aa_n.jpg",
    "id_album": "-354267407",
    "description": "Honda_684290",
    "title": "Honda_684290",
    "link_img": "https://live.staticflickr.com/65535/48117897678_f4a0fa31e3_o.jpg",
    "id_image": "Honda_684290",
    "count_view": 0
  },
  {
    "link_thumb": "https://live.staticflickr.com/65535/48112278481_77144ed825_n.jpg",
    "id_album": "-15119147",
    "description": "Audi_366519",
    "title": "Audi_366519",
    "link_img": "https://live.staticflickr.com/65535/48112278481_f0c6459c34_o.jpg",
    "id_image": "Audi_366519",
    "count_view": 0
  },
  {
    "link_thumb": "https://live.staticflickr.com/65535/49889967962_a29e75bbcd_n.jpg",
    "id_album": "-135411974",
    "description": "1967_rv_Shelby_rv_GT500_rv_V2_rv_2000",
    "title": "1967_rv_Shelby_rv_GT500_rv_V2_rv_2000",
    "link_img": "https://live.staticflickr.com/65535/49889967962_1e706e0752_o.jpg",
    "id_image": "1967_rv_Shelby_rv_GT500_rv_V2_rv_2000",
    "count_view": 0
  },
  {
    "link_thumb": "https://live.staticflickr.com/65535/48118186547_03f95344c3_n.jpg",
    "id_album": "-2009218697",
    "description": "Jeep_448873",
    "title": "Jeep_448873",
    "link_img": "https://live.staticflickr.com/65535/48118186547_02e86667c2_o.jpg",
    "id_image": "Jeep_448873",
    "count_view": 0
  },
  {
    "link_thumb": "https://live.staticflickr.com/65535/48115224131_b20a661bf6_n.jpg",
    "id_album": "413141323",
    "description": "Dodge_420665",
    "title": "Dodge_420665",
    "link_img": "https://live.staticflickr.com/65535/48115224131_9d15d26420_o.jpg",
    "id_image": "Dodge_420665",
    "count_view": 0
  },
  {
    "link_thumb": "https://live.staticflickr.com/65535/48113159336_64f802e061_n.jpg",
    "id_album": "727633301",
    "description": "BMW_899225",
    "title": "BMW_899225",
    "link_img": "https://live.staticflickr.com/65535/48113159336_4b057c4a7a_o.jpg",
    "id_image": "BMW_899225",
    "count_view": 0
  },
  {
    "link_thumb": "https://live.staticflickr.com/65535/48118386176_2e95012403_n.jpg",
    "id_album": "-2100339805",
    "description": "Lamborghini_373811",
    "title": "Lamborghini_373811",
    "link_img": "https://live.staticflickr.com/65535/48118386176_7e4851548c_o.jpg",
    "id_image": "Lamborghini_373811",
    "count_view": 0
  },
  {
    "link_thumb": "https://live.staticflickr.com/65535/48115462548_d5a586762d_n.jpg",
    "id_album": "413141323",
    "description": "Dodge_568672",
    "title": "Dodge_568672",
    "link_img": "https://live.staticflickr.com/65535/48115462548_92168f8629_o.jpg",
    "id_image": "Dodge_568672",
    "count_view": 0
  },
  {
    "link_thumb": "https://live.staticflickr.com/65535/48120283033_790c496c16_n.jpg",
    "id_album": "666438681",
    "description": "Motorcycles_644630",
    "title": "Motorcycles_644630",
    "link_img": "https://live.staticflickr.com/65535/48120283033_af2a5e8384_o.jpg",
    "id_image": "Motorcycles_644630",
    "count_view": 0
  }
]