[
  {
    "total_img": 0,
    "number_page": 0,
    "title": "Concepts",
    "tag": "Concepts,",
    "description": "Concepts",
    "link_thumb": "https://live.staticflickr.com/65535/49953897483_d1f69fac84_n.jpg",
    "id_album": "42071222",
    "total_view": 47
  }
]