[
  {
    "link_thumb": "https://live.staticflickr.com/65535/49890229137_2dd7bdb4ce_n.jpg",
    "id_album": "-359433426",
    "description": "1999_rv_Honda_rv_S2000_rv_V1_rv_1440",
    "title": "1999_rv_Honda_rv_S2000_rv_V1_rv_1440",
    "link_img": "https://live.staticflickr.com/65535/49890229137_ca18c267b6_o.jpg",
    "id_image": "1999_rv_Honda_rv_S2000_rv_V1_rv_1440",
    "count_view": 0
  },
  {
    "link_thumb": "https://live.staticflickr.com/65535/49889919136_b55e8152f6_n.jpg",
    "id_album": "-359433426",
    "description": "1999_rv_Honda_rv_S2000_rv_V2_rv_1440",
    "title": "1999_rv_Honda_rv_S2000_rv_V2_rv_1440",
    "link_img": "https://live.staticflickr.com/65535/49889919136_93ac8ba70d_o.jpg",
    "id_image": "1999_rv_Honda_rv_S2000_rv_V2_rv_1440",
    "count_view": 0
  },
  {
    "link_thumb": "https://live.staticflickr.com/65535/49889401703_113da3b0ce_n.jpg",
    "id_album": "-359433426",
    "description": "1999_rv_Honda_rv_S2000_rv_V3_rv_1440",
    "title": "1999_rv_Honda_rv_S2000_rv_V3_rv_1440",
    "link_img": "https://live.staticflickr.com/65535/49889401703_926df3bdf7_o.jpg",
    "id_image": "1999_rv_Honda_rv_S2000_rv_V3_rv_1440",
    "count_view": 0
  },
  {
    "link_thumb": "https://live.staticflickr.com/65535/49889401948_be47b34e7d_n.jpg",
    "id_album": "-359433426",
    "description": "2003_rv_Honda_rv_S2000_rv_V10_rv_2000",
    "title": "2003_rv_Honda_rv_S2000_rv_V10_rv_2000",
    "link_img": "https://live.staticflickr.com/65535/49889401948_e04881a327_o.jpg",
    "id_image": "2003_rv_Honda_rv_S2000_rv_V10_rv_2000",
    "count_view": 0
  },
  {
    "link_thumb": "https://live.staticflickr.com/65535/49889919536_0e25ccac24_n.jpg",
    "id_album": "-359433426",
    "description": "2003_rv_Honda_rv_S2000_rv_V11_rv_2000",
    "title": "2003_rv_Honda_rv_S2000_rv_V11_rv_2000",
    "link_img": "https://live.staticflickr.com/65535/49889919536_25b8d3fa0a_o.jpg",
    "id_image": "2003_rv_Honda_rv_S2000_rv_V11_rv_2000",
    "count_view": 0
  },
  {
    "link_thumb": "https://live.staticflickr.com/65535/49890229677_007b82e194_n.jpg",
    "id_album": "-359433426",
    "description": "2003_rv_Honda_rv_S2000_rv_V12_rv_2000",
    "title": "2003_rv_Honda_rv_S2000_rv_V12_rv_2000",
    "link_img": "https://live.staticflickr.com/65535/49890229677_079c1d684d_o.jpg",
    "id_image": "2003_rv_Honda_rv_S2000_rv_V12_rv_2000",
    "count_view": 0
  },
  {
    "link_thumb": "https://live.staticflickr.com/65535/49889919326_2d85872e36_n.jpg",
    "id_album": "-359433426",
    "description": "2003_rv_Honda_rv_S2000_rv_V1_rv_1440",
    "title": "2003_rv_Honda_rv_S2000_rv_V1_rv_1440",
    "link_img": "https://live.staticflickr.com/65535/49889919326_444def32c9_o.jpg",
    "id_image": "2003_rv_Honda_rv_S2000_rv_V1_rv_1440",
    "count_view": 0
  },
  {
    "link_thumb": "https://live.staticflickr.com/65535/49889402253_e60f4a15b0_n.jpg",
    "id_album": "-359433426",
    "description": "2003_rv_Honda_rv_S2000_rv_V2_rv_1440",
    "title": "2003_rv_Honda_rv_S2000_rv_V2_rv_1440",
    "link_img": "https://live.staticflickr.com/65535/49889402253_53506efa5e_o.jpg",
    "id_image": "2003_rv_Honda_rv_S2000_rv_V2_rv_1440",
    "count_view": 0
  },
  {
    "link_thumb": "https://live.staticflickr.com/65535/49889919896_b15156c7b2_n.jpg",
    "id_album": "-359433426",
    "description": "2003_rv_Honda_rv_S2000_rv_V3_rv_1440",
    "title": "2003_rv_Honda_rv_S2000_rv_V3_rv_1440",
    "link_img": "https://live.staticflickr.com/65535/49889919896_902c06c0bb_o.jpg",
    "id_image": "2003_rv_Honda_rv_S2000_rv_V3_rv_1440",
    "count_view": 0
  },
  {
    "link_thumb": "https://live.staticflickr.com/65535/49889920036_f64054ffb4_n.jpg",
    "id_album": "-359433426",
    "description": "2003_rv_Honda_rv_S2000_rv_V4_rv_1440",
    "title": "2003_rv_Honda_rv_S2000_rv_V4_rv_1440",
    "link_img": "https://live.staticflickr.com/65535/49889920036_a6850f1cc1_o.jpg",
    "id_image": "2003_rv_Honda_rv_S2000_rv_V4_rv_1440",
    "count_view": 0
  },
  {
    "link_thumb": "https://live.staticflickr.com/65535/49890230122_bc9a384fa9_n.jpg",
    "id_album": "-359433426",
    "description": "2003_rv_Honda_rv_S2000_rv_V5_rv_1440",
    "title": "2003_rv_Honda_rv_S2000_rv_V5_rv_1440",
    "link_img": "https://live.staticflickr.com/65535/49890230122_cfa305b0bf_o.jpg",
    "id_image": "2003_rv_Honda_rv_S2000_rv_V5_rv_1440",
    "count_view": 0
  },
  {
    "link_thumb": "https://live.staticflickr.com/65535/49889402673_86cc25dcca_n.jpg",
    "id_album": "-359433426",
    "description": "2003_rv_Honda_rv_S2000_rv_V6_rv_1440",
    "title": "2003_rv_Honda_rv_S2000_rv_V6_rv_1440",
    "link_img": "https://live.staticflickr.com/65535/49889402673_ffeaca440a_o.jpg",
    "id_image": "2003_rv_Honda_rv_S2000_rv_V6_rv_1440",
    "count_view": 0
  },
  {
    "link_thumb": "https://live.staticflickr.com/65535/49890230297_f7832e4e28_n.jpg",
    "id_album": "-359433426",
    "description": "2003_rv_Honda_rv_S2000_rv_V7_rv_1440",
    "title": "2003_rv_Honda_rv_S2000_rv_V7_rv_1440",
    "link_img": "https://live.staticflickr.com/65535/49890230297_63e45c1146_o.jpg",
    "id_image": "2003_rv_Honda_rv_S2000_rv_V7_rv_1440",
    "count_view": 0
  },
  {
    "link_thumb": "https://live.staticflickr.com/65535/49889402893_a8341a23e3_n.jpg",
    "id_album": "-359433426",
    "description": "2003_rv_Honda_rv_S2000_rv_V8_rv_1440",
    "title": "2003_rv_Honda_rv_S2000_rv_V8_rv_1440",
    "link_img": "https://live.staticflickr.com/65535/49889402893_30a2813523_o.jpg",
    "id_image": "2003_rv_Honda_rv_S2000_rv_V8_rv_1440",
    "count_view": 0
  },
  {
    "link_thumb": "https://live.staticflickr.com/65535/49890230527_abfd3988ae_n.jpg",
    "id_album": "-359433426",
    "description": "2003_rv_Honda_rv_S2000_rv_V9_rv_1440",
    "title": "2003_rv_Honda_rv_S2000_rv_V9_rv_1440",
    "link_img": "https://live.staticflickr.com/65535/49890230527_fbc257738d_o.jpg",
    "id_image": "2003_rv_Honda_rv_S2000_rv_V9_rv_1440",
    "count_view": 0
  },
  {
    "link_thumb": "https://live.staticflickr.com/65535/49890230662_452099a3de_n.jpg",
    "id_album": "-359433426",
    "description": "2008_rv_Honda_rv_S2000_rv_Type_rv_S_rv_V1_rv_1440",
    "title": "2008_rv_Honda_rv_S2000_rv_Type_rv_S_rv_V1_rv_1440",
    "link_img": "https://live.staticflickr.com/65535/49890230662_d84fd7c50c_o.jpg",
    "id_image": "2008_rv_Honda_rv_S2000_rv_Type_rv_S_rv_V1_rv_1440",
    "count_view": 0
  },
  {
    "link_thumb": "https://live.staticflickr.com/65535/49890230757_04e47edf49_n.jpg",
    "id_album": "-359433426",
    "description": "2008_rv_Honda_rv_S2000_rv_Type_rv_S_rv_V2_rv_1440",
    "title": "2008_rv_Honda_rv_S2000_rv_Type_rv_S_rv_V2_rv_1440",
    "link_img": "https://live.staticflickr.com/65535/49890230757_778aa08bd2_o.jpg",
    "id_image": "2008_rv_Honda_rv_S2000_rv_Type_rv_S_rv_V2_rv_1440",
    "count_view": 0
  },
  {
    "link_thumb": "https://live.staticflickr.com/65535/49889920681_a45e4bbff7_n.jpg",
    "id_album": "-359433426",
    "description": "2008_rv_Honda_rv_S2000_rv_Type_rv_S_rv_V3_rv_1440",
    "title": "2008_rv_Honda_rv_S2000_rv_Type_rv_S_rv_V3_rv_1440",
    "link_img": "https://live.staticflickr.com/65535/49889920681_6bdf5fc2ef_o.jpg",
    "id_image": "2008_rv_Honda_rv_S2000_rv_Type_rv_S_rv_V3_rv_1440",
    "count_view": 0
  },
  {
    "link_thumb": "https://live.staticflickr.com/65535/49890230932_bf32143694_n.jpg",
    "id_album": "-359433426",
    "description": "2008_rv_Honda_rv_S2000_rv_Type_rv_S_rv_V4_rv_1440",
    "title": "2008_rv_Honda_rv_S2000_rv_Type_rv_S_rv_V4_rv_1440",
    "link_img": "https://live.staticflickr.com/65535/49890230932_5b2c94c314_o.jpg",
    "id_image": "2008_rv_Honda_rv_S2000_rv_Type_rv_S_rv_V4_rv_1440",
    "count_view": 0
  },
  {
    "link_thumb": "https://live.staticflickr.com/65535/49889920836_8bb384c821_n.jpg",
    "id_album": "-359433426",
    "description": "2008_rv_Honda_rv_S2000_rv_Type_rv_S_rv_V5_rv_1440",
    "title": "2008_rv_Honda_rv_S2000_rv_Type_rv_S_rv_V5_rv_1440",
    "link_img": "https://live.staticflickr.com/65535/49889920836_456544c1b2_o.jpg",
    "id_image": "2008_rv_Honda_rv_S2000_rv_Type_rv_S_rv_V5_rv_1440",
    "count_view": 0
  },
  {
    "link_thumb": "https://live.staticflickr.com/65535/49890231172_e8079fcdff_n.jpg",
    "id_album": "-359433426",
    "description": "2009_rv_Honda_rv_S2000_rv_CR_rv_V1_rv_1440",
    "title": "2009_rv_Honda_rv_S2000_rv_CR_rv_V1_rv_1440",
    "link_img": "https://live.staticflickr.com/65535/49890231172_10227ab105_o.jpg",
    "id_image": "2009_rv_Honda_rv_S2000_rv_CR_rv_V1_rv_1440",
    "count_view": 0
  },
  {
    "link_thumb": "https://live.staticflickr.com/65535/49889403533_2c7e4457af_n.jpg",
    "id_album": "-359433426",
    "description": "2009_rv_Honda_rv_S2000_rv_CR_rv_V2_rv_1440",
    "title": "2009_rv_Honda_rv_S2000_rv_CR_rv_V2_rv_1440",
    "link_img": "https://live.staticflickr.com/65535/49889403533_a0169c3a3c_o.jpg",
    "id_image": "2009_rv_Honda_rv_S2000_rv_CR_rv_V2_rv_1440",
    "count_view": 0
  },
  {
    "link_thumb": "https://live.staticflickr.com/65535/49889921106_eacb69359b_n.jpg",
    "id_album": "-359433426",
    "description": "2009_rv_Honda_rv_S2000_rv_CR_rv_V3_rv_1440",
    "title": "2009_rv_Honda_rv_S2000_rv_CR_rv_V3_rv_1440",
    "link_img": "https://live.staticflickr.com/65535/49889921106_2a81ac118d_o.jpg",
    "id_image": "2009_rv_Honda_rv_S2000_rv_CR_rv_V3_rv_1440",
    "count_view": 0
  },
  {
    "link_thumb": "https://live.staticflickr.com/65535/49889403723_19b44c813c_n.jpg",
    "id_album": "-359433426",
    "description": "2009_rv_Honda_rv_S2000_rv_CR_rv_V4_rv_1440",
    "title": "2009_rv_Honda_rv_S2000_rv_CR_rv_V4_rv_1440",
    "link_img": "https://live.staticflickr.com/65535/49889403723_8b20a23c5e_o.jpg",
    "id_image": "2009_rv_Honda_rv_S2000_rv_CR_rv_V4_rv_1440",
    "count_view": 0
  },
  {
    "link_thumb": "https://live.staticflickr.com/65535/49890231647_a2f7a7c4ac_n.jpg",
    "id_album": "-359433426",
    "description": "2009_rv_Honda_rv_S2000_rv_CR_rv_V5_rv_1440",
    "title": "2009_rv_Honda_rv_S2000_rv_CR_rv_V5_rv_1440",
    "link_img": "https://live.staticflickr.com/65535/49890231647_d50b974934_o.jpg",
    "id_image": "2009_rv_Honda_rv_S2000_rv_CR_rv_V5_rv_1440",
    "count_view": 0
  },
  {
    "link_thumb": "https://live.staticflickr.com/65535/49889403883_f1d712288e_n.jpg",
    "id_album": "-359433426",
    "description": "2009_rv_Honda_rv_S2000_rv_CR_rv_V6_rv_1440",
    "title": "2009_rv_Honda_rv_S2000_rv_CR_rv_V6_rv_1440",
    "link_img": "https://live.staticflickr.com/65535/49889403883_dea9f917d7_o.jpg",
    "id_image": "2009_rv_Honda_rv_S2000_rv_CR_rv_V6_rv_1440",
    "count_view": 0
  },
  {
    "link_thumb": "https://live.staticflickr.com/65535/49889403968_e3c9d1b3e5_n.jpg",
    "id_album": "-359433426",
    "description": "2009_rv_Honda_rv_S2000_rv_Ultimate_rv_Edition_rv_V1_rv_1536",
    "title": "2009_rv_Honda_rv_S2000_rv_Ultimate_rv_Edition_rv_V1_rv_1536",
    "link_img": "https://live.staticflickr.com/65535/49889403968_aaa58da980_o.jpg",
    "id_image": "2009_rv_Honda_rv_S2000_rv_Ultimate_rv_Edition_rv_V1_rv_1536",
    "count_view": 0
  },
  {
    "link_thumb": "https://live.staticflickr.com/65535/49889404038_51d3ca1503_n.jpg",
    "id_album": "-359433426",
    "description": "2009_rv_Honda_rv_S2000_rv_Ultimate_rv_Edition_rv_V2_rv_1536",
    "title": "2009_rv_Honda_rv_S2000_rv_Ultimate_rv_Edition_rv_V2_rv_1536",
    "link_img": "https://live.staticflickr.com/65535/49889404038_4c7fa80c68_o.jpg",
    "id_image": "2009_rv_Honda_rv_S2000_rv_Ultimate_rv_Edition_rv_V2_rv_1536",
    "count_view": 0
  },
  {
    "link_thumb": "https://live.staticflickr.com/65535/49890231952_1abd2aa612_n.jpg",
    "id_album": "-359433426",
    "description": "2009_rv_Honda_rv_S2000_rv_Ultimate_rv_Edition_rv_V3_rv_1536",
    "title": "2009_rv_Honda_rv_S2000_rv_Ultimate_rv_Edition_rv_V3_rv_1536",
    "link_img": "https://live.staticflickr.com/65535/49890231952_4be1e7e5cb_o.jpg",
    "id_image": "2009_rv_Honda_rv_S2000_rv_Ultimate_rv_Edition_rv_V3_rv_1536",
    "count_view": 0
  },
  {
    "link_thumb": "https://live.staticflickr.com/65535/49890232022_183356676a_n.jpg",
    "id_album": "-359433426",
    "description": "2009_rv_Honda_rv_S2000_rv_Ultimate_rv_Edition_rv_V4_rv_1440",
    "title": "2009_rv_Honda_rv_S2000_rv_Ultimate_rv_Edition_rv_V4_rv_1440",
    "link_img": "https://live.staticflickr.com/65535/49890232022_c67401d82b_o.jpg",
    "id_image": "2009_rv_Honda_rv_S2000_rv_Ultimate_rv_Edition_rv_V4_rv_1440",
    "count_view": 0
  },
  {
    "link_thumb": "https://live.staticflickr.com/65535/49889921781_b076682b29_n.jpg",
    "id_album": "-359433426",
    "description": "2009_rv_Honda_rv_S2000_rv_Ultimate_rv_Edition_rv_V5_rv_1440",
    "title": "2009_rv_Honda_rv_S2000_rv_Ultimate_rv_Edition_rv_V5_rv_1440",
    "link_img": "https://live.staticflickr.com/65535/49889921781_6321695c6d_o.jpg",
    "id_image": "2009_rv_Honda_rv_S2000_rv_Ultimate_rv_Edition_rv_V5_rv_1440",
    "count_view": 0
  },
  {
    "link_thumb": "https://live.staticflickr.com/65535/49890232182_996f2dde0e_n.jpg",
    "id_album": "-359433426",
    "description": "2009_rv_Honda_rv_S2000_rv_Ultimate_rv_Edition_rv_V6_rv_1440",
    "title": "2009_rv_Honda_rv_S2000_rv_Ultimate_rv_Edition_rv_V6_rv_1440",
    "link_img": "https://live.staticflickr.com/65535/49890232182_e8d877cd14_o.jpg",
    "id_image": "2009_rv_Honda_rv_S2000_rv_Ultimate_rv_Edition_rv_V6_rv_1440",
    "count_view": 0
  },
  {
    "link_thumb": "https://live.staticflickr.com/65535/49889404568_6685ba6029_n.jpg",
    "id_album": "-359433426",
    "description": "2009_rv_Honda_rv_S2000_rv_Ultimate_rv_Edition_rv_V7_rv_1440",
    "title": "2009_rv_Honda_rv_S2000_rv_Ultimate_rv_Edition_rv_V7_rv_1440",
    "link_img": "https://live.staticflickr.com/65535/49889404568_04b7ea6023_o.jpg",
    "id_image": "2009_rv_Honda_rv_S2000_rv_Ultimate_rv_Edition_rv_V7_rv_1440",
    "count_view": 0
  },
  {
    "link_thumb": "https://live.staticflickr.com/65535/49889404648_b852a8a87d_n.jpg",
    "id_album": "-359433426",
    "description": "2009_rv_Honda_rv_S2000_rv_Ultimate_rv_Edition_rv_V8_rv_1440",
    "title": "2009_rv_Honda_rv_S2000_rv_Ultimate_rv_Edition_rv_V8_rv_1440",
    "link_img": "https://live.staticflickr.com/65535/49889404648_233a3b0397_o.jpg",
    "id_image": "2009_rv_Honda_rv_S2000_rv_Ultimate_rv_Edition_rv_V8_rv_1440",
    "count_view": 0
  },
  {
    "link_thumb": "https://live.staticflickr.com/65535/49889404753_a02cda7d39_n.jpg",
    "id_album": "-359433426",
    "description": "2009_rv_Honda_rv_S2000_rv_Ultimate_rv_Edition_rv_V9_rv_1440",
    "title": "2009_rv_Honda_rv_S2000_rv_Ultimate_rv_Edition_rv_V9_rv_1440",
    "link_img": "https://live.staticflickr.com/65535/49889404753_42a59c7f3a_o.jpg",
    "id_image": "2009_rv_Honda_rv_S2000_rv_Ultimate_rv_Edition_rv_V9_rv_1440",
    "count_view": 0
  }
]