[
  {
    "total_img": 0,
    "number_page": 0,
    "title": "Saleen S331",
    "tag": "Saleen S331,",
    "description": "Saleen S331",
    "link_thumb": "https://live.staticflickr.com/65535/49891791318_244dd0e0ea_n.jpg",
    "id_album": "1695023626",
    "total_view": 3
  }
]