[
  {
    "total_img": 0,
    "number_page": 0,
    "title": "Volvo C30",
    "tag": "Volvo C30,",
    "description": "Volvo C30",
    "link_thumb": "https://live.staticflickr.com/65535/49892678481_e521147c4f_n.jpg",
    "id_album": "-1081399057",
    "total_view": 20
  }
]