[
  {
    "total_img": 0,
    "number_page": 0,
    "title": "Maserati Quattroporte",
    "tag": "Maserati Quattroporte,",
    "description": "Maserati Quattroporte",
    "link_thumb": "https://live.staticflickr.com/65535/49889923843_fd3383ee22_n.jpg",
    "id_album": "284880556",
    "total_view": 32
  }
]