[
  {
    "total_img": 0,
    "number_page": 0,
    "title": "Peugeot 306",
    "tag": "Peugeot 306,",
    "description": "Peugeot 306",
    "link_thumb": "https://live.staticflickr.com/65535/49890728623_a3c2d6a7c9_n.jpg",
    "id_album": "-1991583903",
    "total_view": 6
  }
]