[
  {
    "total_img": 0,
    "number_page": 0,
    "title": "Porsche 550",
    "tag": "Porsche 550,",
    "description": "Porsche 550",
    "link_thumb": "https://live.staticflickr.com/65535/49891660992_e8b39fd815_n.jpg",
    "id_album": "-508026774",
    "total_view": 6
  }
]